2021-06-21 21:07:04,567 : INFO : root : Loading config.
2021-06-21 21:07:05,340 : INFO : ConfigProcessor : Config spec file cache created: C:\Users\MEESTE~1\AppData\Local\Temp\config_spec.mpf_cache
2021-06-21 21:07:05,341 : INFO : YamlMultifileConfigLoader : Machine config file #1: config.yaml
2021-06-21 21:07:05,341 : INFO : ConfigProcessor : Loading config from cache: C:\Users\MEESTE~1\AppData\Local\Temp\edf7552f13d07d8f591673b9e5d0af44.mpf_cache
2021-06-21 21:07:05,505 : INFO : ConfigProcessor : Loading config from cache: C:\Users\MEESTE~1\AppData\Local\Temp\ba565b152e3a424c60da0fc20421189a.mpf_cache
2021-06-21 21:07:05,507 : INFO : ConfigProcessor : Loading config from cache: C:\Users\MEESTE~1\AppData\Local\Temp\b16855f32fa15912a0c8dc3278537500.mpf_cache
2021-06-21 21:07:05,508 : WARNING : ConfigProcessor : Config file in cache changed: C:\MissionPinball\P\modes\base\config\base.yaml
2021-06-21 21:07:05,508 : INFO : ConfigProcessor : Loading config from file C:\MissionPinball\P\modes\base\config\base.yaml.
2021-06-21 21:07:05,557 : INFO : ConfigProcessor : Loading config: C:\MissionPinball\P\modes\base\config\base.yaml
2021-06-21 21:07:05,559 : INFO : ConfigProcessor : Config file cache created: C:\Users\MEESTE~1\AppData\Local\Temp\eae5e374fdab94bc8ed9a0f08718cef8.mpf_cache
2021-06-21 21:07:05,560 : INFO : ConfigProcessor : Loading config from cache: C:\Users\MEESTE~1\AppData\Local\Temp\06d8f51c2a5c542e4abfbd5f3074f24f.mpf_cache
2021-06-21 21:07:05,561 : INFO : ConfigProcessor : Loading config from cache: C:\Users\MEESTE~1\AppData\Local\Temp\05af67a4df65f9c2a0b6133d009717fd.mpf_cache
2021-06-21 21:07:05,562 : INFO : Machine : Mission Pinball Framework Core Engine v0.54.6
2021-06-21 21:07:05,562 : INFO : Machine : Command line arguments: {'no_load_cache': False, 'create_config_cache': True, 'bcp': True, 'configfile': ['config.yaml'], 'force_assets_load': False, 'jsonlogging': False, 'logfile': 'logs\\2021-06-21-21-07-04-mpf-MeesterPieter.log', 'pause': False, 'production': False, 'text_ui': True, 'loglevel': 15, 'consoleloglevel': 20, 'force_platform': None, 'syslog_address': None, 'mc_file_name': None, 'no_sound': False}
2021-06-21 21:07:05,562 : INFO : Machine : MPF path: c:\mpfenv\lib\site-packages\mpf
2021-06-21 21:07:05,562 : INFO : Machine : Machine path: C:\MissionPinball\P
2021-06-21 21:07:05,562 : INFO : Machine : Platform: win32
2021-06-21 21:07:05,563 : INFO : Machine : Python executable location: c:\mpfenv\scripts\python.exe
2021-06-21 21:07:05,563 : INFO : Machine : Python version: 3.7.8 (64-bit)
2021-06-21 21:07:05,566 : INFO : Machine : Initialise MPF.
2021-06-21 21:07:05,848 : INFO : EventManager : Event: ======'machine_var_credits_string'====== Args={'value': 'FREE PLAY', 'prev_value': None, 'change': True}
2021-06-21 21:07:05,957 : INFO : EventManager : Event: ======'machine_var_player1_score'====== Args={'value': 6778, 'prev_value': None, 'change': True}
2021-06-21 21:07:05,957 : INFO : EventManager : Event: ======'machine_var_mpf_version'====== Args={'value': 'MPF v0.54.6', 'prev_value': None, 'change': True}
2021-06-21 21:07:05,957 : INFO : EventManager : Event: ======'machine_var_mpf_extended_version'====== Args={'value': 'MPF v0.54.6, Config version:5, Show version: 5, BCP version:1.1', 'prev_value': None, 'change': True}
2021-06-21 21:07:05,958 : INFO : EventManager : Event: ======'machine_var_python_version'====== Args={'value': '3.7.8', 'prev_value': None, 'change': True}
2021-06-21 21:07:05,958 : INFO : EventManager : Event: ======'machine_var_platform'====== Args={'value': 'Windows-7-6.1.7601-SP1', 'prev_value': None, 'change': True}
2021-06-21 21:07:05,958 : INFO : EventManager : Event: ======'machine_var_platform_system'====== Args={'value': 'Windows', 'prev_value': None, 'change': True}
2021-06-21 21:07:05,958 : INFO : EventManager : Event: ======'machine_var_platform_release'====== Args={'value': '7', 'prev_value': None, 'change': True}
2021-06-21 21:07:05,958 : INFO : EventManager : Event: ======'machine_var_platform_version'====== Args={'value': '6.1.7601', 'prev_value': None, 'change': True}
2021-06-21 21:07:05,960 : INFO : EventManager : Event: ======'machine_var_platform_machine'====== Args={'value': 'AMD64', 'prev_value': None, 'change': True}
2021-06-21 21:07:05,960 : INFO : EventManager : Event: ======'init_phase_1'====== Args={}
2021-06-21 21:07:06,022 : INFO : EventManager : Event: ======'init_phase_2'====== Args={}
2021-06-21 21:07:06,023 : INFO : SwitchController : Found active switch: ('103', <Platform.SmartVirtual>) <switch.s_trough1>
2021-06-21 21:07:06,023 : INFO : SwitchController : Found active switch: ('104', <Platform.SmartVirtual>) <switch.s_trough2>
2021-06-21 21:07:06,023 : INFO : SwitchController : Found active switch: ('105', <Platform.SmartVirtual>) <switch.s_trough3>
2021-06-21 21:07:06,033 : ERROR : ConfigValidator : Your config contains a value for the setting "widgets:image:widgets:image:width", but this is not a valid setting name.
2021-06-21 21:07:06,033 : ERROR : asyncio : Exception in callback EventManager._queue_task_done(<Task finishe...tting name.')>)
handle: <Handle EventManager._queue_task_done(<Task finishe...tting name.')>)>
Traceback (most recent call last):
  File "C:\Users\Meester Pieter\AppData\Local\Programs\Python\Python37\lib\asyncio\events.py", line 88, in _run
    self._context.run(self._callback, *self._args)
  File "c:\mpfenv\lib\site-packages\mpf\core\events.py", line 716, in _queue_task_done
    future.result()
  File "c:\mpfenv\lib\site-packages\mpf\core\events.py", line 633, in _run_handlers_sequential
    handler.callback(queue=queue, **merged_kwargs)
  File "c:\mpfenv\lib\site-packages\mpf\core\mode_controller.py", line 104, in initialise_modes
    **item.kwargs)
  File "c:\mpfenv\lib\site-packages\mpf\core\config_player.py", line 133, in process_mode_config
    config = self.validate_config(config)
  File "c:\mpfenv\lib\site-packages\mpf\core\config_player.py", line 105, in validate_config
    validated_config[event] = self.validate_config_entry(settings, event)
  File "c:\mpfenv\lib\site-packages\mpf\config_players\device_config_player.py", line 55, in validate_config_entry
    raise e
  File "c:\mpfenv\lib\site-packages\mpf\config_players\device_config_player.py", line 51, in validate_config_entry
    self._validate_config_item(device, device_settings))
  File "c:\mpfenv\lib\site-packages\mpfmc\config_players\plugins\slide_player.py", line 65, in _validate_config_item
    device_settings['widgets'])
  File "c:\mpfenv\lib\site-packages\mpfmc\config_players\plugins\slide_player.py", line 92, in process_widgets
    widget_list.append(self.process_widget(widget))
  File "c:\mpfenv\lib\site-packages\mpfmc\config_players\plugins\slide_player.py", line 112, in process_widget
    config['type']).lower(), config, base_spec='widgets:common')
  File "c:\mpfenv\lib\site-packages\mpf\core\config_validator.py", line 176, in validate_config
    validation_failure_info=validation_failure_info)
  File "c:\mpfenv\lib\site-packages\mpf\core\config_validator.py", line 188, in _validate_config
    self.check_for_invalid_sections(this_spec, source, validation_failure_info)
  File "c:\mpfenv\lib\site-packages\mpf\core\config_validator.py", line 355, in check_for_invalid_sections
    'setting name.', 2, self.log.name)
mpf.exceptions.config_file_error.ConfigFileError: Config File Error in ConfigValidator: Failed to load config player mode_base_started:slides with settings {'widgets': [{'type': 'image', 'image': 'logo.png', 'width': 512, 'height': 128, 'allow_stretch': True, 'keep_ratio': False, '_default_settings': ['type', 'image', 'width', 'height', 'allow_stretch', 'keep_ratio']}, {'type': 'text', 'text': '(score)', 'number_grouping': True, 'min_digits': 2, 'font_size': 100}, {'type': 'text', 'text': 'mode: base', 'y': 200, 'x': 10, 'font_size': 50, 'anchor_x': 'left', 'anchor_y': 'bottom'}, {'type': 'text', 'font_name': 'bhc', 'text': 'cop', 'y': 145, 'x': 'right-140', 'font_size': 63, 'anchor_x': 'right', 'anchor_y': 'bottom', 'color': 'red'}, {'type': 'text', 'font_name': 'bhc', 'text': 'BEVERLY HILLS', 'y': 200, 'x': 'right-20', 'font_size': 50, 'anchor_x': 'right', 'anchor_y': 'bottom'}, {'type': 'text', 'text': 'Player (number)', 'y': 10, 'x': 10, 'font_size': 50, 'anchor_x': 'left', 'anchor_y': 'bottom'}, {'type': 'text', 'text': 'Ball (ball)', 'y': 10, 'x': 'right-10', 'anchor_x': 'right', 'anchor_y': 'bottom', 'font_size': 50}]} >> Your config contains a value for the setting "widgets:image:widgets:image:width", but this is not a valid setting name. Error Code: CFE-ConfigValidator-2 (https://docs.missionpinball.org/en/0.54/logs/CFE-ConfigValidator-2.html)
2021-06-21 21:07:06,040 : INFO : Machine : Starting the main run loop.
2021-06-21 21:07:06,044 : INFO : Machine : Shutting down...
2021-06-21 21:07:06,044 : INFO : EventManager : Event: ======'shutdown'====== Args={}
2021-06-21 21:07:06,046 : ERROR : Machine : Runtime Exception
Traceback (most recent call last):
  File "c:\mpfenv\lib\site-packages\mpf\core\machine.py", line 745, in _run_loop
    raise self._exception['exception']
  File "C:\Users\Meester Pieter\AppData\Local\Programs\Python\Python37\lib\asyncio\events.py", line 88, in _run
    self._context.run(self._callback, *self._args)
  File "c:\mpfenv\lib\site-packages\mpf\core\events.py", line 716, in _queue_task_done
    future.result()
  File "c:\mpfenv\lib\site-packages\mpf\core\events.py", line 633, in _run_handlers_sequential
    handler.callback(queue=queue, **merged_kwargs)
  File "c:\mpfenv\lib\site-packages\mpf\core\mode_controller.py", line 104, in initialise_modes
    **item.kwargs)
  File "c:\mpfenv\lib\site-packages\mpf\core\config_player.py", line 133, in process_mode_config
    config = self.validate_config(config)
  File "c:\mpfenv\lib\site-packages\mpf\core\config_player.py", line 105, in validate_config
    validated_config[event] = self.validate_config_entry(settings, event)
  File "c:\mpfenv\lib\site-packages\mpf\config_players\device_config_player.py", line 55, in validate_config_entry
    raise e
  File "c:\mpfenv\lib\site-packages\mpf\config_players\device_config_player.py", line 51, in validate_config_entry
    self._validate_config_item(device, device_settings))
  File "c:\mpfenv\lib\site-packages\mpfmc\config_players\plugins\slide_player.py", line 65, in _validate_config_item
    device_settings['widgets'])
  File "c:\mpfenv\lib\site-packages\mpfmc\config_players\plugins\slide_player.py", line 92, in process_widgets
    widget_list.append(self.process_widget(widget))
  File "c:\mpfenv\lib\site-packages\mpfmc\config_players\plugins\slide_player.py", line 112, in process_widget
    config['type']).lower(), config, base_spec='widgets:common')
  File "c:\mpfenv\lib\site-packages\mpf\core\config_validator.py", line 176, in validate_config
    validation_failure_info=validation_failure_info)
  File "c:\mpfenv\lib\site-packages\mpf\core\config_validator.py", line 188, in _validate_config
    self.check_for_invalid_sections(this_spec, source, validation_failure_info)
  File "c:\mpfenv\lib\site-packages\mpf\core\config_validator.py", line 355, in check_for_invalid_sections
    'setting name.', 2, self.log.name)
mpf.exceptions.config_file_error.ConfigFileError: Config File Error in ConfigValidator: Failed to load config player mode_base_started:slides with settings {'widgets': [{'type': 'image', 'image': 'logo.png', 'width': 512, 'height': 128, 'allow_stretch': True, 'keep_ratio': False, '_default_settings': ['type', 'image', 'width', 'height', 'allow_stretch', 'keep_ratio']}, {'type': 'text', 'text': '(score)', 'number_grouping': True, 'min_digits': 2, 'font_size': 100}, {'type': 'text', 'text': 'mode: base', 'y': 200, 'x': 10, 'font_size': 50, 'anchor_x': 'left', 'anchor_y': 'bottom'}, {'type': 'text', 'font_name': 'bhc', 'text': 'cop', 'y': 145, 'x': 'right-140', 'font_size': 63, 'anchor_x': 'right', 'anchor_y': 'bottom', 'color': 'red'}, {'type': 'text', 'font_name': 'bhc', 'text': 'BEVERLY HILLS', 'y': 200, 'x': 'right-20', 'font_size': 50, 'anchor_x': 'right', 'anchor_y': 'bottom'}, {'type': 'text', 'text': 'Player (number)', 'y': 10, 'x': 10, 'font_size': 50, 'anchor_x': 'left', 'anchor_y': 'bottom'}, {'type': 'text', 'text': 'Ball (ball)', 'y': 10, 'x': 'right-10', 'anchor_x': 'right', 'anchor_y': 'bottom', 'font_size': 50}]} >> Your config contains a value for the setting "widgets:image:widgets:image:width", but this is not a valid setting name. Error Code: CFE-ConfigValidator-2 (https://docs.missionpinball.org/en/0.54/logs/CFE-ConfigValidator-2.html)
2021-06-21 21:07:06,055 : INFO : root : MPF run loop ended.
