2021-06-11 15:56:13,374 : INFO : root : Loading config.
2021-06-11 15:56:14,153 : INFO : ConfigProcessor : Config spec file cache created: C:\Users\MEESTE~1\AppData\Local\Temp\config_spec.mpf_cache
2021-06-11 15:56:14,154 : INFO : YamlMultifileConfigLoader : Machine config file #1: config.yaml
2021-06-11 15:56:14,155 : INFO : ConfigProcessor : Loading config from cache: C:\Users\MEESTE~1\AppData\Local\Temp\edf7552f13d07d8f591673b9e5d0af44.mpf_cache
2021-06-11 15:56:14,288 : INFO : ConfigProcessor : Loading config from cache: C:\Users\MEESTE~1\AppData\Local\Temp\63bd49ce226a3af45f02b400f9478364.mpf_cache
2021-06-11 15:56:14,290 : INFO : ConfigProcessor : Loading config from cache: C:\Users\MEESTE~1\AppData\Local\Temp\b16855f32fa15912a0c8dc3278537500.mpf_cache
2021-06-11 15:56:14,291 : INFO : Machine : Mission Pinball Framework Core Engine v0.54.6
2021-06-11 15:56:14,291 : INFO : Machine : Command line arguments: {'no_load_cache': False, 'create_config_cache': True, 'bcp': True, 'configfile': ['config.yaml'], 'force_assets_load': False, 'jsonlogging': False, 'logfile': 'logs\\2021-06-11-15-56-13-mpf-MeesterPieter.log', 'pause': False, 'production': False, 'text_ui': True, 'loglevel': 15, 'consoleloglevel': 20, 'force_platform': 'smart_virtual', 'syslog_address': None, 'mc_file_name': None, 'no_sound': False}
2021-06-11 15:56:14,291 : INFO : Machine : MPF path: c:\mpfenv\lib\site-packages\mpf
2021-06-11 15:56:14,291 : INFO : Machine : Machine path: C:\MissionPinball\P
2021-06-11 15:56:14,292 : INFO : Machine : Platform: win32
2021-06-11 15:56:14,292 : INFO : Machine : Python executable location: c:\mpfenv\scripts\python.exe
2021-06-11 15:56:14,292 : INFO : Machine : Python version: 3.7.8 (64-bit)
2021-06-11 15:56:14,295 : INFO : Machine : Initialise MPF.
2021-06-11 15:56:14,521 : INFO : EventManager : Event: ======'machine_var_credits_string'====== Args={'value': 'FREE PLAY', 'prev_value': None, 'change': True}
2021-06-11 15:56:14,623 : INFO : EventManager : Event: ======'machine_var_player1_score'====== Args={'value': 0, 'prev_value': None, 'change': True}
2021-06-11 15:56:14,623 : INFO : EventManager : Event: ======'machine_var_mpf_version'====== Args={'value': 'MPF v0.54.6', 'prev_value': None, 'change': True}
2021-06-11 15:56:14,623 : INFO : EventManager : Event: ======'machine_var_mpf_extended_version'====== Args={'value': 'MPF v0.54.6, Config version:5, Show version: 5, BCP version:1.1', 'prev_value': None, 'change': True}
2021-06-11 15:56:14,623 : INFO : EventManager : Event: ======'machine_var_python_version'====== Args={'value': '3.7.8', 'prev_value': None, 'change': True}
2021-06-11 15:56:14,624 : INFO : EventManager : Event: ======'machine_var_platform'====== Args={'value': 'Windows-7-6.1.7601-SP1', 'prev_value': None, 'change': True}
2021-06-11 15:56:14,624 : INFO : EventManager : Event: ======'machine_var_platform_system'====== Args={'value': 'Windows', 'prev_value': None, 'change': True}
2021-06-11 15:56:14,624 : INFO : EventManager : Event: ======'machine_var_platform_release'====== Args={'value': '7', 'prev_value': None, 'change': True}
2021-06-11 15:56:14,624 : INFO : EventManager : Event: ======'machine_var_platform_version'====== Args={'value': '6.1.7601', 'prev_value': None, 'change': True}
2021-06-11 15:56:14,624 : INFO : EventManager : Event: ======'machine_var_platform_machine'====== Args={'value': 'AMD64', 'prev_value': None, 'change': True}
2021-06-11 15:56:14,624 : INFO : EventManager : Event: ======'init_phase_1'====== Args={}
2021-06-11 15:56:14,679 : INFO : EventManager : Event: ======'init_phase_2'====== Args={}
2021-06-11 15:56:14,679 : INFO : SwitchController : Found active switch: ('103', <Platform.SmartVirtual>) <switch.s_trough1>
2021-06-11 15:56:14,679 : INFO : SwitchController : Found active switch: ('104', <Platform.SmartVirtual>) <switch.s_trough2>
2021-06-11 15:56:14,679 : INFO : SwitchController : Found active switch: ('105', <Platform.SmartVirtual>) <switch.s_trough3>
2021-06-11 15:56:14,684 : INFO : EventManager : Event: ======'bcp_connection_attempt'====== Args={'name': 'local_display', 'host': 'localhost', 'port': 5050}
2021-06-11 15:56:14,686 : INFO : BCPClientSocket : Connecting BCP to 'local_display' at localhost:5050...
2021-06-11 15:56:16,707 : INFO : BCPClientSocket : Connected BCP to 'local_display' localhost:5050
2021-06-11 15:56:16,708 : INFO : EventManager : Event: ======'bcp_clients_connected'====== Args={}
2021-06-11 15:56:16,725 : INFO : EventManager : Event: ======'machine_var_mc_version'====== Args={'value': 'MPF-MC v0.54.2', 'prev_value': None, 'change': True}
2021-06-11 15:56:16,725 : INFO : EventManager : Event: ======'machine_var_mc_extended_version'====== Args={'value': 'MPF-MC v0.54.2 (config_version=5, BCP v1.1, Requires MPF v0.54.0)', 'prev_value': None, 'change': True}
2021-06-11 15:56:16,729 : INFO : EventManager : Event: ======'machine_var_master_volume'====== Args={'value': 0.5, 'prev_value': None, 'change': True}
2021-06-11 15:56:16,730 : INFO : ball_device.bd_drain : State: idle
2021-06-11 15:56:16,759 : INFO : ball_device.bd_trough : State: idle
2021-06-11 15:56:16,761 : INFO : ball_device.bd_plunger : State: idle
2021-06-11 15:56:16,762 : INFO : ball_device.bd_vuk_left : State: idle
2021-06-11 15:56:16,763 : INFO : ball_device.bd_vuk_right : State: idle
2021-06-11 15:56:16,764 : INFO : ball_device.bd_kickout : State: idle
2021-06-11 15:56:16,791 : INFO : EventManager : Event: ======'init_phase_3'====== Args={}
2021-06-11 15:56:16,796 : INFO : EventManager : Event: ======'init_phase_4'====== Args={}
2021-06-11 15:56:16,797 : INFO : BallController : Initial balls found: 3
2021-06-11 15:56:16,798 : INFO : EventManager : Event: ======'machine_var_audits_switches_s_cop_left'====== Args={'value': 0, 'prev_value': None, 'change': True}
2021-06-11 15:56:16,799 : INFO : EventManager : Event: ======'machine_var_audits_switches_s_cop_middle'====== Args={'value': 0, 'prev_value': None, 'change': True}
2021-06-11 15:56:16,799 : INFO : EventManager : Event: ======'machine_var_audits_switches_s_cop_right'====== Args={'value': 0, 'prev_value': None, 'change': True}
2021-06-11 15:56:16,800 : INFO : EventManager : Event: ======'machine_var_audits_switches_s_drain'====== Args={'value': 15, 'prev_value': None, 'change': True}
2021-06-11 15:56:16,801 : INFO : EventManager : Event: ======'machine_var_audits_switches_s_droptarget_left_1'====== Args={'value': 0, 'prev_value': None, 'change': True}
2021-06-11 15:56:16,801 : INFO : EventManager : Event: ======'machine_var_audits_switches_s_droptarget_left_2'====== Args={'value': 0, 'prev_value': None, 'change': True}
2021-06-11 15:56:16,802 : INFO : EventManager : Event: ======'machine_var_audits_switches_s_droptarget_left_3'====== Args={'value': 0, 'prev_value': None, 'change': True}
2021-06-11 15:56:16,803 : INFO : EventManager : Event: ======'machine_var_audits_switches_s_droptarget_middle_1'====== Args={'value': 0, 'prev_value': None, 'change': True}
2021-06-11 15:56:16,803 : INFO : EventManager : Event: ======'machine_var_audits_switches_s_droptarget_middle_2'====== Args={'value': 0, 'prev_value': None, 'change': True}
2021-06-11 15:56:16,804 : INFO : EventManager : Event: ======'machine_var_audits_switches_s_droptarget_middle_3'====== Args={'value': 0, 'prev_value': None, 'change': True}
2021-06-11 15:56:16,805 : INFO : EventManager : Event: ======'machine_var_audits_switches_s_droptarget_right_1'====== Args={'value': 0, 'prev_value': None, 'change': True}
2021-06-11 15:56:16,805 : INFO : EventManager : Event: ======'machine_var_audits_switches_s_droptarget_right_2'====== Args={'value': 0, 'prev_value': None, 'change': True}
2021-06-11 15:56:16,806 : INFO : EventManager : Event: ======'machine_var_audits_switches_s_droptarget_right_3'====== Args={'value': 0, 'prev_value': None, 'change': True}
2021-06-11 15:56:16,806 : INFO : EventManager : Event: ======'machine_var_audits_switches_s_droptarget_right_4'====== Args={'value': 0, 'prev_value': None, 'change': True}
2021-06-11 15:56:16,807 : INFO : EventManager : Event: ======'machine_var_audits_switches_s_droptarget_right_5'====== Args={'value': 0, 'prev_value': None, 'change': True}
2021-06-11 15:56:16,808 : INFO : EventManager : Event: ======'machine_var_audits_switches_s_flipper_left'====== Args={'value': 0, 'prev_value': None, 'change': True}
2021-06-11 15:56:16,808 : INFO : EventManager : Event: ======'machine_var_audits_switches_s_flipper_links'====== Args={'value': 23, 'prev_value': None, 'change': True}
2021-06-11 15:56:16,809 : INFO : EventManager : Event: ======'machine_var_audits_switches_s_flipper_rechts'====== Args={'value': 20, 'prev_value': None, 'change': True}
2021-06-11 15:56:16,809 : INFO : EventManager : Event: ======'machine_var_audits_switches_s_flipper_right'====== Args={'value': 0, 'prev_value': None, 'change': True}
2021-06-11 15:56:16,810 : INFO : EventManager : Event: ======'machine_var_audits_switches_s_foley'====== Args={'value': 25, 'prev_value': None, 'change': True}
2021-06-11 15:56:16,811 : INFO : EventManager : Event: ======'machine_var_audits_switches_s_kickback'====== Args={'value': 0, 'prev_value': None, 'change': True}
2021-06-11 15:56:16,811 : INFO : EventManager : Event: ======'machine_var_audits_switches_s_kickout'====== Args={'value': 0, 'prev_value': None, 'change': True}
2021-06-11 15:56:16,812 : INFO : EventManager : Event: ======'machine_var_audits_switches_s_launch_button'====== Args={'value': 13, 'prev_value': None, 'change': True}
2021-06-11 15:56:16,813 : INFO : EventManager : Event: ======'machine_var_audits_switches_s_plunger'====== Args={'value': 10, 'prev_value': None, 'change': True}
2021-06-11 15:56:16,813 : INFO : EventManager : Event: ======'machine_var_audits_switches_s_ramp_left'====== Args={'value': 0, 'prev_value': None, 'change': True}
2021-06-11 15:56:16,814 : INFO : EventManager : Event: ======'machine_var_audits_switches_s_slingshot_left'====== Args={'value': 0, 'prev_value': None, 'change': True}
2021-06-11 15:56:16,815 : INFO : EventManager : Event: ======'machine_var_audits_switches_s_slingshot_right'====== Args={'value': 0, 'prev_value': None, 'change': True}
2021-06-11 15:56:16,816 : INFO : EventManager : Event: ======'machine_var_audits_switches_s_spinner'====== Args={'value': 0, 'prev_value': None, 'change': True}
2021-06-11 15:56:16,816 : INFO : EventManager : Event: ======'machine_var_audits_switches_s_start'====== Args={'value': 3, 'prev_value': None, 'change': True}
2021-06-11 15:56:16,817 : INFO : EventManager : Event: ======'machine_var_audits_switches_s_trough1'====== Args={'value': 16, 'prev_value': None, 'change': True}
2021-06-11 15:56:16,818 : INFO : EventManager : Event: ======'machine_var_audits_switches_s_trough2'====== Args={'value': 1, 'prev_value': None, 'change': True}
2021-06-11 15:56:16,819 : INFO : EventManager : Event: ======'machine_var_audits_switches_s_trough3'====== Args={'value': 1, 'prev_value': None, 'change': True}
2021-06-11 15:56:16,820 : INFO : EventManager : Event: ======'machine_var_audits_switches_s_turbo_left'====== Args={'value': 0, 'prev_value': None, 'change': True}
2021-06-11 15:56:16,820 : INFO : EventManager : Event: ======'machine_var_audits_switches_s_turbo_links'====== Args={'value': 1, 'prev_value': None, 'change': True}
2021-06-11 15:56:16,821 : INFO : EventManager : Event: ======'machine_var_audits_switches_s_turbo_midden'====== Args={'value': 10, 'prev_value': None, 'change': True}
2021-06-11 15:56:16,822 : INFO : EventManager : Event: ======'machine_var_audits_switches_s_turbo_middle'====== Args={'value': 0, 'prev_value': None, 'change': True}
2021-06-11 15:56:16,823 : INFO : EventManager : Event: ======'machine_var_audits_switches_s_turbo_rechts'====== Args={'value': 3, 'prev_value': None, 'change': True}
2021-06-11 15:56:16,824 : INFO : EventManager : Event: ======'machine_var_audits_switches_s_turbo_right'====== Args={'value': 0, 'prev_value': None, 'change': True}
2021-06-11 15:56:16,824 : INFO : EventManager : Event: ======'machine_var_audits_switches_s_vuk_left'====== Args={'value': 0, 'prev_value': None, 'change': True}
2021-06-11 15:56:16,825 : INFO : EventManager : Event: ======'machine_var_audits_switches_s_vuk_right'====== Args={'value': 0, 'prev_value': None, 'change': True}
2021-06-11 15:56:16,826 : INFO : EventManager : Event: ======'init_phase_5'====== Args={}
2021-06-11 15:56:16,849 : INFO : EventManager : Event: ======'init_done'====== Args={}
2021-06-11 15:56:16,850 : INFO : EventManager : Event: ======'machine_reset_phase_1'====== Args={}
2021-06-11 15:56:16,863 : INFO : EventManager : Event: ======'slide_welcome_slide_removed'====== Args={'_from_bcp': True}
2021-06-11 15:56:16,868 : INFO : EventManager : Event: ======'slide_welcome_slide_created'====== Args={'_from_bcp': True}
2021-06-11 15:56:16,870 : INFO : EventManager : Event: ======'machine_reset_phase_2'====== Args={}
2021-06-11 15:56:16,870 : INFO : EventManager : Event: ======'machine_reset_phase_3'====== Args={}
2021-06-11 15:56:16,870 : INFO : EventManager : Event: ======'reset_complete'====== Args={}
2021-06-11 15:56:16,871 : INFO : EventManager : Event: ======'mode_attract_will_start'====== Args={}
2021-06-11 15:56:16,871 : INFO : EventManager : Event: ======'mode_attract_starting'====== Args={}
2021-06-11 15:56:16,872 : INFO : Mode.attract : Started. Priority: 10
2021-06-11 15:56:16,872 : INFO : EventManager : Event: ======'modes_active_modes_changed'====== Args={}
2021-06-11 15:56:16,872 : INFO : EventManager : Event: ======'mode_attract_started'====== Args={}
2021-06-11 15:56:16,873 : INFO : EventManager : Event: ======'collecting_balls_complete'====== Args={}
2021-06-11 15:56:16,909 : INFO : EventManager : Event: ======'slide_welcome_slide_active'====== Args={'_from_bcp': True}
2021-06-11 15:56:16,909 : INFO : EventManager : Event: ======'slide_attract_started_created'====== Args={'_from_bcp': True}
2021-06-11 15:56:16,910 : INFO : EventManager : Event: ======'slide_attract_started_active'====== Args={'_from_bcp': True}
2021-06-11 15:56:16,910 : INFO : Machine : Starting the main run loop.
2021-06-11 15:56:16,948 : INFO : BcpServer : New client connected.
2021-06-11 15:56:18,413 : INFO : Machine : Shutting down...
2021-06-11 15:56:18,413 : INFO : EventManager : Event: ======'shutdown'====== Args={}
2021-06-11 15:56:18,420 : INFO : root : MPF run loop ended.
