2021-06-25 11:01:21,821 : kivy : Factory: 184 symbols loaded
2021-06-25 11:01:22,095 : kivy : ImageLoaderFFPy: Using ffpyplayer 4.3.1
2021-06-25 11:01:22,095 : kivy : Image: Providers: img_tex, img_dds, img_sdl2, img_pil, img_ffpyplayer, img_gif 
2021-06-25 11:01:22,185 : kivy : VideoGstplayer: Using Gstreamer 1.16.0.0
2021-06-25 11:01:22,185 : kivy : Video: Provider: gstplayer
2021-06-25 11:01:22,295 : kivy : Loading MPF-MC controller
2021-06-25 11:01:23,077 : ConfigProcessor : Config spec file cache created: C:\Users\MEESTE~1\AppData\Local\Temp\config_spec.mpf_cache
2021-06-25 11:01:23,078 : YamlMultifileConfigLoader : Machine config file #1: config
2021-06-25 11:01:23,078 : ConfigProcessor : Config file in cache changed: C:\MissionPinball\P\config\config
2021-06-25 11:01:23,078 : ConfigProcessor : Loading config from file c:\mpfenv\lib\site-packages\mpfmc\mcconfig.yaml.
2021-06-25 11:01:23,158 : ConfigProcessor : Loading config: c:\mpfenv\lib\site-packages\mpfmc\mcconfig.yaml
2021-06-25 11:01:23,158 : ConfigProcessor : Loading config from file C:\MissionPinball\P\config\config.
2021-06-25 11:01:23,163 : ConfigProcessor : Loading config: C:\MissionPinball\P\config\config
2021-06-25 11:01:23,288 : ConfigProcessor : Loading config: C:\MissionPinball\P\config\hardware.yaml
2021-06-25 11:01:23,293 : ConfigProcessor : Config file cache created: C:\Users\MEESTE~1\AppData\Local\Temp\7378a4f6b33991d5f3fd6d3ac4fb5d99.mpf_cache
2021-06-25 11:01:23,294 : ConfigProcessor : Loading config from cache: C:\Users\MEESTE~1\AppData\Local\Temp\ba565b152e3a424c60da0fc20421189a.mpf_cache
2021-06-25 11:01:23,295 : ConfigProcessor : Loading config from cache: C:\Users\MEESTE~1\AppData\Local\Temp\b16855f32fa15912a0c8dc3278537500.mpf_cache
2021-06-25 11:01:23,296 : ConfigProcessor : Loading config from cache: C:\Users\MEESTE~1\AppData\Local\Temp\eae5e374fdab94bc8ed9a0f08718cef8.mpf_cache
2021-06-25 11:01:23,297 : mpfmc : Mission Pinball Framework Media Controller v0.54.2
2021-06-25 11:01:23,297 : mpfmc : Mission Pinball Framework Game Engine v0.54.6
2021-06-25 11:01:23,297 : mpfmc : Machine path: C:\MissionPinball\P
2021-06-25 11:01:23,297 : mpfmc : Starting clock at 60.0Hz
2021-06-25 11:01:23,323 : kivy : Text: Provider: sdl2
2021-06-25 11:01:23,408 : kivy : Window: Provider: sdl2
2021-06-25 11:01:24,226 : kivy : GL: Using the "OpenGL" graphics system
2021-06-25 11:01:24,231 : kivy : GL: GLEW initialization succeeded
2021-06-25 11:01:24,231 : kivy : GL: Backend used <glew>
2021-06-25 11:01:24,232 : kivy : GL: OpenGL version <b'4.5.0 NVIDIA 377.11'>
2021-06-25 11:01:24,232 : kivy : GL: OpenGL vendor <b'NVIDIA Corporation'>
2021-06-25 11:01:24,232 : kivy : GL: OpenGL renderer <b'Quadro 1000M/PCIe/SSE2'>
2021-06-25 11:01:24,233 : kivy : GL: OpenGL parsed version: 4, 5
2021-06-25 11:01:24,233 : kivy : GL: Shading version <b'4.50 NVIDIA'>
2021-06-25 11:01:24,233 : kivy : GL: Texture max size <16384>
2021-06-25 11:01:24,233 : kivy : GL: Texture max units <32>
2021-06-25 11:01:24,265 : kivy : Window: auto add sdl2 input provider
2021-06-25 11:01:24,266 : kivy : Window: virtual keyboard not allowed, single mode, not docked
2021-06-25 11:01:24,283 : SoundSystem : SoundSystem: Using default 'sound_system' settings
2021-06-25 11:01:24,751 : AudioInterface : Initialized
2021-06-25 11:01:24,752 : SoundSystem : No audio tracks are specified in your machine config file. a track named 'default' has been created.
2021-06-25 11:01:24,755 : kivy : Base: Start application main loop
2021-06-25 11:01:24,756 : EventManager : Event: ======'display_window_initialized'====== Args={}
2021-06-25 11:01:24,788 : mpfmc : Display: Setting 'window' as default display
2021-06-25 11:01:24,796 : mpfmc : ASPECT RATIO MISMATCH: The on-screen window is not the same aspect ratio as the display called 'window'. The logical display will be scaled from 1024x256 to the window size 800x600, and a black bar will make up the difference
2021-06-25 11:01:24,796 : EventManager : Event: ======'displays_initialized'====== Args={}
2021-06-25 11:01:24,798 : EventManager : Event: ======'slide_window_blank_created'====== Args={}
2021-06-25 11:01:24,798 : EventManager : Event: ======'display_window_ready'====== Args={}
2021-06-25 11:01:24,826 : EventManager : Event: ======'init_phase_1'====== Args={}
2021-06-25 11:01:24,835 : EventManager : Event: ======'mc_ready'====== Args={}
2021-06-25 11:01:24,835 : EventManager : Event: ======'init_phase_2'====== Args={}
2021-06-25 11:01:24,840 : EventManager : Event: ======'init_phase_3'====== Args={}
2021-06-25 11:01:24,841 : AssetManager : Registering Asset: kiss, File: kiss.jpg, Default Group: default, Final Config: {'load': 'preload', 'file': 'C:\\MissionPinball\\P\\images\\kiss.jpg'}
2021-06-25 11:01:24,841 : AssetManager : Registering Asset: logo, File: logo.png, Default Group: default, Final Config: {'load': 'preload', 'file': 'C:\\MissionPinball\\P\\images\\logo.png'}
2021-06-25 11:01:24,841 : AssetManager : Registering Asset: wonderworld1, File: wonderworld1.png, Default Group: default, Final Config: {'load': 'preload', 'file': 'C:\\MissionPinball\\P\\images\\wonderworld1.png'}
2021-06-25 11:01:24,842 : AssetManager : Registering Asset: wonderworld2, File: wonderworld2.png, Default Group: default, Final Config: {'load': 'preload', 'file': 'C:\\MissionPinball\\P\\images\\wonderworld2.png'}
2021-06-25 11:01:24,843 : AssetManager : Registering Asset: music, File: music.wav, Default Group: default, Final Config: {'load': 'preload', 'file': 'C:\\MissionPinball\\P\\modes\\base\\sounds\\music\\music.wav'}
2021-06-25 11:01:24,843 : AssetManager : Registering Asset: music2, File: music2.wav, Default Group: default, Final Config: {'load': 'preload', 'file': 'C:\\MissionPinball\\P\\modes\\base\\sounds\\music\\music2.wav'}
2021-06-25 11:01:24,844 : AssetManager : Registering Asset: effect, File: effect.wav, Default Group: default, Final Config: {'load': 'preload', 'file': 'C:\\MissionPinball\\P\\modes\\base\\sounds\\sfx\\effect.wav'}
2021-06-25 11:01:24,844 : AssetManager : Registering Asset: effect2, File: effect2.wav, Default Group: default, Final Config: {'load': 'preload', 'file': 'C:\\MissionPinball\\P\\modes\\base\\sounds\\sfx\\effect2.wav'}
2021-06-25 11:01:24,844 : AssetManager : Registering Asset: hit, File: hit.wav, Default Group: default, Final Config: {'load': 'preload', 'file': 'C:\\MissionPinball\\P\\modes\\base\\sounds\\sfx\\hit.wav'}
2021-06-25 11:01:24,846 : EventManager : Event: ======'init_phase_4'====== Args={}
2021-06-25 11:01:24,846 : EventManager : Event: ======'init_phase_5'====== Args={}
2021-06-25 11:01:24,882 : EventManager : Event: ======'loading_assets'====== Args={'total': 9, 'loaded': 1, 'remaining': 8, 'percent': 11}
2021-06-25 11:01:24,882 : AssetManager : Loading assets: 1/9 (11%)
2021-06-25 11:01:24,898 : kivy : GL: NPOT texture support is available
2021-06-25 11:01:24,906 : kivy : GL: Unpack subimage support is available
2021-06-25 11:01:24,911 : EventManager : Event: ======'loading_assets'====== Args={'total': 9, 'loaded': 9, 'remaining': 0, 'percent': 100}
2021-06-25 11:01:24,912 : AssetManager : Asset loading took: 0.15900897979736328
2021-06-25 11:01:24,912 : EventManager : Event: ======'asset_loading_complete'====== Args={}
2021-06-25 11:01:24,912 : AssetManager : Loading assets: 9/9 (100%)
2021-06-25 11:01:24,912 : EventManager : Event: ======'init_done'====== Args={}
2021-06-25 11:01:24,912 : MPF-MC BCP Server : Starting up on localhost port 5050
2021-06-25 11:01:24,920 : MPF-MC BCP Server : Waiting for a connection...
2021-06-25 11:01:24,921 : mpfmc : SlidePlayer: Play called with settings={'slides': {welcome_slide-None-None: {'priority': None, 'target': None, 'background_color': [0.0, 0.0, 0.0, 1.0], 'show': True, 'force': False, 'expire': None, 'slide': None, 'tokens': {}, 'action': 'play', 'transition': None, 'transition_out': None}}}
2021-06-25 11:01:24,932 : EventManager : Event: ======'slide_welcome_slide_created'====== Args={}
2021-06-25 11:01:24,934 : EventManager : Event: ======'slide_welcome_slide_active'====== Args={}
2021-06-25 11:01:24,953 : EventManager : Event: ======'client_disconnected'====== Args={'host': '127.0.0.1', 'port': 5050}
2021-06-25 11:01:25,697 : MPF-MC BCP Server : Received connection from: 127.0.0.1:52569
2021-06-25 11:01:25,698 : EventManager : Event: ======'client_connected'====== Args={'host': '127.0.0.1', 'port': 52569}
2021-06-25 11:01:25,723 : EventManager : Event: ======'machine_var_credits_string'====== Args={'value': 'FREE PLAY', 'prev_value': None, 'change': True}
2021-06-25 11:01:25,723 : EventManager : Event: ======'machine_var_player1_score'====== Args={'value': 14104, 'prev_value': None, 'change': True}
2021-06-25 11:01:25,723 : EventManager : Event: ======'machine_var_mpf_version'====== Args={'value': 'MPF v0.54.6', 'prev_value': None, 'change': True}
2021-06-25 11:01:25,723 : EventManager : Event: ======'machine_var_mpf_extended_version'====== Args={'value': 'MPF v0.54.6, Config version:5, Show version: 5, BCP version:1.1', 'prev_value': None, 'change': True}
2021-06-25 11:01:25,724 : EventManager : Event: ======'machine_var_python_version'====== Args={'value': '3.7.8', 'prev_value': None, 'change': True}
2021-06-25 11:01:25,724 : EventManager : Event: ======'machine_var_platform'====== Args={'value': 'Windows-7-6.1.7601-SP1', 'prev_value': None, 'change': True}
2021-06-25 11:01:25,724 : EventManager : Event: ======'machine_var_platform_system'====== Args={'value': 'Windows', 'prev_value': None, 'change': True}
2021-06-25 11:01:25,724 : EventManager : Event: ======'machine_var_platform_release'====== Args={'value': '7', 'prev_value': None, 'change': True}
2021-06-25 11:01:25,724 : EventManager : Event: ======'machine_var_platform_version'====== Args={'value': '6.1.7601', 'prev_value': None, 'change': True}
2021-06-25 11:01:25,724 : EventManager : Event: ======'machine_var_platform_machine'====== Args={'value': 'AMD64', 'prev_value': None, 'change': True}
2021-06-25 11:01:25,725 : EventManager : Event: ======'machine_var_mc_version'====== Args={'value': 'MPF-MC v0.54.2', 'prev_value': None, 'change': True}
2021-06-25 11:01:25,725 : EventManager : Event: ======'machine_var_mc_extended_version'====== Args={'value': 'MPF-MC v0.54.2 (config_version=5, BCP v1.1, Requires MPF v0.54.0)', 'prev_value': None, 'change': True}
2021-06-25 11:01:25,725 : EventManager : Event: ======'machine_var_master_volume'====== Args={'value': 0.5, 'prev_value': None, 'change': True}
2021-06-25 11:01:25,820 : EventManager : Event: ======'machine_var_audits_shots_shot_vuk_left'====== Args={'value': 160, 'prev_value': None, 'change': True}
2021-06-25 11:01:25,820 : EventManager : Event: ======'machine_var_audits_switches_s_captive'====== Args={'value': 1, 'prev_value': None, 'change': True}
2021-06-25 11:01:25,820 : EventManager : Event: ======'machine_var_audits_switches_s_cop_left'====== Args={'value': 1, 'prev_value': None, 'change': True}
2021-06-25 11:01:25,820 : EventManager : Event: ======'machine_var_audits_switches_s_cop_middle'====== Args={'value': 1, 'prev_value': None, 'change': True}
2021-06-25 11:01:25,821 : EventManager : Event: ======'machine_var_audits_switches_s_cop_right'====== Args={'value': 1, 'prev_value': None, 'change': True}
2021-06-25 11:01:25,821 : EventManager : Event: ======'machine_var_audits_switches_s_drain'====== Args={'value': 36, 'prev_value': None, 'change': True}
2021-06-25 11:01:25,821 : EventManager : Event: ======'machine_var_audits_switches_s_droptarget_left_1'====== Args={'value': 1, 'prev_value': None, 'change': True}
2021-06-25 11:01:25,821 : EventManager : Event: ======'machine_var_audits_switches_s_droptarget_left_2'====== Args={'value': 1, 'prev_value': None, 'change': True}
2021-06-25 11:01:25,822 : EventManager : Event: ======'machine_var_audits_switches_s_droptarget_left_3'====== Args={'value': 2, 'prev_value': None, 'change': True}
2021-06-25 11:01:25,822 : EventManager : Event: ======'machine_var_audits_switches_s_droptarget_middle_1'====== Args={'value': 0, 'prev_value': None, 'change': True}
2021-06-25 11:01:25,822 : EventManager : Event: ======'machine_var_audits_switches_s_droptarget_middle_2'====== Args={'value': 0, 'prev_value': None, 'change': True}
2021-06-25 11:01:25,832 : EventManager : Event: ======'machine_var_audits_switches_s_droptarget_middle_3'====== Args={'value': 0, 'prev_value': None, 'change': True}
2021-06-25 11:01:25,832 : EventManager : Event: ======'machine_var_audits_switches_s_droptarget_right_1'====== Args={'value': 1, 'prev_value': None, 'change': True}
2021-06-25 11:01:25,832 : EventManager : Event: ======'machine_var_audits_switches_s_droptarget_right_2'====== Args={'value': 3, 'prev_value': None, 'change': True}
2021-06-25 11:01:25,832 : EventManager : Event: ======'machine_var_audits_switches_s_droptarget_right_3'====== Args={'value': 1, 'prev_value': None, 'change': True}
2021-06-25 11:01:25,832 : EventManager : Event: ======'machine_var_audits_switches_s_droptarget_right_4'====== Args={'value': 1, 'prev_value': None, 'change': True}
2021-06-25 11:01:25,833 : EventManager : Event: ======'machine_var_audits_switches_s_droptarget_right_5'====== Args={'value': 2, 'prev_value': None, 'change': True}
2021-06-25 11:01:25,833 : EventManager : Event: ======'machine_var_audits_switches_s_flipper_lane_left'====== Args={'value': 0, 'prev_value': None, 'change': True}
2021-06-25 11:01:25,833 : EventManager : Event: ======'machine_var_audits_switches_s_flipper_lane_right'====== Args={'value': 0, 'prev_value': None, 'change': True}
2021-06-25 11:01:25,833 : EventManager : Event: ======'machine_var_audits_switches_s_flipper_left'====== Args={'value': 0, 'prev_value': None, 'change': True}
2021-06-25 11:01:25,834 : EventManager : Event: ======'machine_var_audits_switches_s_flipper_links'====== Args={'value': 23, 'prev_value': None, 'change': True}
2021-06-25 11:01:25,834 : EventManager : Event: ======'machine_var_audits_switches_s_flipper_rechts'====== Args={'value': 20, 'prev_value': None, 'change': True}
2021-06-25 11:01:25,834 : EventManager : Event: ======'machine_var_audits_switches_s_flipper_right'====== Args={'value': 0, 'prev_value': None, 'change': True}
2021-06-25 11:01:25,834 : EventManager : Event: ======'machine_var_audits_switches_s_foley'====== Args={'value': 101, 'prev_value': None, 'change': True}
2021-06-25 11:01:25,834 : EventManager : Event: ======'machine_var_audits_switches_s_inlane_left'====== Args={'value': 1, 'prev_value': None, 'change': True}
2021-06-25 11:01:25,835 : EventManager : Event: ======'machine_var_audits_switches_s_inlane_right'====== Args={'value': 2, 'prev_value': None, 'change': True}
2021-06-25 11:01:25,835 : EventManager : Event: ======'machine_var_audits_switches_s_kickback'====== Args={'value': 1, 'prev_value': None, 'change': True}
2021-06-25 11:01:25,835 : EventManager : Event: ======'machine_var_audits_switches_s_kickout'====== Args={'value': 1, 'prev_value': None, 'change': True}
2021-06-25 11:01:25,835 : EventManager : Event: ======'machine_var_audits_switches_s_launch_button'====== Args={'value': 45, 'prev_value': None, 'change': True}
2021-06-25 11:01:25,836 : EventManager : Event: ======'machine_var_audits_switches_s_outlane_right'====== Args={'value': 29, 'prev_value': None, 'change': True}
2021-06-25 11:01:25,844 : EventManager : Event: ======'machine_var_audits_switches_s_plunger'====== Args={'value': 87, 'prev_value': None, 'change': True}
2021-06-25 11:01:25,844 : EventManager : Event: ======'machine_var_audits_switches_s_ramp_left'====== Args={'value': 2, 'prev_value': None, 'change': True}
2021-06-25 11:01:25,844 : EventManager : Event: ======'machine_var_audits_switches_s_slingshot_left'====== Args={'value': 0, 'prev_value': None, 'change': True}
2021-06-25 11:01:25,844 : EventManager : Event: ======'machine_var_audits_switches_s_slingshot_right'====== Args={'value': 0, 'prev_value': None, 'change': True}
2021-06-25 11:01:25,844 : EventManager : Event: ======'machine_var_audits_switches_s_spinner'====== Args={'value': 12, 'prev_value': None, 'change': True}
2021-06-25 11:01:25,845 : EventManager : Event: ======'machine_var_audits_switches_s_start'====== Args={'value': 5, 'prev_value': None, 'change': True}
2021-06-25 11:01:25,845 : EventManager : Event: ======'machine_var_audits_switches_s_trough1'====== Args={'value': 54, 'prev_value': None, 'change': True}
2021-06-25 11:01:25,845 : EventManager : Event: ======'machine_var_audits_switches_s_trough2'====== Args={'value': 7, 'prev_value': None, 'change': True}
2021-06-25 11:01:25,845 : EventManager : Event: ======'machine_var_audits_switches_s_trough3'====== Args={'value': 2, 'prev_value': None, 'change': True}
2021-06-25 11:01:25,845 : EventManager : Event: ======'machine_var_audits_switches_s_turbo_left'====== Args={'value': 5, 'prev_value': None, 'change': True}
2021-06-25 11:01:25,846 : EventManager : Event: ======'machine_var_audits_switches_s_turbo_links'====== Args={'value': 1, 'prev_value': None, 'change': True}
2021-06-25 11:01:25,846 : EventManager : Event: ======'machine_var_audits_switches_s_turbo_midden'====== Args={'value': 10, 'prev_value': None, 'change': True}
2021-06-25 11:01:25,846 : EventManager : Event: ======'machine_var_audits_switches_s_turbo_middle'====== Args={'value': 3, 'prev_value': None, 'change': True}
2021-06-25 11:01:25,857 : EventManager : Event: ======'machine_var_audits_switches_s_turbo_rechts'====== Args={'value': 3, 'prev_value': None, 'change': True}
2021-06-25 11:01:25,857 : EventManager : Event: ======'machine_var_audits_switches_s_turbo_right'====== Args={'value': 7, 'prev_value': None, 'change': True}
2021-06-25 11:01:25,857 : EventManager : Event: ======'machine_var_audits_switches_s_vuk_left'====== Args={'value': 160, 'prev_value': None, 'change': True}
2021-06-25 11:01:25,857 : EventManager : Event: ======'machine_var_audits_switches_s_vuk_right'====== Args={'value': 3, 'prev_value': None, 'change': True}
2021-06-25 11:01:25,893 : EventManager : Event: ======'slides_play'====== Args={'settings': {'welcome_slide': {'target': None, 'background_color': [0.0, 0.0, 0.0, 1.0], 'priority': None, 'show': True, 'force': False, 'expire': None, 'slide': None, 'tokens': {}, 'action': 'play'}}, 'context': '_global', 'calling_context': 'init_done', 'priority': 0}
2021-06-25 11:01:25,893 : EventManager : Event: ======'mc_reset_phase_1'====== Args={}
2021-06-25 11:01:25,893 : mpfmc : SlidePlayer: Play called with settings={'welcome_slide': {'target': None, 'background_color': [0.0, 0.0, 0.0, 1.0], 'priority': None, 'show': True, 'force': False, 'expire': None, 'slide': None, 'tokens': {}, 'action': 'play'}}
2021-06-25 11:01:25,894 : EventManager : Event: ======'slide_welcome_slide_removed'====== Args={}
2021-06-25 11:01:25,899 : EventManager : Event: ======'slide_welcome_slide_created'====== Args={}
2021-06-25 11:01:25,900 : EventManager : Event: ======'mc_reset_phase_2'====== Args={}
2021-06-25 11:01:25,901 : EventManager : Event: ======'mc_reset_phase_3'====== Args={}
2021-06-25 11:01:25,901 : EventManager : Event: ======'mc_reset_complete'====== Args={}
2021-06-25 11:01:25,902 : EventManager : Event: ======'slide_welcome_slide_active'====== Args={}
2021-06-25 11:01:25,912 : EventManager : Event: ======'slides_play'====== Args={'settings': {'awesome_slide': {'widgets': [{'type': 'text', 'text': 'PnP Pinball', 'font_size': 50, '_default_settings': ['type', 'text', 'font_size'], 'x': None, 'y': None, 'anchor_x': 'center', 'anchor_y': 'center', 'round_anchor_x': None, 'round_anchor_y': None, 'opacity': 1.0, 'z': 0, 'reset_animations_events': {}, 'color': [1.0, 1.0, 1.0, 1.0], 'style': [], 'adjust_top': 0, 'adjust_bottom': 0, 'adjust_left': 0, 'adjust_right': 0, 'expire': None, 'key': None, 'widget': None, 'events_when_added': [], 'events_when_removed': [], 'bitmap_font': False, 'font_kerning': True, 'bold': False, 'italic': False, 'number_grouping': False, 'min_digits': 0, 'halign': 'center', 'valign': 'middle', 'rotation': 0, 'scale': 1.0, 'casing': None, 'animations': None}], 'transition': {'type': 'push', 'duration': 1.0, 'direction': 'left', 'easing': 'out_quad'}, 'target': None, 'background_color': [0.0, 0.0, 0.0, 1.0], 'priority': None, 'show': True, 'force': False, 'expire': None, 'slide': None, 'tokens': {}, 'action': 'play'}}, 'context': 'show_1', 'calling_context': 0, 'priority': 10, 'show_tokens': {}, 'start_time': 2991.709}
2021-06-25 11:01:25,912 : EventManager : Event: ======'slides_play'====== Args={'settings': {'attract_started': {'target': None, 'background_color': [0.0, 0.0, 0.0, 1.0], 'priority': None, 'show': True, 'force': False, 'expire': None, 'slide': None, 'tokens': {}, 'action': 'play'}}, 'context': '_global', 'calling_context': 'mode_attract_started', 'priority': 0}
2021-06-25 11:01:25,913 : mpfmc : SlidePlayer: Play called with settings={'awesome_slide': {'widgets': [{'type': 'text', 'text': 'PnP Pinball', 'font_size': 50, '_default_settings': ['type', 'text', 'font_size'], 'x': None, 'y': None, 'anchor_x': 'center', 'anchor_y': 'center', 'round_anchor_x': None, 'round_anchor_y': None, 'opacity': 1.0, 'z': 0, 'reset_animations_events': {}, 'color': [1.0, 1.0, 1.0, 1.0], 'style': [], 'adjust_top': 0, 'adjust_bottom': 0, 'adjust_left': 0, 'adjust_right': 0, 'expire': None, 'key': None, 'widget': None, 'events_when_added': [], 'events_when_removed': [], 'bitmap_font': False, 'font_kerning': True, 'bold': False, 'italic': False, 'number_grouping': False, 'min_digits': 0, 'halign': 'center', 'valign': 'middle', 'rotation': 0, 'scale': 1.0, 'casing': None, 'animations': None}], 'transition': {'type': 'push', 'duration': 1.0, 'direction': 'left', 'easing': 'out_quad'}, 'target': None, 'background_color': [0.0, 0.0, 0.0, 1.0], 'priority': None, 'show': True, 'force': False, 'expire': None, 'slide': None, 'tokens': {}, 'action': 'play'}}
2021-06-25 11:01:25,918 : EventManager : Event: ======'slide_awesome_slide_created'====== Args={}
2021-06-25 11:01:25,919 : mpfmc : SlidePlayer: Play called with settings={'attract_started': {'target': None, 'background_color': [0.0, 0.0, 0.0, 1.0], 'priority': None, 'show': True, 'force': False, 'expire': None, 'slide': None, 'tokens': {}, 'action': 'play'}}
2021-06-25 11:01:25,924 : EventManager : Event: ======'slide_attract_started_created'====== Args={}
2021-06-25 11:01:25,926 : EventManager : Event: ======'slide_awesome_slide_active'====== Args={}
2021-06-25 11:01:28,820 : EventManager : Event: ======'game_started'====== Args={}
2021-06-25 11:01:28,820 : EventManager : Event: ======'slides_clear'====== Args={'context': 'show_1'}
2021-06-25 11:01:28,821 : EventManager : Event: ======'slide_awesome_slide_removed'====== Args={}
2021-06-25 11:01:28,822 : EventManager : Event: ======'slide_attract_started_active'====== Args={}
2021-06-25 11:01:28,852 : EventManager : Event: ======'player_added'====== Args={'player': <Player 1>, 'num': 1}
2021-06-25 11:01:28,852 : EventManager : Event: ======'player_index'====== Args={'value': 0, 'prev_value': 0, 'change': 0, 'player_num': 1}
2021-06-25 11:01:28,852 : EventManager : Event: ======'player_number'====== Args={'value': 1, 'prev_value': 1, 'change': 0, 'player_num': 1}
2021-06-25 11:01:28,852 : EventManager : Event: ======'player_score'====== Args={'value': 0, 'prev_value': 0, 'change': 0, 'player_num': 1}
2021-06-25 11:01:28,877 : EventManager : Event: ======'player_ball'====== Args={'value': 1, 'prev_value': 0, 'change': 1, 'player_num': 1}
2021-06-25 11:01:28,877 : EventManager : Event: ======'player_turn_start'====== Args={'number': 1, 'player': <Player 1>}
2021-06-25 11:01:28,889 : EventManager : Event: ======'player_shot_shot_vuk_left_enabled'====== Args={'value': True, 'prev_value': 0, 'change': 1, 'player_num': 1}
2021-06-25 11:01:28,901 : EventManager : Event: ======'slides_play'====== Args={'settings': {'base_slide': {'target': None, 'background_color': [0.0, 0.0, 0.0, 1.0], 'priority': None, 'show': True, 'force': False, 'expire': None, 'slide': None, 'tokens': {}, 'action': 'play'}}, 'context': 'base', 'calling_context': 'mode_base_started', 'priority': 100, 'player': 1, 'ball': 1, 'balls_remaining': 2, 'is_extra_ball': False}
2021-06-25 11:01:28,901 : mpfmc : SlidePlayer: Play called with settings={'base_slide': {'target': None, 'background_color': [0.0, 0.0, 0.0, 1.0], 'priority': None, 'show': True, 'force': False, 'expire': None, 'slide': None, 'tokens': {}, 'action': 'play'}}
2021-06-25 11:01:28,907 : kivy : Base: Leaving application in progress...
2021-06-25 11:01:28,907 : kivy : Exception while processing RegisteredHandler(callback=<bound method McConfigPlayer.play_from_trigger of McConfigPlayer.slides>, priority=1, kwargs={}, key=UUID('6b9c3a4c-a958-4ce5-933b-8f6717ff993f'), condition=None, blocking_facility=None) for event slides_play. Cannot add Image widget. Image 'wonderworld' is not a valid image name.
Traceback (most recent call last):
  File "c:\mpfenv\lib\site-packages\mpf\core\events.py", line 683, in _run_handlers
    result = handler.callback(**merged_kwargs)
  File "c:\mpfenv\lib\site-packages\mpfmc\core\mc_config_player.py", line 56, in play_from_trigger
    self.play(settings=settings, context=context, calling_context=calling_context, priority=priority, **kwargs)
  File "c:\mpfenv\lib\site-packages\mpfmc\config_players\slide_player.py", line 161, in play
    target.show_slide(slide_name=slide, key=full_context, play_kwargs=s['tokens'], **s)
  File "c:\mpfenv\lib\site-packages\mpfmc\uix\display.py", line 359, in show_slide
    play_kwargs=play_kwargs)
  File "c:\mpfenv\lib\site-packages\mpfmc\uix\display.py", line 315, in add_slide
    play_kwargs=play_kwargs)
  File "c:\mpfenv\lib\site-packages\mpfmc\uix\slide.py", line 67, in __init__
    play_kwargs=play_kwargs)
  File "c:\mpfenv\lib\site-packages\mpfmc\uix\widget.py", line 899, in create_widget_objects_from_config
    mc=mc, config=widget, key=this_key, play_kwargs=play_kwargs)
  File "c:\mpfenv\lib\site-packages\mpfmc\widgets\image.py", line 51, in __init__
    "valid image name.".format(self.config['image']))
ValueError: Cannot add Image widget. Image 'wonderworld' is not a valid image name.

The above exception was the direct cause of the following exception:

Traceback (most recent call last):
  File "c:\mpfenv\lib\site-packages\mpfmc\commands\mc.py", line 224, in __init__
    thread_stopper=thread_stopper).run()
  File "c:\mpfenv\lib\site-packages\kivy\app.py", line 855, in run
    runTouchApp()
  File "c:\mpfenv\lib\site-packages\kivy\base.py", line 504, in runTouchApp
    EventLoop.window.mainloop()
  File "c:\mpfenv\lib\site-packages\kivy\core\window\window_sdl2.py", line 747, in mainloop
    self._mainloop()
  File "c:\mpfenv\lib\site-packages\kivy\core\window\window_sdl2.py", line 479, in _mainloop
    EventLoop.idle()
  File "c:\mpfenv\lib\site-packages\kivy\base.py", line 339, in idle
    Clock.tick()
  File "c:\mpfenv\lib\site-packages\kivy\clock.py", line 591, in tick
    self._process_events()
  File "kivy\_clock.pyx", line 384, in kivy._clock.CyClockBase._process_events
  File "kivy\_clock.pyx", line 414, in kivy._clock.CyClockBase._process_events
  File "kivy\_clock.pyx", line 412, in kivy._clock.CyClockBase._process_events
  File "kivy\_clock.pyx", line 167, in kivy._clock.ClockEvent.tick
  File "c:\mpfenv\lib\site-packages\mpfmc\core\mc.py", line 571, in tick
    self.events.process_event_queue()
  File "c:\mpfenv\lib\site-packages\mpf\core\events.py", line 770, in process_event_queue
    **event[3])
  File "c:\mpfenv\lib\site-packages\mpf\core\events.py", line 729, in _process_event
    result = self._run_handlers(event, ev_type, kwargs)
  File "c:\mpfenv\lib\site-packages\mpf\core\events.py", line 685, in _run_handlers
    raise Exception("Exception while processing {} for event {}. {}".format(handler, event, e)) from e
Exception: Exception while processing RegisteredHandler(callback=<bound method McConfigPlayer.play_from_trigger of McConfigPlayer.slides>, priority=1, kwargs={}, key=UUID('6b9c3a4c-a958-4ce5-933b-8f6717ff993f'), condition=None, blocking_facility=None) for event slides_play. Cannot add Image widget. Image 'wonderworld' is not a valid image name.
2021-06-25 11:01:28,916 : kivy : Stopping child threads... (3 remaining)
2021-06-25 11:01:29,046 : mpfmc : Stopping...
2021-06-25 11:01:29,046 : EventManager : Event: ======'shutdown'====== Args={}
2021-06-25 11:01:29,199 : mpfmc : Loop rate 67.97 Hz
2021-06-25 11:01:29,831 : MPF-MC BCP Server : Stopping BCP sending thread
2021-06-25 11:01:29,899 : kivy : All child threads stopped.
