2021-06-21 20:39:28,834 : kivy : Factory: 184 symbols loaded
2021-06-21 20:39:29,106 : kivy : ImageLoaderFFPy: Using ffpyplayer 4.3.1
2021-06-21 20:39:29,108 : kivy : Image: Providers: img_tex, img_dds, img_sdl2, img_pil, img_ffpyplayer, img_gif 
2021-06-21 20:39:29,203 : kivy : VideoGstplayer: Using Gstreamer 1.16.0.0
2021-06-21 20:39:29,204 : kivy : Video: Provider: gstplayer
2021-06-21 20:39:29,323 : kivy : Loading MPF-MC controller
2021-06-21 20:39:30,106 : ConfigProcessor : Config spec file cache created: C:\Users\MEESTE~1\AppData\Local\Temp\config_spec.mpf_cache
2021-06-21 20:39:30,106 : YamlMultifileConfigLoader : Machine config file #1: config
2021-06-21 20:39:30,107 : ConfigProcessor : Config file in cache changed: C:\MissionPinball\P\config\config
2021-06-21 20:39:30,107 : ConfigProcessor : Loading config from file c:\mpfenv\lib\site-packages\mpfmc\mcconfig.yaml.
2021-06-21 20:39:30,185 : ConfigProcessor : Loading config: c:\mpfenv\lib\site-packages\mpfmc\mcconfig.yaml
2021-06-21 20:39:30,186 : ConfigProcessor : Loading config from file C:\MissionPinball\P\config\config.
2021-06-21 20:39:30,190 : ConfigProcessor : Loading config: C:\MissionPinball\P\config\config
2021-06-21 20:39:30,275 : ConfigProcessor : Loading config: C:\MissionPinball\P\config\hardware.yaml
2021-06-21 20:39:30,279 : ConfigProcessor : Config file cache created: C:\Users\MEESTE~1\AppData\Local\Temp\7378a4f6b33991d5f3fd6d3ac4fb5d99.mpf_cache
2021-06-21 20:39:30,280 : ConfigProcessor : Loading config from cache: C:\Users\MEESTE~1\AppData\Local\Temp\ba565b152e3a424c60da0fc20421189a.mpf_cache
2021-06-21 20:39:30,281 : ConfigProcessor : Loading config from cache: C:\Users\MEESTE~1\AppData\Local\Temp\b16855f32fa15912a0c8dc3278537500.mpf_cache
2021-06-21 20:39:30,282 : ConfigProcessor : Loading config from cache: C:\Users\MEESTE~1\AppData\Local\Temp\eae5e374fdab94bc8ed9a0f08718cef8.mpf_cache
2021-06-21 20:39:30,282 : mpfmc : Mission Pinball Framework Media Controller v0.54.2
2021-06-21 20:39:30,283 : mpfmc : Mission Pinball Framework Game Engine v0.54.6
2021-06-21 20:39:30,283 : mpfmc : Machine path: C:\MissionPinball\P
2021-06-21 20:39:30,283 : mpfmc : Starting clock at 60.0Hz
2021-06-21 20:39:30,310 : kivy : Text: Provider: sdl2
2021-06-21 20:39:30,406 : kivy : Window: Provider: sdl2
2021-06-21 20:39:31,137 : kivy : GL: Using the "OpenGL" graphics system
2021-06-21 20:39:31,140 : kivy : GL: GLEW initialization succeeded
2021-06-21 20:39:31,140 : kivy : GL: Backend used <glew>
2021-06-21 20:39:31,140 : kivy : GL: OpenGL version <b'4.5.0 NVIDIA 377.11'>
2021-06-21 20:39:31,140 : kivy : GL: OpenGL vendor <b'NVIDIA Corporation'>
2021-06-21 20:39:31,140 : kivy : GL: OpenGL renderer <b'Quadro 1000M/PCIe/SSE2'>
2021-06-21 20:39:31,140 : kivy : GL: OpenGL parsed version: 4, 5
2021-06-21 20:39:31,141 : kivy : GL: Shading version <b'4.50 NVIDIA'>
2021-06-21 20:39:31,141 : kivy : GL: Texture max size <16384>
2021-06-21 20:39:31,141 : kivy : GL: Texture max units <32>
2021-06-21 20:39:31,169 : kivy : Window: auto add sdl2 input provider
2021-06-21 20:39:31,169 : kivy : Window: virtual keyboard not allowed, single mode, not docked
2021-06-21 20:39:31,188 : SoundSystem : SoundSystem: Using default 'sound_system' settings
2021-06-21 20:39:31,653 : AudioInterface : Initialized
2021-06-21 20:39:31,653 : SoundSystem : No audio tracks are specified in your machine config file. a track named 'default' has been created.
2021-06-21 20:39:31,657 : kivy : Base: Start application main loop
2021-06-21 20:39:31,658 : EventManager : Event: ======'display_window_initialized'====== Args={}
2021-06-21 20:39:31,675 : mpfmc : Display: Setting 'window' as default display
2021-06-21 20:39:31,683 : mpfmc : ASPECT RATIO MISMATCH: The on-screen window is not the same aspect ratio as the display called 'window'. The logical display will be scaled from 1024x256 to the window size 800x600, and a black bar will make up the difference
2021-06-21 20:39:31,683 : EventManager : Event: ======'displays_initialized'====== Args={}
2021-06-21 20:39:31,685 : EventManager : Event: ======'slide_window_blank_created'====== Args={}
2021-06-21 20:39:31,685 : EventManager : Event: ======'display_window_ready'====== Args={}
2021-06-21 20:39:31,708 : EventManager : Event: ======'init_phase_1'====== Args={}
2021-06-21 20:39:31,716 : EventManager : Event: ======'mc_ready'====== Args={}
2021-06-21 20:39:31,716 : EventManager : Event: ======'init_phase_2'====== Args={}
2021-06-21 20:39:31,722 : EventManager : Event: ======'init_phase_3'====== Args={}
2021-06-21 20:39:31,723 : AssetManager : Registering Asset: music, File: music.wav, Default Group: default, Final Config: {'load': 'preload', 'file': 'C:\\MissionPinball\\P\\modes\\base\\sounds\\music\\music.wav'}
2021-06-21 20:39:31,723 : AssetManager : Registering Asset: music2, File: music2.wav, Default Group: default, Final Config: {'load': 'preload', 'file': 'C:\\MissionPinball\\P\\modes\\base\\sounds\\music\\music2.wav'}
2021-06-21 20:39:31,724 : AssetManager : Registering Asset: effect, File: effect.wav, Default Group: default, Final Config: {'load': 'preload', 'file': 'C:\\MissionPinball\\P\\modes\\base\\sounds\\sfx\\effect.wav'}
2021-06-21 20:39:31,724 : AssetManager : Registering Asset: effect2, File: effect2.wav, Default Group: default, Final Config: {'load': 'preload', 'file': 'C:\\MissionPinball\\P\\modes\\base\\sounds\\sfx\\effect2.wav'}
2021-06-21 20:39:31,724 : AssetManager : Registering Asset: hit, File: hit.wav, Default Group: default, Final Config: {'load': 'preload', 'file': 'C:\\MissionPinball\\P\\modes\\base\\sounds\\sfx\\hit.wav'}
2021-06-21 20:39:31,726 : EventManager : Event: ======'init_phase_4'====== Args={}
2021-06-21 20:39:31,727 : EventManager : Event: ======'init_phase_5'====== Args={}
2021-06-21 20:39:31,748 : EventManager : Event: ======'loading_assets'====== Args={'total': 5, 'loaded': 1, 'remaining': 4, 'percent': 20}
2021-06-21 20:39:31,761 : AssetManager : Loading assets: 1/5 (20%)
2021-06-21 20:39:31,762 : EventManager : Event: ======'loading_assets'====== Args={'total': 5, 'loaded': 5, 'remaining': 0, 'percent': 100}
2021-06-21 20:39:31,762 : AssetManager : Asset loading took: 0.10800623893737793
2021-06-21 20:39:31,762 : EventManager : Event: ======'asset_loading_complete'====== Args={}
2021-06-21 20:39:31,762 : AssetManager : Loading assets: 5/5 (100%)
2021-06-21 20:39:31,763 : EventManager : Event: ======'init_done'====== Args={}
2021-06-21 20:39:31,763 : MPF-MC BCP Server : Starting up on localhost port 5050
2021-06-21 20:39:31,770 : MPF-MC BCP Server : Waiting for a connection...
2021-06-21 20:39:31,770 : mpfmc : SlidePlayer: Play called with settings={'slides': {welcome_slide-None-None: {'priority': None, 'target': None, 'background_color': [0.0, 0.0, 0.0, 1.0], 'show': True, 'force': False, 'expire': None, 'slide': None, 'tokens': {}, 'action': 'play', 'transition': None, 'transition_out': None}}}
2021-06-21 20:39:31,779 : kivy : GL: NPOT texture support is available
2021-06-21 20:39:31,781 : EventManager : Event: ======'slide_welcome_slide_created'====== Args={}
2021-06-21 20:39:31,783 : EventManager : Event: ======'slide_welcome_slide_active'====== Args={}
2021-06-21 20:39:31,787 : EventManager : Event: ======'client_disconnected'====== Args={'host': '127.0.0.1', 'port': 5050}
2021-06-21 20:39:32,803 : MPF-MC BCP Server : Received connection from: 127.0.0.1:58700
2021-06-21 20:39:32,808 : EventManager : Event: ======'client_connected'====== Args={'host': '127.0.0.1', 'port': 58700}
2021-06-21 20:39:32,833 : EventManager : Event: ======'machine_var_credits_string'====== Args={'value': 'FREE PLAY', 'prev_value': None, 'change': True}
2021-06-21 20:39:32,833 : EventManager : Event: ======'machine_var_player1_score'====== Args={'value': 6778, 'prev_value': None, 'change': True}
2021-06-21 20:39:32,833 : EventManager : Event: ======'machine_var_mpf_version'====== Args={'value': 'MPF v0.54.6', 'prev_value': None, 'change': True}
2021-06-21 20:39:32,833 : EventManager : Event: ======'machine_var_mpf_extended_version'====== Args={'value': 'MPF v0.54.6, Config version:5, Show version: 5, BCP version:1.1', 'prev_value': None, 'change': True}
2021-06-21 20:39:32,834 : EventManager : Event: ======'machine_var_python_version'====== Args={'value': '3.7.8', 'prev_value': None, 'change': True}
2021-06-21 20:39:32,834 : EventManager : Event: ======'machine_var_platform'====== Args={'value': 'Windows-7-6.1.7601-SP1', 'prev_value': None, 'change': True}
2021-06-21 20:39:32,834 : EventManager : Event: ======'machine_var_platform_system'====== Args={'value': 'Windows', 'prev_value': None, 'change': True}
2021-06-21 20:39:32,834 : EventManager : Event: ======'machine_var_platform_release'====== Args={'value': '7', 'prev_value': None, 'change': True}
2021-06-21 20:39:32,834 : EventManager : Event: ======'machine_var_platform_version'====== Args={'value': '6.1.7601', 'prev_value': None, 'change': True}
2021-06-21 20:39:32,834 : EventManager : Event: ======'machine_var_platform_machine'====== Args={'value': 'AMD64', 'prev_value': None, 'change': True}
2021-06-21 20:39:32,835 : EventManager : Event: ======'machine_var_mc_version'====== Args={'value': 'MPF-MC v0.54.2', 'prev_value': None, 'change': True}
2021-06-21 20:39:32,835 : EventManager : Event: ======'machine_var_mc_extended_version'====== Args={'value': 'MPF-MC v0.54.2 (config_version=5, BCP v1.1, Requires MPF v0.54.0)', 'prev_value': None, 'change': True}
2021-06-21 20:39:32,835 : EventManager : Event: ======'machine_var_master_volume'====== Args={'value': 0.5, 'prev_value': None, 'change': True}
2021-06-21 20:39:32,917 : EventManager : Event: ======'machine_var_audits_shots_shot_vuk_left'====== Args={'value': 25, 'prev_value': None, 'change': True}
2021-06-21 20:39:32,917 : EventManager : Event: ======'machine_var_audits_switches_s_cop_left'====== Args={'value': 1, 'prev_value': None, 'change': True}
2021-06-21 20:39:32,917 : EventManager : Event: ======'machine_var_audits_switches_s_cop_middle'====== Args={'value': 1, 'prev_value': None, 'change': True}
2021-06-21 20:39:32,918 : EventManager : Event: ======'machine_var_audits_switches_s_cop_right'====== Args={'value': 1, 'prev_value': None, 'change': True}
2021-06-21 20:39:32,918 : EventManager : Event: ======'machine_var_audits_switches_s_drain'====== Args={'value': 32, 'prev_value': None, 'change': True}
2021-06-21 20:39:32,918 : EventManager : Event: ======'machine_var_audits_switches_s_droptarget_left_1'====== Args={'value': 1, 'prev_value': None, 'change': True}
2021-06-21 20:39:32,918 : EventManager : Event: ======'machine_var_audits_switches_s_droptarget_left_2'====== Args={'value': 1, 'prev_value': None, 'change': True}
2021-06-21 20:39:32,919 : EventManager : Event: ======'machine_var_audits_switches_s_droptarget_left_3'====== Args={'value': 1, 'prev_value': None, 'change': True}
2021-06-21 20:39:32,919 : EventManager : Event: ======'machine_var_audits_switches_s_droptarget_middle_1'====== Args={'value': 0, 'prev_value': None, 'change': True}
2021-06-21 20:39:32,919 : EventManager : Event: ======'machine_var_audits_switches_s_droptarget_middle_2'====== Args={'value': 0, 'prev_value': None, 'change': True}
2021-06-21 20:39:32,919 : EventManager : Event: ======'machine_var_audits_switches_s_droptarget_middle_3'====== Args={'value': 0, 'prev_value': None, 'change': True}
2021-06-21 20:39:32,919 : EventManager : Event: ======'machine_var_audits_switches_s_droptarget_right_1'====== Args={'value': 1, 'prev_value': None, 'change': True}
2021-06-21 20:39:32,930 : EventManager : Event: ======'machine_var_audits_switches_s_droptarget_right_2'====== Args={'value': 3, 'prev_value': None, 'change': True}
2021-06-21 20:39:32,930 : EventManager : Event: ======'machine_var_audits_switches_s_droptarget_right_3'====== Args={'value': 1, 'prev_value': None, 'change': True}
2021-06-21 20:39:32,930 : EventManager : Event: ======'machine_var_audits_switches_s_droptarget_right_4'====== Args={'value': 1, 'prev_value': None, 'change': True}
2021-06-21 20:39:32,930 : EventManager : Event: ======'machine_var_audits_switches_s_droptarget_right_5'====== Args={'value': 1, 'prev_value': None, 'change': True}
2021-06-21 20:39:32,931 : EventManager : Event: ======'machine_var_audits_switches_s_flipper_lane_left'====== Args={'value': 0, 'prev_value': None, 'change': True}
2021-06-21 20:39:32,931 : EventManager : Event: ======'machine_var_audits_switches_s_flipper_lane_right'====== Args={'value': 0, 'prev_value': None, 'change': True}
2021-06-21 20:39:32,931 : EventManager : Event: ======'machine_var_audits_switches_s_flipper_left'====== Args={'value': 0, 'prev_value': None, 'change': True}
2021-06-21 20:39:32,931 : EventManager : Event: ======'machine_var_audits_switches_s_flipper_links'====== Args={'value': 23, 'prev_value': None, 'change': True}
2021-06-21 20:39:32,931 : EventManager : Event: ======'machine_var_audits_switches_s_flipper_rechts'====== Args={'value': 20, 'prev_value': None, 'change': True}
2021-06-21 20:39:32,932 : EventManager : Event: ======'machine_var_audits_switches_s_flipper_right'====== Args={'value': 0, 'prev_value': None, 'change': True}
2021-06-21 20:39:32,932 : EventManager : Event: ======'machine_var_audits_switches_s_foley'====== Args={'value': 76, 'prev_value': None, 'change': True}
2021-06-21 20:39:32,932 : EventManager : Event: ======'machine_var_audits_switches_s_inlane_left'====== Args={'value': 1, 'prev_value': None, 'change': True}
2021-06-21 20:39:32,932 : EventManager : Event: ======'machine_var_audits_switches_s_inlane_right'====== Args={'value': 1, 'prev_value': None, 'change': True}
2021-06-21 20:39:32,932 : EventManager : Event: ======'machine_var_audits_switches_s_kickback'====== Args={'value': 1, 'prev_value': None, 'change': True}
2021-06-21 20:39:32,933 : EventManager : Event: ======'machine_var_audits_switches_s_kickout'====== Args={'value': 1, 'prev_value': None, 'change': True}
2021-06-21 20:39:32,933 : EventManager : Event: ======'machine_var_audits_switches_s_launch_button'====== Args={'value': 40, 'prev_value': None, 'change': True}
2021-06-21 20:39:32,933 : EventManager : Event: ======'machine_var_audits_switches_s_outlane_right'====== Args={'value': 28, 'prev_value': None, 'change': True}
2021-06-21 20:39:32,933 : EventManager : Event: ======'machine_var_audits_switches_s_plunger'====== Args={'value': 60, 'prev_value': None, 'change': True}
2021-06-21 20:39:32,933 : EventManager : Event: ======'machine_var_audits_switches_s_ramp_left'====== Args={'value': 2, 'prev_value': None, 'change': True}
2021-06-21 20:39:32,934 : EventManager : Event: ======'machine_var_audits_switches_s_slingshot_left'====== Args={'value': 0, 'prev_value': None, 'change': True}
2021-06-21 20:39:32,942 : EventManager : Event: ======'machine_var_audits_switches_s_slingshot_right'====== Args={'value': 0, 'prev_value': None, 'change': True}
2021-06-21 20:39:32,942 : EventManager : Event: ======'machine_var_audits_switches_s_spinner'====== Args={'value': 6, 'prev_value': None, 'change': True}
2021-06-21 20:39:32,942 : EventManager : Event: ======'machine_var_audits_switches_s_start'====== Args={'value': 4, 'prev_value': None, 'change': True}
2021-06-21 20:39:32,942 : EventManager : Event: ======'machine_var_audits_switches_s_trough1'====== Args={'value': 51, 'prev_value': None, 'change': True}
2021-06-21 20:39:32,943 : EventManager : Event: ======'machine_var_audits_switches_s_trough2'====== Args={'value': 7, 'prev_value': None, 'change': True}
2021-06-21 20:39:32,943 : EventManager : Event: ======'machine_var_audits_switches_s_trough3'====== Args={'value': 2, 'prev_value': None, 'change': True}
2021-06-21 20:39:32,943 : EventManager : Event: ======'machine_var_audits_switches_s_turbo_left'====== Args={'value': 2, 'prev_value': None, 'change': True}
2021-06-21 20:39:32,943 : EventManager : Event: ======'machine_var_audits_switches_s_turbo_links'====== Args={'value': 1, 'prev_value': None, 'change': True}
2021-06-21 20:39:32,944 : EventManager : Event: ======'machine_var_audits_switches_s_turbo_midden'====== Args={'value': 10, 'prev_value': None, 'change': True}
2021-06-21 20:39:32,944 : EventManager : Event: ======'machine_var_audits_switches_s_turbo_middle'====== Args={'value': 2, 'prev_value': None, 'change': True}
2021-06-21 20:39:32,944 : EventManager : Event: ======'machine_var_audits_switches_s_turbo_rechts'====== Args={'value': 3, 'prev_value': None, 'change': True}
2021-06-21 20:39:32,944 : EventManager : Event: ======'machine_var_audits_switches_s_turbo_right'====== Args={'value': 2, 'prev_value': None, 'change': True}
2021-06-21 20:39:32,945 : EventManager : Event: ======'machine_var_audits_switches_s_vuk_left'====== Args={'value': 25, 'prev_value': None, 'change': True}
2021-06-21 20:39:32,945 : EventManager : Event: ======'machine_var_audits_switches_s_vuk_right'====== Args={'value': 3, 'prev_value': None, 'change': True}
2021-06-21 20:39:32,978 : EventManager : Event: ======'slides_play'====== Args={'settings': {'welcome_slide': {'target': None, 'background_color': [0.0, 0.0, 0.0, 1.0], 'priority': None, 'show': True, 'force': False, 'expire': None, 'slide': None, 'tokens': {}, 'action': 'play'}}, 'context': '_global', 'calling_context': 'init_done', 'priority': 0}
2021-06-21 20:39:32,978 : EventManager : Event: ======'mc_reset_phase_1'====== Args={}
2021-06-21 20:39:32,978 : mpfmc : SlidePlayer: Play called with settings={'welcome_slide': {'target': None, 'background_color': [0.0, 0.0, 0.0, 1.0], 'priority': None, 'show': True, 'force': False, 'expire': None, 'slide': None, 'tokens': {}, 'action': 'play'}}
2021-06-21 20:39:32,979 : EventManager : Event: ======'slide_welcome_slide_removed'====== Args={}
2021-06-21 20:39:32,984 : EventManager : Event: ======'slide_welcome_slide_created'====== Args={}
2021-06-21 20:39:32,985 : EventManager : Event: ======'mc_reset_phase_2'====== Args={}
2021-06-21 20:39:32,985 : EventManager : Event: ======'mc_reset_phase_3'====== Args={}
2021-06-21 20:39:32,985 : EventManager : Event: ======'mc_reset_complete'====== Args={}
2021-06-21 20:39:32,986 : EventManager : Event: ======'slide_welcome_slide_active'====== Args={}
2021-06-21 20:39:32,992 : EventManager : Event: ======'slides_play'====== Args={'settings': {'awesome_slide': {'widgets': [{'type': 'text', 'text': 'PnP Pinball', 'font_size': 50, '_default_settings': ['type', 'text', 'font_size'], 'x': None, 'y': None, 'anchor_x': 'center', 'anchor_y': 'center', 'round_anchor_x': None, 'round_anchor_y': None, 'opacity': 1.0, 'z': 0, 'reset_animations_events': {}, 'color': [1.0, 1.0, 1.0, 1.0], 'style': [], 'adjust_top': 0, 'adjust_bottom': 0, 'adjust_left': 0, 'adjust_right': 0, 'expire': None, 'key': None, 'widget': None, 'events_when_added': [], 'events_when_removed': [], 'bitmap_font': False, 'font_kerning': True, 'bold': False, 'italic': False, 'number_grouping': False, 'min_digits': 0, 'halign': 'center', 'valign': 'middle', 'rotation': 0, 'scale': 1.0, 'casing': None, 'animations': None}], 'transition': {'type': 'push', 'duration': 1.0, 'direction': 'left', 'easing': 'out_quad'}, 'target': None, 'background_color': [0.0, 0.0, 0.0, 1.0], 'priority': None, 'show': True, 'force': False, 'expire': None, 'slide': None, 'tokens': {}, 'action': 'play'}}, 'context': 'show_1', 'calling_context': 0, 'priority': 10, 'show_tokens': {}, 'start_time': 44695.908}
2021-06-21 20:39:32,992 : mpfmc : SlidePlayer: Play called with settings={'awesome_slide': {'widgets': [{'type': 'text', 'text': 'PnP Pinball', 'font_size': 50, '_default_settings': ['type', 'text', 'font_size'], 'x': None, 'y': None, 'anchor_x': 'center', 'anchor_y': 'center', 'round_anchor_x': None, 'round_anchor_y': None, 'opacity': 1.0, 'z': 0, 'reset_animations_events': {}, 'color': [1.0, 1.0, 1.0, 1.0], 'style': [], 'adjust_top': 0, 'adjust_bottom': 0, 'adjust_left': 0, 'adjust_right': 0, 'expire': None, 'key': None, 'widget': None, 'events_when_added': [], 'events_when_removed': [], 'bitmap_font': False, 'font_kerning': True, 'bold': False, 'italic': False, 'number_grouping': False, 'min_digits': 0, 'halign': 'center', 'valign': 'middle', 'rotation': 0, 'scale': 1.0, 'casing': None, 'animations': None}], 'transition': {'type': 'push', 'duration': 1.0, 'direction': 'left', 'easing': 'out_quad'}, 'target': None, 'background_color': [0.0, 0.0, 0.0, 1.0], 'priority': None, 'show': True, 'force': False, 'expire': None, 'slide': None, 'tokens': {}, 'action': 'play'}}
2021-06-21 20:39:32,998 : EventManager : Event: ======'slide_awesome_slide_created'====== Args={}
2021-06-21 20:39:33,000 : EventManager : Event: ======'slide_awesome_slide_active'====== Args={}
2021-06-21 20:39:33,003 : EventManager : Event: ======'slides_play'====== Args={'settings': {'attract_started': {'target': None, 'background_color': [0.0, 0.0, 0.0, 1.0], 'priority': None, 'show': True, 'force': False, 'expire': None, 'slide': None, 'tokens': {}, 'action': 'play'}}, 'context': '_global', 'calling_context': 'mode_attract_started', 'priority': 0}
2021-06-21 20:39:33,003 : mpfmc : SlidePlayer: Play called with settings={'attract_started': {'target': None, 'background_color': [0.0, 0.0, 0.0, 1.0], 'priority': None, 'show': True, 'force': False, 'expire': None, 'slide': None, 'tokens': {}, 'action': 'play'}}
2021-06-21 20:39:33,009 : EventManager : Event: ======'slide_attract_started_created'====== Args={}
2021-06-21 20:39:33,264 : EventManager : Event: ======'game_started'====== Args={}
2021-06-21 20:39:33,264 : EventManager : Event: ======'slides_clear'====== Args={'context': 'show_1'}
2021-06-21 20:39:33,265 : EventManager : Event: ======'slide_awesome_slide_removed'====== Args={}
2021-06-21 20:39:33,266 : EventManager : Event: ======'slide_attract_started_active'====== Args={}
2021-06-21 20:39:33,284 : EventManager : Event: ======'player_added'====== Args={'player': <Player 1>, 'num': 1}
2021-06-21 20:39:33,284 : EventManager : Event: ======'player_index'====== Args={'value': 0, 'prev_value': 0, 'change': 0, 'player_num': 1}
2021-06-21 20:39:33,284 : EventManager : Event: ======'player_number'====== Args={'value': 1, 'prev_value': 1, 'change': 0, 'player_num': 1}
2021-06-21 20:39:33,285 : EventManager : Event: ======'player_score'====== Args={'value': 0, 'prev_value': 0, 'change': 0, 'player_num': 1}
2021-06-21 20:39:33,316 : EventManager : Event: ======'player_ball'====== Args={'value': 1, 'prev_value': 0, 'change': 1, 'player_num': 1}
2021-06-21 20:39:33,316 : EventManager : Event: ======'player_turn_start'====== Args={'number': 1, 'player': <Player 1>}
2021-06-21 20:39:33,340 : EventManager : Event: ======'player_shot_shot_vuk_left_enabled'====== Args={'value': True, 'prev_value': 0, 'change': 1, 'player_num': 1}
2021-06-21 20:39:33,352 : EventManager : Event: ======'slides_play'====== Args={'settings': {'widgets': {'widgets': [{'type': 'text', 'text': '(score)', 'number_grouping': True, 'min_digits': 2, 'font_size': 100, '_default_settings': ['type', 'text', 'number_grouping', 'min_digits', 'font_size'], 'x': None, 'y': None, 'anchor_x': 'center', 'anchor_y': 'center', 'round_anchor_x': None, 'round_anchor_y': None, 'opacity': 1.0, 'z': 0, 'reset_animations_events': {}, 'color': [1.0, 1.0, 1.0, 1.0], 'style': [], 'adjust_top': 0, 'adjust_bottom': 0, 'adjust_left': 0, 'adjust_right': 0, 'expire': None, 'key': None, 'widget': None, 'events_when_added': [], 'events_when_removed': [], 'bitmap_font': False, 'font_kerning': True, 'bold': False, 'italic': False, 'halign': 'center', 'valign': 'middle', 'rotation': 0, 'scale': 1.0, 'casing': None, 'animations': None}, {'type': 'text', 'text': 'mode: base', 'y': '200', 'x': '10', 'font_size': 50, 'anchor_x': 'left', 'anchor_y': 'bottom', '_default_settings': ['type', 'text', 'y', 'x', 'font_size', 'anchor_x', 'anchor_y'], 'round_anchor_x': None, 'round_anchor_y': None, 'opacity': 1.0, 'z': 0, 'reset_animations_events': {}, 'color': [1.0, 1.0, 1.0, 1.0], 'style': [], 'adjust_top': 0, 'adjust_bottom': 0, 'adjust_left': 0, 'adjust_right': 0, 'expire': None, 'key': None, 'widget': None, 'events_when_added': [], 'events_when_removed': [], 'bitmap_font': False, 'font_kerning': True, 'bold': False, 'italic': False, 'number_grouping': False, 'min_digits': 0, 'halign': 'center', 'valign': 'middle', 'rotation': 0, 'scale': 1.0, 'casing': None, 'animations': None}, {'type': 'text', 'text': 'BEVERLY HILLS', 'y': '200', 'x': 'right-10', 'font_size': 50, 'anchor_x': 'right', 'anchor_y': 'bottom', '_default_settings': ['type', 'text', 'y', 'x', 'font_size', 'anchor_x', 'anchor_y'], 'round_anchor_x': None, 'round_anchor_y': None, 'opacity': 1.0, 'z': 0, 'reset_animations_events': {}, 'color': [1.0, 1.0, 1.0, 1.0], 'style': [], 'adjust_top': 0, 'adjust_bottom': 0, 'adjust_left': 0, 'adjust_right': 0, 'expire': None, 'key': None, 'widget': None, 'events_when_added': [], 'events_when_removed': [], 'bitmap_font': False, 'font_kerning': True, 'bold': False, 'italic': False, 'number_grouping': False, 'min_digits': 0, 'halign': 'center', 'valign': 'middle', 'rotation': 0, 'scale': 1.0, 'casing': None, 'animations': None}, {'type': 'text', 'text': 'cop', 'y': '200', 'x': 'right-10', 'font_size': 50, 'anchor_x': 'right', 'anchor_y': 'bottom', 'color': [1.0, 0.0, 0.0, 1], '_default_settings': ['type', 'text', 'y', 'x', 'font_size', 'anchor_x', 'anchor_y', 'color'], 'round_anchor_x': None, 'round_anchor_y': None, 'opacity': 1.0, 'z': 0, 'reset_animations_events': {}, 'style': [], 'adjust_top': 0, 'adjust_bottom': 0, 'adjust_left': 0, 'adjust_right': 0, 'expire': None, 'key': None, 'widget': None, 'events_when_added': [], 'events_when_removed': [], 'bitmap_font': False, 'font_kerning': True, 'bold': False, 'italic': False, 'number_grouping': False, 'min_digits': 0, 'halign': 'center', 'valign': 'middle', 'rotation': 0, 'scale': 1.0, 'casing': None, 'animations': None}, {'type': 'text', 'text': 'Player (number)', 'y': '10', 'x': '10', 'font_size': 50, 'anchor_x': 'left', 'anchor_y': 'bottom', '_default_settings': ['type', 'text', 'y', 'x', 'font_size', 'anchor_x', 'anchor_y'], 'round_anchor_x': None, 'round_anchor_y': None, 'opacity': 1.0, 'z': 0, 'reset_animations_events': {}, 'color': [1.0, 1.0, 1.0, 1.0], 'style': [], 'adjust_top': 0, 'adjust_bottom': 0, 'adjust_left': 0, 'adjust_right': 0, 'expire': None, 'key': None, 'widget': None, 'events_when_added': [], 'events_when_removed': [], 'bitmap_font': False, 'font_kerning': True, 'bold': False, 'italic': False, 'number_grouping': False, 'min_digits': 0, 'halign': 'center', 'valign': 'middle', 'rotation': 0, 'scale': 1.0, 'casing': None, 'animations': None}, {'type': 'text', 'text': 'Ball (ball)', 'y': '10', 'x': 'right-10', 'anchor_x': 'right', 'anchor_y': 'bottom', 'font_size': 50, '_default_settings': ['type', 'text', 'y', 'x', 'anchor_x', 'anchor_y', 'font_size'], 'round_anchor_x': None, 'round_anchor_y': None, 'opacity': 1.0, 'z': 0, 'reset_animations_events': {}, 'color': [1.0, 1.0, 1.0, 1.0], 'style': [], 'adjust_top': 0, 'adjust_bottom': 0, 'adjust_left': 0, 'adjust_right': 0, 'expire': None, 'key': None, 'widget': None, 'events_when_added': [], 'events_when_removed': [], 'bitmap_font': False, 'font_kerning': True, 'bold': False, 'italic': False, 'number_grouping': False, 'min_digits': 0, 'halign': 'center', 'valign': 'middle', 'rotation': 0, 'scale': 1.0, 'casing': None, 'animations': None}], 'target': None, 'background_color': [0.0, 0.0, 0.0, 1.0], 'priority': None, 'show': True, 'force': False, 'expire': None, 'slide': None, 'tokens': {}, 'action': 'play'}}, 'context': 'base', 'calling_context': 'mode_base_started', 'priority': 100, 'player': 1, 'ball': 1, 'balls_remaining': 2, 'is_extra_ball': False}
2021-06-21 20:39:33,353 : mpfmc : SlidePlayer: Play called with settings={'widgets': {'widgets': [{'type': 'text', 'text': '(score)', 'number_grouping': True, 'min_digits': 2, 'font_size': 100, '_default_settings': ['type', 'text', 'number_grouping', 'min_digits', 'font_size'], 'x': None, 'y': None, 'anchor_x': 'center', 'anchor_y': 'center', 'round_anchor_x': None, 'round_anchor_y': None, 'opacity': 1.0, 'z': 0, 'reset_animations_events': {}, 'color': [1.0, 1.0, 1.0, 1.0], 'style': [], 'adjust_top': 0, 'adjust_bottom': 0, 'adjust_left': 0, 'adjust_right': 0, 'expire': None, 'key': None, 'widget': None, 'events_when_added': [], 'events_when_removed': [], 'bitmap_font': False, 'font_kerning': True, 'bold': False, 'italic': False, 'halign': 'center', 'valign': 'middle', 'rotation': 0, 'scale': 1.0, 'casing': None, 'animations': None}, {'type': 'text', 'text': 'mode: base', 'y': '200', 'x': '10', 'font_size': 50, 'anchor_x': 'left', 'anchor_y': 'bottom', '_default_settings': ['type', 'text', 'y', 'x', 'font_size', 'anchor_x', 'anchor_y'], 'round_anchor_x': None, 'round_anchor_y': None, 'opacity': 1.0, 'z': 0, 'reset_animations_events': {}, 'color': [1.0, 1.0, 1.0, 1.0], 'style': [], 'adjust_top': 0, 'adjust_bottom': 0, 'adjust_left': 0, 'adjust_right': 0, 'expire': None, 'key': None, 'widget': None, 'events_when_added': [], 'events_when_removed': [], 'bitmap_font': False, 'font_kerning': True, 'bold': False, 'italic': False, 'number_grouping': False, 'min_digits': 0, 'halign': 'center', 'valign': 'middle', 'rotation': 0, 'scale': 1.0, 'casing': None, 'animations': None}, {'type': 'text', 'text': 'BEVERLY HILLS', 'y': '200', 'x': 'right-10', 'font_size': 50, 'anchor_x': 'right', 'anchor_y': 'bottom', '_default_settings': ['type', 'text', 'y', 'x', 'font_size', 'anchor_x', 'anchor_y'], 'round_anchor_x': None, 'round_anchor_y': None, 'opacity': 1.0, 'z': 0, 'reset_animations_events': {}, 'color': [1.0, 1.0, 1.0, 1.0], 'style': [], 'adjust_top': 0, 'adjust_bottom': 0, 'adjust_left': 0, 'adjust_right': 0, 'expire': None, 'key': None, 'widget': None, 'events_when_added': [], 'events_when_removed': [], 'bitmap_font': False, 'font_kerning': True, 'bold': False, 'italic': False, 'number_grouping': False, 'min_digits': 0, 'halign': 'center', 'valign': 'middle', 'rotation': 0, 'scale': 1.0, 'casing': None, 'animations': None}, {'type': 'text', 'text': 'cop', 'y': '200', 'x': 'right-10', 'font_size': 50, 'anchor_x': 'right', 'anchor_y': 'bottom', 'color': [1.0, 0.0, 0.0, 1], '_default_settings': ['type', 'text', 'y', 'x', 'font_size', 'anchor_x', 'anchor_y', 'color'], 'round_anchor_x': None, 'round_anchor_y': None, 'opacity': 1.0, 'z': 0, 'reset_animations_events': {}, 'style': [], 'adjust_top': 0, 'adjust_bottom': 0, 'adjust_left': 0, 'adjust_right': 0, 'expire': None, 'key': None, 'widget': None, 'events_when_added': [], 'events_when_removed': [], 'bitmap_font': False, 'font_kerning': True, 'bold': False, 'italic': False, 'number_grouping': False, 'min_digits': 0, 'halign': 'center', 'valign': 'middle', 'rotation': 0, 'scale': 1.0, 'casing': None, 'animations': None}, {'type': 'text', 'text': 'Player (number)', 'y': '10', 'x': '10', 'font_size': 50, 'anchor_x': 'left', 'anchor_y': 'bottom', '_default_settings': ['type', 'text', 'y', 'x', 'font_size', 'anchor_x', 'anchor_y'], 'round_anchor_x': None, 'round_anchor_y': None, 'opacity': 1.0, 'z': 0, 'reset_animations_events': {}, 'color': [1.0, 1.0, 1.0, 1.0], 'style': [], 'adjust_top': 0, 'adjust_bottom': 0, 'adjust_left': 0, 'adjust_right': 0, 'expire': None, 'key': None, 'widget': None, 'events_when_added': [], 'events_when_removed': [], 'bitmap_font': False, 'font_kerning': True, 'bold': False, 'italic': False, 'number_grouping': False, 'min_digits': 0, 'halign': 'center', 'valign': 'middle', 'rotation': 0, 'scale': 1.0, 'casing': None, 'animations': None}, {'type': 'text', 'text': 'Ball (ball)', 'y': '10', 'x': 'right-10', 'anchor_x': 'right', 'anchor_y': 'bottom', 'font_size': 50, '_default_settings': ['type', 'text', 'y', 'x', 'anchor_x', 'anchor_y', 'font_size'], 'round_anchor_x': None, 'round_anchor_y': None, 'opacity': 1.0, 'z': 0, 'reset_animations_events': {}, 'color': [1.0, 1.0, 1.0, 1.0], 'style': [], 'adjust_top': 0, 'adjust_bottom': 0, 'adjust_left': 0, 'adjust_right': 0, 'expire': None, 'key': None, 'widget': None, 'events_when_added': [], 'events_when_removed': [], 'bitmap_font': False, 'font_kerning': True, 'bold': False, 'italic': False, 'number_grouping': False, 'min_digits': 0, 'halign': 'center', 'valign': 'middle', 'rotation': 0, 'scale': 1.0, 'casing': None, 'animations': None}], 'target': None, 'background_color': [0.0, 0.0, 0.0, 1.0], 'priority': None, 'show': True, 'force': False, 'expire': None, 'slide': None, 'tokens': {}, 'action': 'play'}}
2021-06-21 20:39:33,370 : EventManager : Event: ======'slide_base.slide_player-mode_base_started_created'====== Args={}
2021-06-21 20:39:33,376 : EventManager : Event: ======'slide_base.slide_player-mode_base_started_active'====== Args={}
2021-06-21 20:39:33,498 : EventManager : Event: ======'machine_var_audits_switches_s_plunger'====== Args={'value': 61, 'prev_value': 60, 'change': 1}
2021-06-21 20:39:33,522 : EventManager : Event: ======'machine_var_audits_switches_s_start'====== Args={'value': 5, 'prev_value': 4, 'change': 1}
2021-06-21 20:39:33,522 : EventManager : Event: ======'player_added'====== Args={'player': <Player 2>, 'num': 2}
2021-06-21 20:39:33,522 : EventManager : Event: ======'player_index'====== Args={'value': 1, 'prev_value': 1, 'change': 0, 'player_num': 2}
2021-06-21 20:39:33,522 : EventManager : Event: ======'player_number'====== Args={'value': 2, 'prev_value': 2, 'change': 0, 'player_num': 2}
2021-06-21 20:39:33,523 : EventManager : Event: ======'player_score'====== Args={'value': 0, 'prev_value': 0, 'change': 0, 'player_num': 2}
2021-06-21 20:40:07,514 : kivy : WindowSDL: exiting mainloop and closing.
2021-06-21 20:40:07,658 : kivy : Base: Leaving application in progress...
2021-06-21 20:40:07,658 : mpfmc : Stopping...
2021-06-21 20:40:07,658 : EventManager : Event: ======'shutdown'====== Args={}
2021-06-21 20:40:07,658 : mpfmc : Loop rate 82.33 Hz
2021-06-21 20:40:07,658 : kivy : MC run loop ended.
2021-06-21 20:40:07,659 : kivy : Stopping child threads... (3 remaining)
2021-06-21 20:40:08,308 : mpfmc : Stopping...
2021-06-21 20:40:08,308 : EventManager : Event: ======'shutdown'====== Args={}
2021-06-21 20:40:08,308 : mpfmc : Loop rate 80.87 Hz
2021-06-21 20:40:08,323 : MPF-MC BCP Server : Stopping BCP sending thread
2021-06-21 20:40:08,359 : kivy : All child threads stopped.
