2021-06-11 11:10:53,004 : INFO : root : Loading config.
2021-06-11 11:10:53,768 : INFO : ConfigProcessor : Config spec file cache created: C:\Users\MEESTE~1\AppData\Local\Temp\config_spec.mpf_cache
2021-06-11 11:10:53,768 : INFO : YamlMultifileConfigLoader : Machine config file #1: config.yaml
2021-06-11 11:10:53,768 : WARNING : ConfigProcessor : Config file in cache changed: C:\MissionPinball\P\config\config.yaml
2021-06-11 11:10:53,768 : INFO : ConfigProcessor : Loading config from file c:\mpfenv\lib\site-packages\mpf\mpfconfig.yaml.
2021-06-11 11:10:53,908 : INFO : ConfigProcessor : Loading config: c:\mpfenv\lib\site-packages\mpf\mpfconfig.yaml
2021-06-11 11:10:53,908 : INFO : ConfigProcessor : Loading config from file C:\MissionPinball\P\config\config.yaml.
2021-06-11 11:10:53,942 : INFO : ConfigProcessor : Loading config: C:\MissionPinball\P\config\config.yaml
2021-06-11 11:10:53,945 : INFO : ConfigProcessor : Config file cache created: C:\Users\MEESTE~1\AppData\Local\Temp\edf7552f13d07d8f591673b9e5d0af44.mpf_cache
2021-06-11 11:10:54,102 : INFO : ConfigProcessor : Loading config from cache: C:\Users\MEESTE~1\AppData\Local\Temp\63bd49ce226a3af45f02b400f9478364.mpf_cache
2021-06-11 11:10:54,105 : INFO : ConfigProcessor : Loading config from cache: C:\Users\MEESTE~1\AppData\Local\Temp\b16855f32fa15912a0c8dc3278537500.mpf_cache
2021-06-11 11:10:54,105 : INFO : Machine : Mission Pinball Framework Core Engine v0.54.6
2021-06-11 11:10:54,106 : INFO : Machine : Command line arguments: {'no_load_cache': False, 'create_config_cache': True, 'bcp': True, 'configfile': ['config.yaml'], 'force_assets_load': False, 'jsonlogging': False, 'logfile': 'logs\\2021-06-11-11-10-53-mpf-MeesterPieter.log', 'pause': False, 'production': False, 'text_ui': True, 'loglevel': 15, 'consoleloglevel': 20, 'force_platform': 'smart_virtual', 'syslog_address': None, 'mc_file_name': None, 'no_sound': False}
2021-06-11 11:10:54,106 : INFO : Machine : MPF path: c:\mpfenv\lib\site-packages\mpf
2021-06-11 11:10:54,106 : INFO : Machine : Machine path: C:\MissionPinball\P
2021-06-11 11:10:54,106 : INFO : Machine : Platform: win32
2021-06-11 11:10:54,106 : INFO : Machine : Python executable location: c:\mpfenv\scripts\python.exe
2021-06-11 11:10:54,106 : INFO : Machine : Python version: 3.7.8 (64-bit)
2021-06-11 11:10:54,110 : INFO : Machine : Initialise MPF.
2021-06-11 11:10:54,387 : INFO : EventManager : Event: ======'machine_var_credits_string'====== Args={'value': 'FREE PLAY', 'prev_value': None, 'change': True}
2021-06-11 11:10:54,496 : INFO : EventManager : Event: ======'machine_var_mpf_version'====== Args={'value': 'MPF v0.54.6', 'prev_value': None, 'change': True}
2021-06-11 11:10:54,496 : INFO : EventManager : Event: ======'machine_var_mpf_extended_version'====== Args={'value': 'MPF v0.54.6, Config version:5, Show version: 5, BCP version:1.1', 'prev_value': None, 'change': True}
2021-06-11 11:10:54,496 : INFO : EventManager : Event: ======'machine_var_python_version'====== Args={'value': '3.7.8', 'prev_value': None, 'change': True}
2021-06-11 11:10:54,497 : INFO : EventManager : Event: ======'machine_var_platform'====== Args={'value': 'Windows-7-6.1.7601-SP1', 'prev_value': None, 'change': True}
2021-06-11 11:10:54,497 : INFO : EventManager : Event: ======'machine_var_platform_system'====== Args={'value': 'Windows', 'prev_value': None, 'change': True}
2021-06-11 11:10:54,497 : INFO : EventManager : Event: ======'machine_var_platform_release'====== Args={'value': '7', 'prev_value': None, 'change': True}
2021-06-11 11:10:54,497 : INFO : EventManager : Event: ======'machine_var_platform_version'====== Args={'value': '6.1.7601', 'prev_value': None, 'change': True}
2021-06-11 11:10:54,497 : INFO : EventManager : Event: ======'machine_var_platform_machine'====== Args={'value': 'AMD64', 'prev_value': None, 'change': True}
2021-06-11 11:10:54,497 : INFO : EventManager : Event: ======'init_phase_1'====== Args={}
2021-06-11 11:10:54,533 : INFO : EventManager : Event: ======'init_phase_2'====== Args={}
2021-06-11 11:10:54,534 : INFO : EventManager : Event: ======'bcp_connection_attempt'====== Args={'name': 'local_display', 'host': 'localhost', 'port': 5050}
2021-06-11 11:10:54,536 : INFO : BCPClientSocket : Connecting BCP to 'local_display' at localhost:5050...
2021-06-11 11:10:56,561 : INFO : BCPClientSocket : Connected BCP to 'local_display' localhost:5050
2021-06-11 11:10:56,562 : INFO : EventManager : Event: ======'bcp_clients_connected'====== Args={}
2021-06-11 11:10:56,576 : INFO : EventManager : Event: ======'init_phase_3'====== Args={}
2021-06-11 11:10:56,593 : INFO : EventManager : Event: ======'init_phase_4'====== Args={}
2021-06-11 11:10:56,594 : INFO : EventManager : Event: ======'machine_var_mc_version'====== Args={'value': 'MPF-MC v0.54.2', 'prev_value': None, 'change': True}
2021-06-11 11:10:56,594 : INFO : EventManager : Event: ======'machine_var_mc_extended_version'====== Args={'value': 'MPF-MC v0.54.2 (config_version=5, BCP v1.1, Requires MPF v0.54.0)', 'prev_value': None, 'change': True}
2021-06-11 11:10:56,598 : INFO : EventManager : Event: ======'machine_var_master_volume'====== Args={'value': 0.5, 'prev_value': None, 'change': True}
2021-06-11 11:10:56,628 : INFO : EventManager : Event: ======'machine_var_audits_switches_s_flipper_links'====== Args={'value': 0, 'prev_value': None, 'change': True}
2021-06-11 11:10:56,629 : INFO : EventManager : Event: ======'machine_var_audits_switches_s_flipper_rechts'====== Args={'value': 0, 'prev_value': None, 'change': True}
2021-06-11 11:10:56,630 : INFO : EventManager : Event: ======'machine_var_audits_switches_s_drain'====== Args={'value': 0, 'prev_value': None, 'change': True}
2021-06-11 11:10:56,630 : INFO : EventManager : Event: ======'machine_var_audits_switches_s_through1'====== Args={'value': 0, 'prev_value': None, 'change': True}
2021-06-11 11:10:56,631 : INFO : EventManager : Event: ======'machine_var_audits_switches_s_through2'====== Args={'value': 0, 'prev_value': None, 'change': True}
2021-06-11 11:10:56,631 : INFO : EventManager : Event: ======'machine_var_audits_switches_s_through3'====== Args={'value': 0, 'prev_value': None, 'change': True}
2021-06-11 11:10:56,633 : INFO : EventManager : Event: ======'init_phase_5'====== Args={}
2021-06-11 11:10:56,649 : INFO : EventManager : Event: ======'init_done'====== Args={}
2021-06-11 11:10:56,650 : INFO : EventManager : Event: ======'machine_reset_phase_1'====== Args={}
2021-06-11 11:10:56,655 : INFO : EventManager : Event: ======'slide_welcome_slide_removed'====== Args={'_from_bcp': True}
2021-06-11 11:10:56,660 : INFO : EventManager : Event: ======'slide_welcome_slide_created'====== Args={'_from_bcp': True}
2021-06-11 11:10:56,662 : INFO : EventManager : Event: ======'machine_reset_phase_2'====== Args={}
2021-06-11 11:10:56,662 : INFO : EventManager : Event: ======'machine_reset_phase_3'====== Args={}
2021-06-11 11:10:56,662 : INFO : EventManager : Event: ======'reset_complete'====== Args={}
2021-06-11 11:10:56,662 : INFO : EventManager : Event: ======'mode_attract_will_start'====== Args={}
2021-06-11 11:10:56,663 : INFO : EventManager : Event: ======'mode_attract_starting'====== Args={}
2021-06-11 11:10:56,664 : INFO : Mode.attract : Started. Priority: 10
2021-06-11 11:10:56,664 : INFO : EventManager : Event: ======'modes_active_modes_changed'====== Args={}
2021-06-11 11:10:56,664 : INFO : EventManager : Event: ======'mode_attract_started'====== Args={}
2021-06-11 11:10:56,665 : INFO : EventManager : Event: ======'collecting_balls_complete'====== Args={}
2021-06-11 11:10:56,705 : INFO : EventManager : Event: ======'slide_welcome_slide_active'====== Args={'_from_bcp': True}
2021-06-11 11:10:56,705 : INFO : EventManager : Event: ======'slide_attract_started_created'====== Args={'_from_bcp': True}
2021-06-11 11:10:56,705 : INFO : EventManager : Event: ======'slide_attract_started_active'====== Args={'_from_bcp': True}
2021-06-11 11:10:56,706 : INFO : Machine : Starting the main run loop.
2021-06-11 11:10:56,773 : INFO : BcpServer : New client connected.
2021-06-11 11:11:06,581 : INFO : SwitchController : <<<<<<< 's_flipper_links' active >>>>>>>
2021-06-11 11:11:06,677 : INFO : SwitchController : <<<<<<< 's_flipper_links' inactive >>>>>>>
2021-06-11 11:11:07,170 : INFO : SwitchController : <<<<<<< 's_flipper_links' active >>>>>>>
2021-06-11 11:11:07,735 : INFO : SwitchController : <<<<<<< 's_flipper_links' inactive >>>>>>>
2021-06-11 11:11:09,034 : INFO : SwitchController : <<<<<<< 's_flipper_rechts' active >>>>>>>
2021-06-11 11:11:09,245 : INFO : SwitchController : <<<<<<< 's_flipper_rechts' inactive >>>>>>>
2021-06-11 11:11:09,491 : INFO : SwitchController : <<<<<<< 's_flipper_links' active >>>>>>>
2021-06-11 11:11:09,635 : INFO : SwitchController : <<<<<<< 's_flipper_links' inactive >>>>>>>
2021-06-11 11:11:09,683 : INFO : SwitchController : <<<<<<< 's_flipper_rechts' active >>>>>>>
2021-06-11 11:11:09,851 : INFO : SwitchController : <<<<<<< 's_flipper_rechts' inactive >>>>>>>
2021-06-11 11:11:11,931 : INFO : SwitchController : <<<<<<< 's_flipper_links' active >>>>>>>
2021-06-11 11:11:12,003 : INFO : SwitchController : <<<<<<< 's_flipper_links' inactive >>>>>>>
2021-06-11 11:11:12,539 : INFO : SwitchController : <<<<<<< 's_flipper_links' active >>>>>>>
2021-06-11 11:11:13,758 : INFO : SwitchController : <<<<<<< 's_flipper_links' inactive >>>>>>>
2021-06-11 11:11:14,823 : INFO : SwitchController : <<<<<<< 's_flipper_rechts' active >>>>>>>
2021-06-11 11:11:15,386 : INFO : SwitchController : <<<<<<< 's_flipper_rechts' inactive >>>>>>>
2021-06-11 11:13:54,475 : INFO : Machine : Shutting down...
2021-06-11 11:13:54,475 : INFO : EventManager : Event: ======'shutdown'====== Args={}
2021-06-11 11:13:54,482 : INFO : root : MPF run loop ended.
