2021-06-11 12:00:25,595 : INFO : root : Loading config.
2021-06-11 12:00:26,343 : INFO : ConfigProcessor : Config spec file cache created: C:\Users\MEESTE~1\AppData\Local\Temp\config_spec.mpf_cache
2021-06-11 12:00:26,343 : INFO : YamlMultifileConfigLoader : Machine config file #1: config.yaml
2021-06-11 12:00:26,343 : WARNING : ConfigProcessor : Config file in cache changed: C:\MissionPinball\P\config\config.yaml
2021-06-11 12:00:26,343 : INFO : ConfigProcessor : Loading config from file c:\mpfenv\lib\site-packages\mpf\mpfconfig.yaml.
2021-06-11 12:00:26,484 : INFO : ConfigProcessor : Loading config: c:\mpfenv\lib\site-packages\mpf\mpfconfig.yaml
2021-06-11 12:00:26,484 : INFO : ConfigProcessor : Loading config from file C:\MissionPinball\P\config\config.yaml.
2021-06-11 12:00:26,538 : INFO : ConfigProcessor : Loading config: C:\MissionPinball\P\config\config.yaml
2021-06-11 12:00:26,541 : INFO : ConfigProcessor : Config file cache created: C:\Users\MEESTE~1\AppData\Local\Temp\edf7552f13d07d8f591673b9e5d0af44.mpf_cache
2021-06-11 12:00:26,686 : INFO : ConfigProcessor : Loading config from cache: C:\Users\MEESTE~1\AppData\Local\Temp\63bd49ce226a3af45f02b400f9478364.mpf_cache
2021-06-11 12:00:26,688 : INFO : ConfigProcessor : Loading config from cache: C:\Users\MEESTE~1\AppData\Local\Temp\b16855f32fa15912a0c8dc3278537500.mpf_cache
2021-06-11 12:00:26,689 : INFO : Machine : Mission Pinball Framework Core Engine v0.54.6
2021-06-11 12:00:26,689 : INFO : Machine : Command line arguments: {'no_load_cache': False, 'create_config_cache': True, 'bcp': True, 'configfile': ['config.yaml'], 'force_assets_load': False, 'jsonlogging': False, 'logfile': 'logs\\2021-06-11-12-00-25-mpf-MeesterPieter.log', 'pause': False, 'production': False, 'text_ui': True, 'loglevel': 15, 'consoleloglevel': 20, 'force_platform': 'smart_virtual', 'syslog_address': None, 'mc_file_name': None, 'no_sound': False}
2021-06-11 12:00:26,689 : INFO : Machine : MPF path: c:\mpfenv\lib\site-packages\mpf
2021-06-11 12:00:26,689 : INFO : Machine : Machine path: C:\MissionPinball\P
2021-06-11 12:00:26,689 : INFO : Machine : Platform: win32
2021-06-11 12:00:26,690 : INFO : Machine : Python executable location: c:\mpfenv\scripts\python.exe
2021-06-11 12:00:26,690 : INFO : Machine : Python version: 3.7.8 (64-bit)
2021-06-11 12:00:26,693 : INFO : Machine : Initialise MPF.
2021-06-11 12:00:26,969 : INFO : EventManager : Event: ======'machine_var_credits_string'====== Args={'value': 'FREE PLAY', 'prev_value': None, 'change': True}
2021-06-11 12:00:27,075 : INFO : EventManager : Event: ======'machine_var_mpf_version'====== Args={'value': 'MPF v0.54.6', 'prev_value': None, 'change': True}
2021-06-11 12:00:27,075 : INFO : EventManager : Event: ======'machine_var_mpf_extended_version'====== Args={'value': 'MPF v0.54.6, Config version:5, Show version: 5, BCP version:1.1', 'prev_value': None, 'change': True}
2021-06-11 12:00:27,075 : INFO : EventManager : Event: ======'machine_var_python_version'====== Args={'value': '3.7.8', 'prev_value': None, 'change': True}
2021-06-11 12:00:27,076 : INFO : EventManager : Event: ======'machine_var_platform'====== Args={'value': 'Windows-7-6.1.7601-SP1', 'prev_value': None, 'change': True}
2021-06-11 12:00:27,076 : INFO : EventManager : Event: ======'machine_var_platform_system'====== Args={'value': 'Windows', 'prev_value': None, 'change': True}
2021-06-11 12:00:27,076 : INFO : EventManager : Event: ======'machine_var_platform_release'====== Args={'value': '7', 'prev_value': None, 'change': True}
2021-06-11 12:00:27,076 : INFO : EventManager : Event: ======'machine_var_platform_version'====== Args={'value': '6.1.7601', 'prev_value': None, 'change': True}
2021-06-11 12:00:27,076 : INFO : EventManager : Event: ======'machine_var_platform_machine'====== Args={'value': 'AMD64', 'prev_value': None, 'change': True}
2021-06-11 12:00:27,076 : INFO : EventManager : Event: ======'init_phase_1'====== Args={}
2021-06-11 12:00:27,115 : INFO : EventManager : Event: ======'init_phase_2'====== Args={}
2021-06-11 12:00:27,116 : INFO : SwitchController : Found active switch: ('103', <Platform.SmartVirtual>) <switch.s_trough1>
2021-06-11 12:00:27,116 : INFO : SwitchController : Found active switch: ('104', <Platform.SmartVirtual>) <switch.s_trough2>
2021-06-11 12:00:27,116 : INFO : SwitchController : Found active switch: ('105', <Platform.SmartVirtual>) <switch.s_trough3>
2021-06-11 12:00:27,118 : INFO : EventManager : Event: ======'bcp_connection_attempt'====== Args={'name': 'local_display', 'host': 'localhost', 'port': 5050}
2021-06-11 12:00:27,120 : INFO : BCPClientSocket : Connecting BCP to 'local_display' at localhost:5050...
2021-06-11 12:00:29,146 : INFO : BCPClientSocket : Connected BCP to 'local_display' localhost:5050
2021-06-11 12:00:29,147 : INFO : EventManager : Event: ======'bcp_clients_connected'====== Args={}
2021-06-11 12:00:29,163 : INFO : EventManager : Event: ======'machine_var_mc_version'====== Args={'value': 'MPF-MC v0.54.2', 'prev_value': None, 'change': True}
2021-06-11 12:00:29,163 : INFO : EventManager : Event: ======'machine_var_mc_extended_version'====== Args={'value': 'MPF-MC v0.54.2 (config_version=5, BCP v1.1, Requires MPF v0.54.0)', 'prev_value': None, 'change': True}
2021-06-11 12:00:29,166 : INFO : EventManager : Event: ======'machine_var_master_volume'====== Args={'value': 0.5, 'prev_value': None, 'change': True}
2021-06-11 12:00:29,167 : INFO : ball_device.bd_drain : State: idle
2021-06-11 12:00:29,196 : INFO : ball_device.bd_trough : State: idle
2021-06-11 12:00:29,197 : INFO : ball_device.bd_plunger : State: idle
2021-06-11 12:00:29,212 : INFO : EventManager : Event: ======'init_phase_3'====== Args={}
2021-06-11 12:00:29,216 : INFO : EventManager : Event: ======'init_phase_4'====== Args={}
2021-06-11 12:00:29,217 : INFO : BallController : Initial balls found: 3
2021-06-11 12:00:29,218 : INFO : EventManager : Event: ======'machine_var_audits_switches_s_flipper_links'====== Args={'value': 0, 'prev_value': None, 'change': True}
2021-06-11 12:00:29,219 : INFO : EventManager : Event: ======'machine_var_audits_switches_s_flipper_rechts'====== Args={'value': 0, 'prev_value': None, 'change': True}
2021-06-11 12:00:29,220 : INFO : EventManager : Event: ======'machine_var_audits_switches_s_drain'====== Args={'value': 0, 'prev_value': None, 'change': True}
2021-06-11 12:00:29,220 : INFO : EventManager : Event: ======'machine_var_audits_switches_s_trough1'====== Args={'value': 0, 'prev_value': None, 'change': True}
2021-06-11 12:00:29,221 : INFO : EventManager : Event: ======'machine_var_audits_switches_s_trough2'====== Args={'value': 0, 'prev_value': None, 'change': True}
2021-06-11 12:00:29,221 : INFO : EventManager : Event: ======'machine_var_audits_switches_s_trough3'====== Args={'value': 0, 'prev_value': None, 'change': True}
2021-06-11 12:00:29,222 : INFO : EventManager : Event: ======'machine_var_audits_switches_s_plunger'====== Args={'value': 0, 'prev_value': None, 'change': True}
2021-06-11 12:00:29,223 : INFO : EventManager : Event: ======'machine_var_audits_switches_s_launch_button'====== Args={'value': 0, 'prev_value': None, 'change': True}
2021-06-11 12:00:29,223 : INFO : EventManager : Event: ======'machine_var_audits_switches_s_foley'====== Args={'value': 0, 'prev_value': None, 'change': True}
2021-06-11 12:00:29,224 : INFO : EventManager : Event: ======'init_phase_5'====== Args={}
2021-06-11 12:00:29,245 : INFO : EventManager : Event: ======'init_done'====== Args={}
2021-06-11 12:00:29,246 : INFO : EventManager : Event: ======'machine_reset_phase_1'====== Args={}
2021-06-11 12:00:29,258 : INFO : EventManager : Event: ======'slide_welcome_slide_removed'====== Args={'_from_bcp': True}
2021-06-11 12:00:29,263 : INFO : EventManager : Event: ======'slide_welcome_slide_created'====== Args={'_from_bcp': True}
2021-06-11 12:00:29,265 : INFO : EventManager : Event: ======'machine_reset_phase_2'====== Args={}
2021-06-11 12:00:29,265 : INFO : EventManager : Event: ======'machine_reset_phase_3'====== Args={}
2021-06-11 12:00:29,266 : INFO : EventManager : Event: ======'reset_complete'====== Args={}
2021-06-11 12:00:29,266 : INFO : EventManager : Event: ======'mode_attract_will_start'====== Args={}
2021-06-11 12:00:29,267 : INFO : EventManager : Event: ======'mode_attract_starting'====== Args={}
2021-06-11 12:00:29,267 : INFO : Mode.attract : Started. Priority: 10
2021-06-11 12:00:29,267 : INFO : EventManager : Event: ======'modes_active_modes_changed'====== Args={}
2021-06-11 12:00:29,267 : INFO : EventManager : Event: ======'mode_attract_started'====== Args={}
2021-06-11 12:00:29,268 : INFO : EventManager : Event: ======'collecting_balls_complete'====== Args={}
2021-06-11 12:00:29,304 : INFO : EventManager : Event: ======'slide_welcome_slide_active'====== Args={'_from_bcp': True}
2021-06-11 12:00:29,304 : INFO : EventManager : Event: ======'slide_attract_started_created'====== Args={'_from_bcp': True}
2021-06-11 12:00:29,305 : INFO : EventManager : Event: ======'slide_attract_started_active'====== Args={'_from_bcp': True}
2021-06-11 12:00:29,305 : INFO : Machine : Starting the main run loop.
2021-06-11 12:00:29,608 : INFO : BcpServer : New client connected.
2021-06-11 12:01:15,254 : INFO : Machine : Shutting down...
2021-06-11 12:01:15,254 : INFO : EventManager : Event: ======'shutdown'====== Args={}
2021-06-11 12:01:15,262 : INFO : root : MPF run loop ended.
