2021-06-21 20:39:28,200 : INFO : root : Loading config.
2021-06-21 20:39:28,979 : INFO : ConfigProcessor : Config spec file cache created: C:\Users\MEESTE~1\AppData\Local\Temp\config_spec.mpf_cache
2021-06-21 20:39:28,979 : INFO : YamlMultifileConfigLoader : Machine config file #1: config.yaml
2021-06-21 20:39:28,980 : INFO : ConfigProcessor : Loading config from cache: C:\Users\MEESTE~1\AppData\Local\Temp\edf7552f13d07d8f591673b9e5d0af44.mpf_cache
2021-06-21 20:39:29,144 : INFO : ConfigProcessor : Loading config from cache: C:\Users\MEESTE~1\AppData\Local\Temp\ba565b152e3a424c60da0fc20421189a.mpf_cache
2021-06-21 20:39:29,146 : INFO : ConfigProcessor : Loading config from cache: C:\Users\MEESTE~1\AppData\Local\Temp\b16855f32fa15912a0c8dc3278537500.mpf_cache
2021-06-21 20:39:29,147 : WARNING : ConfigProcessor : Config file in cache changed: C:\MissionPinball\P\modes\base\config\base.yaml
2021-06-21 20:39:29,147 : INFO : ConfigProcessor : Loading config from file C:\MissionPinball\P\modes\base\config\base.yaml.
2021-06-21 20:39:29,193 : INFO : ConfigProcessor : Loading config: C:\MissionPinball\P\modes\base\config\base.yaml
2021-06-21 20:39:29,195 : INFO : ConfigProcessor : Config file cache created: C:\Users\MEESTE~1\AppData\Local\Temp\eae5e374fdab94bc8ed9a0f08718cef8.mpf_cache
2021-06-21 20:39:29,197 : INFO : ConfigProcessor : Loading config from cache: C:\Users\MEESTE~1\AppData\Local\Temp\06d8f51c2a5c542e4abfbd5f3074f24f.mpf_cache
2021-06-21 20:39:29,198 : INFO : ConfigProcessor : Loading config from cache: C:\Users\MEESTE~1\AppData\Local\Temp\05af67a4df65f9c2a0b6133d009717fd.mpf_cache
2021-06-21 20:39:29,199 : INFO : Machine : Mission Pinball Framework Core Engine v0.54.6
2021-06-21 20:39:29,199 : INFO : Machine : Command line arguments: {'no_load_cache': False, 'create_config_cache': True, 'bcp': True, 'configfile': ['config.yaml'], 'force_assets_load': False, 'jsonlogging': False, 'logfile': 'logs\\2021-06-21-20-39-28-mpf-MeesterPieter.log', 'pause': False, 'production': False, 'text_ui': True, 'loglevel': 15, 'consoleloglevel': 20, 'force_platform': None, 'syslog_address': None, 'mc_file_name': None, 'no_sound': False}
2021-06-21 20:39:29,199 : INFO : Machine : MPF path: c:\mpfenv\lib\site-packages\mpf
2021-06-21 20:39:29,199 : INFO : Machine : Machine path: C:\MissionPinball\P
2021-06-21 20:39:29,199 : INFO : Machine : Platform: win32
2021-06-21 20:39:29,199 : INFO : Machine : Python executable location: c:\mpfenv\scripts\python.exe
2021-06-21 20:39:29,200 : INFO : Machine : Python version: 3.7.8 (64-bit)
2021-06-21 20:39:29,203 : INFO : Machine : Initialise MPF.
2021-06-21 20:39:29,484 : INFO : EventManager : Event: ======'machine_var_credits_string'====== Args={'value': 'FREE PLAY', 'prev_value': None, 'change': True}
2021-06-21 20:39:29,594 : INFO : EventManager : Event: ======'machine_var_player1_score'====== Args={'value': 6778, 'prev_value': None, 'change': True}
2021-06-21 20:39:29,595 : INFO : EventManager : Event: ======'machine_var_mpf_version'====== Args={'value': 'MPF v0.54.6', 'prev_value': None, 'change': True}
2021-06-21 20:39:29,595 : INFO : EventManager : Event: ======'machine_var_mpf_extended_version'====== Args={'value': 'MPF v0.54.6, Config version:5, Show version: 5, BCP version:1.1', 'prev_value': None, 'change': True}
2021-06-21 20:39:29,595 : INFO : EventManager : Event: ======'machine_var_python_version'====== Args={'value': '3.7.8', 'prev_value': None, 'change': True}
2021-06-21 20:39:29,596 : INFO : EventManager : Event: ======'machine_var_platform'====== Args={'value': 'Windows-7-6.1.7601-SP1', 'prev_value': None, 'change': True}
2021-06-21 20:39:29,596 : INFO : EventManager : Event: ======'machine_var_platform_system'====== Args={'value': 'Windows', 'prev_value': None, 'change': True}
2021-06-21 20:39:29,596 : INFO : EventManager : Event: ======'machine_var_platform_release'====== Args={'value': '7', 'prev_value': None, 'change': True}
2021-06-21 20:39:29,596 : INFO : EventManager : Event: ======'machine_var_platform_version'====== Args={'value': '6.1.7601', 'prev_value': None, 'change': True}
2021-06-21 20:39:29,596 : INFO : EventManager : Event: ======'machine_var_platform_machine'====== Args={'value': 'AMD64', 'prev_value': None, 'change': True}
2021-06-21 20:39:29,596 : INFO : EventManager : Event: ======'init_phase_1'====== Args={}
2021-06-21 20:39:29,660 : INFO : EventManager : Event: ======'init_phase_2'====== Args={}
2021-06-21 20:39:29,661 : INFO : SwitchController : Found active switch: ('103', <Platform.SmartVirtual>) <switch.s_trough1>
2021-06-21 20:39:29,661 : INFO : SwitchController : Found active switch: ('104', <Platform.SmartVirtual>) <switch.s_trough2>
2021-06-21 20:39:29,661 : INFO : SwitchController : Found active switch: ('105', <Platform.SmartVirtual>) <switch.s_trough3>
2021-06-21 20:39:29,671 : INFO : EventManager : Event: ======'bcp_connection_attempt'====== Args={'name': 'local_display', 'host': 'localhost', 'port': 5050}
2021-06-21 20:39:29,673 : INFO : BCPClientSocket : Connecting BCP to 'local_display' at localhost:5050...
2021-06-21 20:39:32,803 : INFO : BCPClientSocket : Connected BCP to 'local_display' localhost:5050
2021-06-21 20:39:32,804 : INFO : EventManager : Event: ======'bcp_clients_connected'====== Args={}
2021-06-21 20:39:32,823 : INFO : EventManager : Event: ======'machine_var_mc_version'====== Args={'value': 'MPF-MC v0.54.2', 'prev_value': None, 'change': True}
2021-06-21 20:39:32,823 : INFO : EventManager : Event: ======'machine_var_mc_extended_version'====== Args={'value': 'MPF-MC v0.54.2 (config_version=5, BCP v1.1, Requires MPF v0.54.0)', 'prev_value': None, 'change': True}
2021-06-21 20:39:32,827 : INFO : EventManager : Event: ======'machine_var_master_volume'====== Args={'value': 0.5, 'prev_value': None, 'change': True}
2021-06-21 20:39:32,828 : INFO : ball_device.bd_drain : State: idle
2021-06-21 20:39:32,865 : INFO : ball_device.bd_trough : State: idle
2021-06-21 20:39:32,866 : INFO : ball_device.bd_plunger : State: idle
2021-06-21 20:39:32,867 : INFO : ball_device.bd_vuk_left : State: idle
2021-06-21 20:39:32,868 : INFO : ball_device.bd_vuk_right : State: idle
2021-06-21 20:39:32,869 : INFO : ball_device.bd_kickout : State: idle
2021-06-21 20:39:32,901 : INFO : EventManager : Event: ======'init_phase_3'====== Args={}
2021-06-21 20:39:32,910 : INFO : EventManager : Event: ======'init_phase_4'====== Args={}
2021-06-21 20:39:32,910 : INFO : BallController : Initial balls found: 3
2021-06-21 20:39:32,912 : INFO : EventManager : Event: ======'machine_var_audits_shots_shot_vuk_left'====== Args={'value': 25, 'prev_value': None, 'change': True}
2021-06-21 20:39:32,913 : INFO : EventManager : Event: ======'machine_var_audits_switches_s_cop_left'====== Args={'value': 1, 'prev_value': None, 'change': True}
2021-06-21 20:39:32,913 : INFO : EventManager : Event: ======'machine_var_audits_switches_s_cop_middle'====== Args={'value': 1, 'prev_value': None, 'change': True}
2021-06-21 20:39:32,914 : INFO : EventManager : Event: ======'machine_var_audits_switches_s_cop_right'====== Args={'value': 1, 'prev_value': None, 'change': True}
2021-06-21 20:39:32,914 : INFO : EventManager : Event: ======'machine_var_audits_switches_s_drain'====== Args={'value': 32, 'prev_value': None, 'change': True}
2021-06-21 20:39:32,915 : INFO : EventManager : Event: ======'machine_var_audits_switches_s_droptarget_left_1'====== Args={'value': 1, 'prev_value': None, 'change': True}
2021-06-21 20:39:32,916 : INFO : EventManager : Event: ======'machine_var_audits_switches_s_droptarget_left_2'====== Args={'value': 1, 'prev_value': None, 'change': True}
2021-06-21 20:39:32,916 : INFO : EventManager : Event: ======'machine_var_audits_switches_s_droptarget_left_3'====== Args={'value': 1, 'prev_value': None, 'change': True}
2021-06-21 20:39:32,917 : INFO : EventManager : Event: ======'machine_var_audits_switches_s_droptarget_middle_1'====== Args={'value': 0, 'prev_value': None, 'change': True}
2021-06-21 20:39:32,917 : INFO : EventManager : Event: ======'machine_var_audits_switches_s_droptarget_middle_2'====== Args={'value': 0, 'prev_value': None, 'change': True}
2021-06-21 20:39:32,918 : INFO : EventManager : Event: ======'machine_var_audits_switches_s_droptarget_middle_3'====== Args={'value': 0, 'prev_value': None, 'change': True}
2021-06-21 20:39:32,919 : INFO : EventManager : Event: ======'machine_var_audits_switches_s_droptarget_right_1'====== Args={'value': 1, 'prev_value': None, 'change': True}
2021-06-21 20:39:32,919 : INFO : EventManager : Event: ======'machine_var_audits_switches_s_droptarget_right_2'====== Args={'value': 3, 'prev_value': None, 'change': True}
2021-06-21 20:39:32,920 : INFO : EventManager : Event: ======'machine_var_audits_switches_s_droptarget_right_3'====== Args={'value': 1, 'prev_value': None, 'change': True}
2021-06-21 20:39:32,921 : INFO : EventManager : Event: ======'machine_var_audits_switches_s_droptarget_right_4'====== Args={'value': 1, 'prev_value': None, 'change': True}
2021-06-21 20:39:32,921 : INFO : EventManager : Event: ======'machine_var_audits_switches_s_droptarget_right_5'====== Args={'value': 1, 'prev_value': None, 'change': True}
2021-06-21 20:39:32,922 : INFO : EventManager : Event: ======'machine_var_audits_switches_s_flipper_lane_left'====== Args={'value': 0, 'prev_value': None, 'change': True}
2021-06-21 20:39:32,923 : INFO : EventManager : Event: ======'machine_var_audits_switches_s_flipper_lane_right'====== Args={'value': 0, 'prev_value': None, 'change': True}
2021-06-21 20:39:32,924 : INFO : EventManager : Event: ======'machine_var_audits_switches_s_flipper_left'====== Args={'value': 0, 'prev_value': None, 'change': True}
2021-06-21 20:39:32,924 : INFO : EventManager : Event: ======'machine_var_audits_switches_s_flipper_links'====== Args={'value': 23, 'prev_value': None, 'change': True}
2021-06-21 20:39:32,925 : INFO : EventManager : Event: ======'machine_var_audits_switches_s_flipper_rechts'====== Args={'value': 20, 'prev_value': None, 'change': True}
2021-06-21 20:39:32,926 : INFO : EventManager : Event: ======'machine_var_audits_switches_s_flipper_right'====== Args={'value': 0, 'prev_value': None, 'change': True}
2021-06-21 20:39:32,926 : INFO : EventManager : Event: ======'machine_var_audits_switches_s_foley'====== Args={'value': 76, 'prev_value': None, 'change': True}
2021-06-21 20:39:32,927 : INFO : EventManager : Event: ======'machine_var_audits_switches_s_inlane_left'====== Args={'value': 1, 'prev_value': None, 'change': True}
2021-06-21 20:39:32,928 : INFO : EventManager : Event: ======'machine_var_audits_switches_s_inlane_right'====== Args={'value': 1, 'prev_value': None, 'change': True}
2021-06-21 20:39:32,928 : INFO : EventManager : Event: ======'machine_var_audits_switches_s_kickback'====== Args={'value': 1, 'prev_value': None, 'change': True}
2021-06-21 20:39:32,929 : INFO : EventManager : Event: ======'machine_var_audits_switches_s_kickout'====== Args={'value': 1, 'prev_value': None, 'change': True}
2021-06-21 20:39:32,930 : INFO : EventManager : Event: ======'machine_var_audits_switches_s_launch_button'====== Args={'value': 40, 'prev_value': None, 'change': True}
2021-06-21 20:39:32,931 : INFO : EventManager : Event: ======'machine_var_audits_switches_s_outlane_right'====== Args={'value': 28, 'prev_value': None, 'change': True}
2021-06-21 20:39:32,931 : INFO : EventManager : Event: ======'machine_var_audits_switches_s_plunger'====== Args={'value': 60, 'prev_value': None, 'change': True}
2021-06-21 20:39:32,932 : INFO : EventManager : Event: ======'machine_var_audits_switches_s_ramp_left'====== Args={'value': 2, 'prev_value': None, 'change': True}
2021-06-21 20:39:32,933 : INFO : EventManager : Event: ======'machine_var_audits_switches_s_slingshot_left'====== Args={'value': 0, 'prev_value': None, 'change': True}
2021-06-21 20:39:32,934 : INFO : EventManager : Event: ======'machine_var_audits_switches_s_slingshot_right'====== Args={'value': 0, 'prev_value': None, 'change': True}
2021-06-21 20:39:32,934 : INFO : EventManager : Event: ======'machine_var_audits_switches_s_spinner'====== Args={'value': 6, 'prev_value': None, 'change': True}
2021-06-21 20:39:32,935 : INFO : EventManager : Event: ======'machine_var_audits_switches_s_start'====== Args={'value': 4, 'prev_value': None, 'change': True}
2021-06-21 20:39:32,936 : INFO : EventManager : Event: ======'machine_var_audits_switches_s_trough1'====== Args={'value': 51, 'prev_value': None, 'change': True}
2021-06-21 20:39:32,937 : INFO : EventManager : Event: ======'machine_var_audits_switches_s_trough2'====== Args={'value': 7, 'prev_value': None, 'change': True}
2021-06-21 20:39:32,938 : INFO : EventManager : Event: ======'machine_var_audits_switches_s_trough3'====== Args={'value': 2, 'prev_value': None, 'change': True}
2021-06-21 20:39:32,938 : INFO : EventManager : Event: ======'machine_var_audits_switches_s_turbo_left'====== Args={'value': 2, 'prev_value': None, 'change': True}
2021-06-21 20:39:32,939 : INFO : EventManager : Event: ======'machine_var_audits_switches_s_turbo_links'====== Args={'value': 1, 'prev_value': None, 'change': True}
2021-06-21 20:39:32,940 : INFO : EventManager : Event: ======'machine_var_audits_switches_s_turbo_midden'====== Args={'value': 10, 'prev_value': None, 'change': True}
2021-06-21 20:39:32,941 : INFO : EventManager : Event: ======'machine_var_audits_switches_s_turbo_middle'====== Args={'value': 2, 'prev_value': None, 'change': True}
2021-06-21 20:39:32,941 : INFO : EventManager : Event: ======'machine_var_audits_switches_s_turbo_rechts'====== Args={'value': 3, 'prev_value': None, 'change': True}
2021-06-21 20:39:32,942 : INFO : EventManager : Event: ======'machine_var_audits_switches_s_turbo_right'====== Args={'value': 2, 'prev_value': None, 'change': True}
2021-06-21 20:39:32,943 : INFO : EventManager : Event: ======'machine_var_audits_switches_s_vuk_left'====== Args={'value': 25, 'prev_value': None, 'change': True}
2021-06-21 20:39:32,944 : INFO : EventManager : Event: ======'machine_var_audits_switches_s_vuk_right'====== Args={'value': 3, 'prev_value': None, 'change': True}
2021-06-21 20:39:32,945 : INFO : EventManager : Event: ======'init_phase_5'====== Args={}
2021-06-21 20:39:32,972 : INFO : EventManager : Event: ======'init_done'====== Args={}
2021-06-21 20:39:32,973 : INFO : EventManager : Event: ======'machine_reset_phase_1'====== Args={}
2021-06-21 20:39:32,980 : INFO : EventManager : Event: ======'slide_welcome_slide_removed'====== Args={'_from_bcp': True}
2021-06-21 20:39:32,985 : INFO : EventManager : Event: ======'slide_welcome_slide_created'====== Args={'_from_bcp': True}
2021-06-21 20:39:32,987 : INFO : EventManager : Event: ======'machine_reset_phase_2'====== Args={}
2021-06-21 20:39:32,987 : INFO : EventManager : Event: ======'machine_reset_phase_3'====== Args={}
2021-06-21 20:39:32,987 : INFO : EventManager : Event: ======'reset_complete'====== Args={}
2021-06-21 20:39:32,987 : INFO : EventManager : Event: ======'mode_attract_will_start'====== Args={}
2021-06-21 20:39:32,989 : INFO : EventManager : Event: ======'mode_attract_starting'====== Args={}
2021-06-21 20:39:32,989 : INFO : Mode.attract : Started. Priority: 10
2021-06-21 20:39:32,989 : INFO : EventManager : Event: ======'modes_active_modes_changed'====== Args={}
2021-06-21 20:39:32,989 : INFO : EventManager : Event: ======'mode_attract_started'====== Args={}
2021-06-21 20:39:32,992 : INFO : EventManager : Event: ======'collecting_balls_complete'====== Args={}
2021-06-21 20:39:33,035 : INFO : EventManager : Event: ======'slide_welcome_slide_active'====== Args={'_from_bcp': True}
2021-06-21 20:39:33,036 : INFO : EventManager : Event: ======'slide_awesome_slide_created'====== Args={'_from_bcp': True}
2021-06-21 20:39:33,036 : INFO : EventManager : Event: ======'slide_awesome_slide_active'====== Args={'_from_bcp': True}
2021-06-21 20:39:33,036 : INFO : EventManager : Event: ======'slide_attract_started_created'====== Args={'_from_bcp': True}
2021-06-21 20:39:33,037 : INFO : Machine : Starting the main run loop.
2021-06-21 20:39:33,243 : INFO : BcpServer : New client connected.
2021-06-21 20:39:33,245 : INFO : SwitchController : <<<<<<< 's_start' active >>>>>>>
2021-06-21 20:39:33,245 : INFO : SwitchController : <<<<<<< 's_start' inactive >>>>>>>
2021-06-21 20:39:33,246 : INFO : EventManager : Event: ======'request_to_start_game'====== Args={}
2021-06-21 20:39:33,246 : INFO : EventManager : Event: ======'game_start'====== Args={'buttons': [], 'hold_time': 0.0}
2021-06-21 20:39:33,246 : INFO : EventManager : Event: ======'mode_game_will_start'====== Args={'buttons': [], 'hold_time': 0.0}
2021-06-21 20:39:33,247 : INFO : EventManager : Event: ======'mode_game_starting'====== Args={'buttons': [], 'hold_time': 0.0}
2021-06-21 20:39:33,247 : INFO : EventManager : Event: ======'mode_attract_will_stop'====== Args={}
2021-06-21 20:39:33,248 : INFO : EventManager : Event: ======'mode_attract_stopping'====== Args={}
2021-06-21 20:39:33,248 : INFO : Mode.attract : Stopped.
2021-06-21 20:39:33,248 : INFO : EventManager : Event: ======'modes_active_modes_changed'====== Args={}
2021-06-21 20:39:33,249 : INFO : EventManager : Event: ======'mode_attract_stopped'====== Args={}
2021-06-21 20:39:33,249 : INFO : EventManager : Event: ======'clear'====== Args={'key': 'attract'}
2021-06-21 20:39:33,249 : INFO : Mode.game : Started. Priority: 20
2021-06-21 20:39:33,249 : INFO : EventManager : Event: ======'modes_active_modes_changed'====== Args={}
2021-06-21 20:39:33,250 : INFO : EventManager : Event: ======'mode_game_started'====== Args={'buttons': [], 'hold_time': 0.0}
2021-06-21 20:39:33,264 : INFO : EventManager : Event: ======'game_will_start'====== Args={}
2021-06-21 20:39:33,265 : INFO : SwitchController : <<<<<<< 's_start' active >>>>>>>
2021-06-21 20:39:33,265 : INFO : EventManager : Event: ======'sw_start'====== Args={}
2021-06-21 20:39:33,265 : INFO : SwitchController : <<<<<<< 's_start' inactive >>>>>>>
2021-06-21 20:39:33,274 : INFO : EventManager : Event: ======'player_add_request'====== Args={}
2021-06-21 20:39:33,275 : INFO : EventManager : Event: ======'player_will_add'====== Args={'number': 1}
2021-06-21 20:39:33,275 : INFO : EventManager : Event: ======'player_adding'====== Args={'player': <Player 1>, 'number': 1}
2021-06-21 20:39:33,276 : INFO : EventManager : Event: ======'player_added'====== Args={'player': <Player 1>, 'num': 1}
2021-06-21 20:39:33,276 : INFO : Mode.game : Player added successfully. Total players: 1
2021-06-21 20:39:33,277 : INFO : EventManager : Event: ======'player_index'====== Args={'value': 0, 'prev_value': 0, 'change': 0, 'player_num': 1}
2021-06-21 20:39:33,278 : INFO : EventManager : Event: ======'player_number'====== Args={'value': 1, 'prev_value': 1, 'change': 0, 'player_num': 1}
2021-06-21 20:39:33,278 : INFO : EventManager : Event: ======'player_score'====== Args={'value': 0, 'prev_value': 0, 'change': 0, 'player_num': 1}
2021-06-21 20:39:33,300 : INFO : EventManager : Event: ======'game_starting'====== Args={'game': <Mode.game>}
2021-06-21 20:39:33,300 : INFO : EventManager : Event: ======'slide_awesome_slide_removed'====== Args={'_from_bcp': True}
2021-06-21 20:39:33,301 : INFO : EventManager : Event: ======'slide_attract_started_active'====== Args={'_from_bcp': True}
2021-06-21 20:39:33,303 : INFO : EventManager : Event: ======'game_started'====== Args={}
2021-06-21 20:39:33,304 : INFO : EventManager : Event: ======'player_turn_will_start'====== Args={'player': <Player 1>, 'number': 1}
2021-06-21 20:39:33,305 : INFO : EventManager : Event: ======'player_turn_starting'====== Args={'player': <Player 1>, 'number': 1}
2021-06-21 20:39:33,306 : INFO : EventManager : Event: ======'player_ball'====== Args={'value': 1, 'prev_value': 0, 'change': 1, 'player_num': 1}
2021-06-21 20:39:33,306 : INFO : EventManager : Event: ======'player_turn_started'====== Args={'player': <Player 1>, 'number': 1}
2021-06-21 20:39:33,307 : INFO : EventManager : Event: ======'ball_will_start'====== Args={'player': 1, 'ball': 1, 'balls_remaining': 2, 'is_extra_ball': False}
2021-06-21 20:39:33,320 : INFO : EventManager : Event: ======'ball_starting'====== Args={'player': 1, 'ball': 1, 'balls_remaining': 2, 'is_extra_ball': False}
2021-06-21 20:39:33,336 : INFO : EventManager : Event: ======'balls_in_play'====== Args={'balls': 1}
2021-06-21 20:39:33,336 : INFO : EventManager : Event: ======'ball_started'====== Args={'player': 1, 'ball': 1, 'balls_remaining': 2, 'is_extra_ball': False}
2021-06-21 20:39:33,337 : INFO : EventManager : Event: ======'mode_base_will_start'====== Args={'player': 1, 'ball': 1, 'balls_remaining': 2, 'is_extra_ball': False}
2021-06-21 20:39:33,338 : INFO : EventManager : Event: ======'player_shot_shot_vuk_left_enabled'====== Args={'value': True, 'prev_value': 0, 'change': 1, 'player_num': 1}
2021-06-21 20:39:33,343 : INFO : EventManager : Event: ======'mode_base_starting'====== Args={'player': 1, 'ball': 1, 'balls_remaining': 2, 'is_extra_ball': False}
2021-06-21 20:39:33,346 : INFO : Mode.base : Started. Priority: 100
2021-06-21 20:39:33,346 : INFO : EventManager : Event: ======'modes_active_modes_changed'====== Args={}
2021-06-21 20:39:33,347 : INFO : EventManager : Event: ======'mode_base_started'====== Args={'player': 1, 'ball': 1, 'balls_remaining': 2, 'is_extra_ball': False}
2021-06-21 20:39:33,349 : INFO : EventManager : Event: ======'single_player_ball_started'====== Args={}
2021-06-21 20:39:33,393 : INFO : ball_device.bd_plunger : Setting up player-controlled eject. Balls: 1, Target: <playfield.playfield>, player_controlled_eject_event: s_launch_button_active
2021-06-21 20:39:33,394 : INFO : EventManager : Event: ======'balldevice_balls_available'====== Args={}
2021-06-21 20:39:33,395 : INFO : EventManager : Event: ======'slide_base.slide_player-mode_base_started_created'====== Args={'_from_bcp': True}
2021-06-21 20:39:33,395 : INFO : EventManager : Event: ======'slide_base.slide_player-mode_base_started_active'====== Args={'_from_bcp': True}
2021-06-21 20:39:33,396 : INFO : ball_device.bd_trough : State: waiting_for_target_ready
2021-06-21 20:39:33,397 : INFO : EventManager : Event: ======'balldevice_bd_trough_ball_eject_attempt'====== Args={'balls': 1, 'target': <ball_device.bd_plunger>, 'source': <ball_device.bd_trough>, 'mechanical_eject': True, 'num_attempts': 0}
2021-06-21 20:39:33,397 : INFO : ball_device.bd_plunger : State: waiting_for_ball
2021-06-21 20:39:33,398 : INFO : ball_device.bd_trough : State: ejecting
2021-06-21 20:39:33,398 : INFO : ball_device.bd_trough : Ejecting ball to <ball_device.bd_plunger>
2021-06-21 20:39:33,399 : INFO : EventManager : Event: ======'balldevice_bd_trough_ejecting_ball'====== Args={'balls': 1, 'target': <ball_device.bd_plunger>, 'source': <ball_device.bd_trough>, 'mechanical_eject': True, 'num_attempts': 0}
2021-06-21 20:39:33,400 : INFO : ball_device.bd_trough : Wait for ball to leave device
2021-06-21 20:39:33,400 : INFO : coil.c_trough_release : Pulsing Driver for 15ms (1.0 pulse_power)
2021-06-21 20:39:33,400 : INFO : SwitchController : <<<<<<< 's_trough1' inactive >>>>>>>
2021-06-21 20:39:33,415 : INFO : ball_device.bd_trough : State: ball_left
2021-06-21 20:39:33,415 : INFO : ball_device.bd_trough : Ball left
2021-06-21 20:39:33,415 : INFO : ball_device.bd_trough : Wait for confirm with timeout 3.0
2021-06-21 20:39:33,496 : INFO : SwitchController : <<<<<<< 's_plunger' active >>>>>>>
2021-06-21 20:39:33,496 : INFO : EventManager : Event: ======'machine_var_audits_switches_s_plunger'====== Args={'value': 61, 'prev_value': 60, 'change': 1}
2021-06-21 20:39:33,512 : INFO : SwitchController : <<<<<<< 's_start' active >>>>>>>
2021-06-21 20:39:33,512 : INFO : EventManager : Event: ======'sw_start'====== Args={}
2021-06-21 20:39:33,513 : INFO : EventManager : Event: ======'machine_var_audits_switches_s_start'====== Args={'value': 5, 'prev_value': 4, 'change': 1}
2021-06-21 20:39:33,514 : INFO : EventManager : Event: ======'player_add_request'====== Args={}
2021-06-21 20:39:33,515 : INFO : EventManager : Event: ======'player_will_add'====== Args={'number': 2}
2021-06-21 20:39:33,515 : INFO : EventManager : Event: ======'player_adding'====== Args={'player': <Player 2>, 'number': 2}
2021-06-21 20:39:33,516 : INFO : EventManager : Event: ======'player_added'====== Args={'player': <Player 2>, 'num': 2}
2021-06-21 20:39:33,516 : INFO : Mode.game : Player added successfully. Total players: 2
2021-06-21 20:39:33,516 : INFO : EventManager : Event: ======'multiplayer_game'====== Args={}
2021-06-21 20:39:33,517 : INFO : EventManager : Event: ======'player_index'====== Args={'value': 1, 'prev_value': 1, 'change': 0, 'player_num': 2}
2021-06-21 20:39:33,518 : INFO : EventManager : Event: ======'player_number'====== Args={'value': 2, 'prev_value': 2, 'change': 0, 'player_num': 2}
2021-06-21 20:39:33,519 : INFO : EventManager : Event: ======'player_score'====== Args={'value': 0, 'prev_value': 0, 'change': 0, 'player_num': 2}
2021-06-21 20:39:33,597 : INFO : SwitchController : <<<<<<< 's_start' inactive >>>>>>>
2021-06-21 20:39:34,002 : INFO : ball_device.bd_plunger : Received ball from <ball_device.bd_trough>
2021-06-21 20:39:34,002 : INFO : EventManager : Event: ======'balldevice_bd_plunger_ball_enter'====== Args={'new_balls': 1, 'unclaimed_balls': 0, 'new_available_balls': 0, 'device': <ball_device.bd_plunger>}
2021-06-21 20:39:34,003 : INFO : EventManager : Event: ======'balldevice_bd_plunger_ball_entered'====== Args={'new_balls': 0, 'device': <ball_device.bd_plunger>}
2021-06-21 20:39:34,004 : INFO : EventManager : Event: ======'balldevice_bd_plunger_ball_count_changed'====== Args={'balls': 1}
2021-06-21 20:39:34,005 : INFO : ball_device.bd_trough : Got eject confirm
2021-06-21 20:39:34,005 : INFO : ball_device.bd_trough : Eject successful
2021-06-21 20:39:34,005 : INFO : EventManager : Event: ======'balldevice_bd_trough_ball_eject_success'====== Args={'balls': 1, 'target': <ball_device.bd_plunger>}
2021-06-21 20:39:34,006 : INFO : EventManager : Event: ======'balldevice_bd_trough_ball_count_changed'====== Args={'balls': 2}
2021-06-21 20:39:34,006 : INFO : ball_device.bd_trough : State: idle
2021-06-21 20:39:34,007 : INFO : ball_device.bd_plunger : State: waiting_for_target_ready
2021-06-21 20:39:34,007 : INFO : EventManager : Event: ======'balldevice_bd_plunger_ball_eject_attempt'====== Args={'balls': 1, 'target': <playfield.playfield>, 'source': <ball_device.bd_plunger>, 'mechanical_eject': True, 'num_attempts': 0}
2021-06-21 20:39:34,008 : INFO : ball_device.bd_plunger : State: ejecting
2021-06-21 20:39:34,009 : INFO : ball_device.bd_plunger : Ejecting ball to <playfield.playfield>
2021-06-21 20:39:34,009 : INFO : EventManager : Event: ======'balldevice_bd_plunger_ejecting_ball'====== Args={'balls': 1, 'target': <playfield.playfield>, 'source': <ball_device.bd_plunger>, 'mechanical_eject': True, 'num_attempts': 0}
2021-06-21 20:39:34,011 : INFO : ball_device.bd_plunger : Wait for ball to leave device
2021-06-21 20:40:08,321 : INFO : Machine : Shutting down...
2021-06-21 20:40:08,321 : INFO : EventManager : Event: ======'shutdown'====== Args={}
2021-06-21 20:40:08,330 : INFO : root : MPF run loop ended.
