2021-06-11 14:42:34,149 : INFO : root : Loading config.
2021-06-11 14:42:35,015 : INFO : ConfigProcessor : Config spec file cache created: C:\Users\MEESTE~1\AppData\Local\Temp\config_spec.mpf_cache
2021-06-11 14:42:35,016 : INFO : YamlMultifileConfigLoader : Machine config file #1: config.yaml
2021-06-11 14:42:35,017 : INFO : ConfigProcessor : Loading config from cache: C:\Users\MEESTE~1\AppData\Local\Temp\edf7552f13d07d8f591673b9e5d0af44.mpf_cache
2021-06-11 14:42:35,166 : INFO : ConfigProcessor : Loading config from cache: C:\Users\MEESTE~1\AppData\Local\Temp\63bd49ce226a3af45f02b400f9478364.mpf_cache
2021-06-11 14:42:35,169 : INFO : ConfigProcessor : Loading config from cache: C:\Users\MEESTE~1\AppData\Local\Temp\b16855f32fa15912a0c8dc3278537500.mpf_cache
2021-06-11 14:42:35,170 : INFO : Machine : Mission Pinball Framework Core Engine v0.54.6
2021-06-11 14:42:35,170 : INFO : Machine : Command line arguments: {'no_load_cache': False, 'create_config_cache': True, 'bcp': True, 'configfile': ['config.yaml'], 'force_assets_load': False, 'jsonlogging': False, 'logfile': 'logs\\2021-06-11-14-42-34-mpf-MeesterPieter.log', 'pause': False, 'production': False, 'text_ui': True, 'loglevel': 15, 'consoleloglevel': 20, 'force_platform': 'smart_virtual', 'syslog_address': None, 'mc_file_name': None, 'no_sound': False}
2021-06-11 14:42:35,170 : INFO : Machine : MPF path: c:\mpfenv\lib\site-packages\mpf
2021-06-11 14:42:35,170 : INFO : Machine : Machine path: C:\MissionPinball\P
2021-06-11 14:42:35,170 : INFO : Machine : Platform: win32
2021-06-11 14:42:35,170 : INFO : Machine : Python executable location: c:\mpfenv\scripts\python.exe
2021-06-11 14:42:35,170 : INFO : Machine : Python version: 3.7.8 (64-bit)
2021-06-11 14:42:35,175 : INFO : Machine : Initialise MPF.
2021-06-11 14:42:35,427 : INFO : EventManager : Event: ======'machine_var_credits_string'====== Args={'value': 'FREE PLAY', 'prev_value': None, 'change': True}
2021-06-11 14:42:35,538 : INFO : EventManager : Event: ======'machine_var_player1_score'====== Args={'value': 0, 'prev_value': None, 'change': True}
2021-06-11 14:42:35,538 : INFO : EventManager : Event: ======'machine_var_mpf_version'====== Args={'value': 'MPF v0.54.6', 'prev_value': None, 'change': True}
2021-06-11 14:42:35,538 : INFO : EventManager : Event: ======'machine_var_mpf_extended_version'====== Args={'value': 'MPF v0.54.6, Config version:5, Show version: 5, BCP version:1.1', 'prev_value': None, 'change': True}
2021-06-11 14:42:35,538 : INFO : EventManager : Event: ======'machine_var_python_version'====== Args={'value': '3.7.8', 'prev_value': None, 'change': True}
2021-06-11 14:42:35,539 : INFO : EventManager : Event: ======'machine_var_platform'====== Args={'value': 'Windows-7-6.1.7601-SP1', 'prev_value': None, 'change': True}
2021-06-11 14:42:35,539 : INFO : EventManager : Event: ======'machine_var_platform_system'====== Args={'value': 'Windows', 'prev_value': None, 'change': True}
2021-06-11 14:42:35,539 : INFO : EventManager : Event: ======'machine_var_platform_release'====== Args={'value': '7', 'prev_value': None, 'change': True}
2021-06-11 14:42:35,540 : INFO : EventManager : Event: ======'machine_var_platform_version'====== Args={'value': '6.1.7601', 'prev_value': None, 'change': True}
2021-06-11 14:42:35,540 : INFO : EventManager : Event: ======'machine_var_platform_machine'====== Args={'value': 'AMD64', 'prev_value': None, 'change': True}
2021-06-11 14:42:35,540 : INFO : EventManager : Event: ======'init_phase_1'====== Args={}
2021-06-11 14:42:35,594 : INFO : EventManager : Event: ======'init_phase_2'====== Args={}
2021-06-11 14:42:35,595 : INFO : SwitchController : Found active switch: ('103', <Platform.SmartVirtual>) <switch.s_trough1>
2021-06-11 14:42:35,595 : INFO : SwitchController : Found active switch: ('104', <Platform.SmartVirtual>) <switch.s_trough2>
2021-06-11 14:42:35,596 : INFO : SwitchController : Found active switch: ('105', <Platform.SmartVirtual>) <switch.s_trough3>
2021-06-11 14:42:35,599 : INFO : EventManager : Event: ======'bcp_connection_attempt'====== Args={'name': 'local_display', 'host': 'localhost', 'port': 5050}
2021-06-11 14:42:35,602 : INFO : BCPClientSocket : Connecting BCP to 'local_display' at localhost:5050...
2021-06-11 14:42:37,633 : INFO : BCPClientSocket : Connected BCP to 'local_display' localhost:5050
2021-06-11 14:42:37,634 : INFO : EventManager : Event: ======'bcp_clients_connected'====== Args={}
2021-06-11 14:42:37,650 : INFO : EventManager : Event: ======'machine_var_mc_version'====== Args={'value': 'MPF-MC v0.54.2', 'prev_value': None, 'change': True}
2021-06-11 14:42:37,651 : INFO : EventManager : Event: ======'machine_var_mc_extended_version'====== Args={'value': 'MPF-MC v0.54.2 (config_version=5, BCP v1.1, Requires MPF v0.54.0)', 'prev_value': None, 'change': True}
2021-06-11 14:42:37,655 : INFO : EventManager : Event: ======'machine_var_master_volume'====== Args={'value': 0.5, 'prev_value': None, 'change': True}
2021-06-11 14:42:37,656 : INFO : ball_device.bd_drain : State: idle
2021-06-11 14:42:37,685 : INFO : ball_device.bd_trough : State: idle
2021-06-11 14:42:37,687 : INFO : ball_device.bd_plunger : State: idle
2021-06-11 14:42:37,705 : INFO : EventManager : Event: ======'init_phase_3'====== Args={}
2021-06-11 14:42:37,712 : INFO : EventManager : Event: ======'init_phase_4'====== Args={}
2021-06-11 14:42:37,713 : INFO : BallController : Initial balls found: 3
2021-06-11 14:42:37,716 : INFO : EventManager : Event: ======'machine_var_audits_switches_s_drain'====== Args={'value': 15, 'prev_value': None, 'change': True}
2021-06-11 14:42:37,716 : INFO : EventManager : Event: ======'machine_var_audits_switches_s_flipper_links'====== Args={'value': 23, 'prev_value': None, 'change': True}
2021-06-11 14:42:37,717 : INFO : EventManager : Event: ======'machine_var_audits_switches_s_flipper_rechts'====== Args={'value': 20, 'prev_value': None, 'change': True}
2021-06-11 14:42:37,718 : INFO : EventManager : Event: ======'machine_var_audits_switches_s_foley'====== Args={'value': 23, 'prev_value': None, 'change': True}
2021-06-11 14:42:37,718 : INFO : EventManager : Event: ======'machine_var_audits_switches_s_launch_button'====== Args={'value': 11, 'prev_value': None, 'change': True}
2021-06-11 14:42:37,719 : INFO : EventManager : Event: ======'machine_var_audits_switches_s_plunger'====== Args={'value': 7, 'prev_value': None, 'change': True}
2021-06-11 14:42:37,719 : INFO : EventManager : Event: ======'machine_var_audits_switches_s_start'====== Args={'value': 3, 'prev_value': None, 'change': True}
2021-06-11 14:42:37,720 : INFO : EventManager : Event: ======'machine_var_audits_switches_s_trough1'====== Args={'value': 13, 'prev_value': None, 'change': True}
2021-06-11 14:42:37,721 : INFO : EventManager : Event: ======'machine_var_audits_switches_s_trough2'====== Args={'value': 1, 'prev_value': None, 'change': True}
2021-06-11 14:42:37,721 : INFO : EventManager : Event: ======'machine_var_audits_switches_s_trough3'====== Args={'value': 1, 'prev_value': None, 'change': True}
2021-06-11 14:42:37,722 : INFO : EventManager : Event: ======'machine_var_audits_switches_s_turbo_links'====== Args={'value': 1, 'prev_value': None, 'change': True}
2021-06-11 14:42:37,723 : INFO : EventManager : Event: ======'machine_var_audits_switches_s_turbo_midden'====== Args={'value': 10, 'prev_value': None, 'change': True}
2021-06-11 14:42:37,723 : INFO : EventManager : Event: ======'machine_var_audits_switches_s_turbo_rechts'====== Args={'value': 3, 'prev_value': None, 'change': True}
2021-06-11 14:42:37,724 : INFO : EventManager : Event: ======'machine_var_audits_switches_s_flipper_left'====== Args={'value': 0, 'prev_value': None, 'change': True}
2021-06-11 14:42:37,724 : INFO : EventManager : Event: ======'machine_var_audits_switches_s_flipper_right'====== Args={'value': 0, 'prev_value': None, 'change': True}
2021-06-11 14:42:37,725 : INFO : EventManager : Event: ======'machine_var_audits_switches_s_turbo_left'====== Args={'value': 0, 'prev_value': None, 'change': True}
2021-06-11 14:42:37,726 : INFO : EventManager : Event: ======'machine_var_audits_switches_s_turbo_middle'====== Args={'value': 0, 'prev_value': None, 'change': True}
2021-06-11 14:42:37,726 : INFO : EventManager : Event: ======'machine_var_audits_switches_s_turbo_right'====== Args={'value': 0, 'prev_value': None, 'change': True}
2021-06-11 14:42:37,727 : INFO : EventManager : Event: ======'machine_var_audits_switches_s_vuk_left'====== Args={'value': 0, 'prev_value': None, 'change': True}
2021-06-11 14:42:37,728 : INFO : EventManager : Event: ======'machine_var_audits_switches_s_vuk_right'====== Args={'value': 0, 'prev_value': None, 'change': True}
2021-06-11 14:42:37,729 : INFO : EventManager : Event: ======'machine_var_audits_switches_s_kickout'====== Args={'value': 0, 'prev_value': None, 'change': True}
2021-06-11 14:42:37,729 : INFO : EventManager : Event: ======'machine_var_audits_switches_s_kickback'====== Args={'value': 0, 'prev_value': None, 'change': True}
2021-06-11 14:42:37,730 : INFO : EventManager : Event: ======'machine_var_audits_switches_s_droptarget_left_1'====== Args={'value': 0, 'prev_value': None, 'change': True}
2021-06-11 14:42:37,730 : INFO : EventManager : Event: ======'machine_var_audits_switches_s_droptarget_left_2'====== Args={'value': 0, 'prev_value': None, 'change': True}
2021-06-11 14:42:37,731 : INFO : EventManager : Event: ======'machine_var_audits_switches_s_droptarget_left_3'====== Args={'value': 0, 'prev_value': None, 'change': True}
2021-06-11 14:42:37,732 : INFO : EventManager : Event: ======'machine_var_audits_switches_s_droptarget_middle_1'====== Args={'value': 0, 'prev_value': None, 'change': True}
2021-06-11 14:42:37,733 : INFO : EventManager : Event: ======'machine_var_audits_switches_s_droptarget_middle_2'====== Args={'value': 0, 'prev_value': None, 'change': True}
2021-06-11 14:42:37,734 : INFO : EventManager : Event: ======'machine_var_audits_switches_s_droptarget_middle_3'====== Args={'value': 0, 'prev_value': None, 'change': True}
2021-06-11 14:42:37,735 : INFO : EventManager : Event: ======'machine_var_audits_switches_s_droptarget_right_1'====== Args={'value': 0, 'prev_value': None, 'change': True}
2021-06-11 14:42:37,735 : INFO : EventManager : Event: ======'machine_var_audits_switches_s_droptarget_right_2'====== Args={'value': 0, 'prev_value': None, 'change': True}
2021-06-11 14:42:37,736 : INFO : EventManager : Event: ======'machine_var_audits_switches_s_droptarget_right_3'====== Args={'value': 0, 'prev_value': None, 'change': True}
2021-06-11 14:42:37,737 : INFO : EventManager : Event: ======'machine_var_audits_switches_s_droptarget_right_4'====== Args={'value': 0, 'prev_value': None, 'change': True}
2021-06-11 14:42:37,738 : INFO : EventManager : Event: ======'machine_var_audits_switches_s_droptarget_right_5'====== Args={'value': 0, 'prev_value': None, 'change': True}
2021-06-11 14:42:37,739 : INFO : EventManager : Event: ======'machine_var_audits_switches_s_slingshot_left'====== Args={'value': 0, 'prev_value': None, 'change': True}
2021-06-11 14:42:37,740 : INFO : EventManager : Event: ======'machine_var_audits_switches_s_slingshot_right'====== Args={'value': 0, 'prev_value': None, 'change': True}
2021-06-11 14:42:37,740 : INFO : EventManager : Event: ======'machine_var_audits_switches_s_spinner'====== Args={'value': 0, 'prev_value': None, 'change': True}
2021-06-11 14:42:37,741 : INFO : EventManager : Event: ======'machine_var_audits_switches_s_cop_left'====== Args={'value': 0, 'prev_value': None, 'change': True}
2021-06-11 14:42:37,742 : INFO : EventManager : Event: ======'machine_var_audits_switches_s_cop_middle'====== Args={'value': 0, 'prev_value': None, 'change': True}
2021-06-11 14:42:37,743 : INFO : EventManager : Event: ======'machine_var_audits_switches_s_cop_right'====== Args={'value': 0, 'prev_value': None, 'change': True}
2021-06-11 14:42:37,744 : INFO : EventManager : Event: ======'init_phase_5'====== Args={}
2021-06-11 14:42:37,767 : INFO : EventManager : Event: ======'init_done'====== Args={}
2021-06-11 14:42:37,767 : INFO : EventManager : Event: ======'machine_reset_phase_1'====== Args={}
2021-06-11 14:42:37,772 : INFO : EventManager : Event: ======'slide_welcome_slide_removed'====== Args={'_from_bcp': True}
2021-06-11 14:42:37,778 : INFO : EventManager : Event: ======'slide_welcome_slide_created'====== Args={'_from_bcp': True}
2021-06-11 14:42:37,780 : INFO : EventManager : Event: ======'machine_reset_phase_2'====== Args={}
2021-06-11 14:42:37,780 : INFO : EventManager : Event: ======'machine_reset_phase_3'====== Args={}
2021-06-11 14:42:37,781 : INFO : EventManager : Event: ======'reset_complete'====== Args={}
2021-06-11 14:42:37,781 : INFO : EventManager : Event: ======'slide_welcome_slide_active'====== Args={'_from_bcp': True}
2021-06-11 14:42:37,781 : INFO : EventManager : Event: ======'mode_attract_will_start'====== Args={}
2021-06-11 14:42:37,782 : INFO : EventManager : Event: ======'mode_attract_starting'====== Args={}
2021-06-11 14:42:37,782 : INFO : Mode.attract : Started. Priority: 10
2021-06-11 14:42:37,782 : INFO : EventManager : Event: ======'modes_active_modes_changed'====== Args={}
2021-06-11 14:42:37,782 : INFO : EventManager : Event: ======'mode_attract_started'====== Args={}
2021-06-11 14:42:37,783 : INFO : EventManager : Event: ======'collecting_balls_complete'====== Args={}
2021-06-11 14:42:37,821 : INFO : EventManager : Event: ======'slide_attract_started_created'====== Args={'_from_bcp': True}
2021-06-11 14:42:37,821 : INFO : EventManager : Event: ======'slide_attract_started_active'====== Args={'_from_bcp': True}
2021-06-11 14:42:37,821 : INFO : Machine : Starting the main run loop.
2021-06-11 14:42:37,822 : INFO : BcpServer : New client connected.
2021-06-11 14:42:43,308 : INFO : Machine : Shutting down...
2021-06-11 14:42:43,308 : INFO : EventManager : Event: ======'shutdown'====== Args={}
2021-06-11 14:42:43,314 : INFO : root : MPF run loop ended.
