2021-06-11 16:25:00,686 : kivy : Factory: 184 symbols loaded
2021-06-11 16:25:00,935 : kivy : ImageLoaderFFPy: Using ffpyplayer 4.3.1
2021-06-11 16:25:00,937 : kivy : Image: Providers: img_tex, img_dds, img_sdl2, img_pil, img_ffpyplayer, img_gif 
2021-06-11 16:25:01,019 : kivy : VideoGstplayer: Using Gstreamer 1.16.0.0
2021-06-11 16:25:01,019 : kivy : Video: Provider: gstplayer
2021-06-11 16:25:01,116 : kivy : Loading MPF-MC controller
2021-06-11 16:25:01,892 : ConfigProcessor : Config spec file cache created: C:\Users\MEESTE~1\AppData\Local\Temp\config_spec.mpf_cache
2021-06-11 16:25:01,893 : YamlMultifileConfigLoader : Machine config file #1: config
2021-06-11 16:25:01,893 : ConfigProcessor : Config file in cache changed: C:\MissionPinball\P\config\config
2021-06-11 16:25:01,893 : ConfigProcessor : Loading config from file c:\mpfenv\lib\site-packages\mpfmc\mcconfig.yaml.
2021-06-11 16:25:01,971 : ConfigProcessor : Loading config: c:\mpfenv\lib\site-packages\mpfmc\mcconfig.yaml
2021-06-11 16:25:01,972 : ConfigProcessor : Loading config from file C:\MissionPinball\P\config\config.
2021-06-11 16:25:02,061 : ConfigProcessor : Loading config: C:\MissionPinball\P\config\config
2021-06-11 16:25:02,064 : ConfigProcessor : Config file cache created: C:\Users\MEESTE~1\AppData\Local\Temp\7378a4f6b33991d5f3fd6d3ac4fb5d99.mpf_cache
2021-06-11 16:25:02,065 : ConfigProcessor : Loading config from cache: C:\Users\MEESTE~1\AppData\Local\Temp\63bd49ce226a3af45f02b400f9478364.mpf_cache
2021-06-11 16:25:02,065 : ConfigProcessor : Loading config from cache: C:\Users\MEESTE~1\AppData\Local\Temp\b16855f32fa15912a0c8dc3278537500.mpf_cache
2021-06-11 16:25:02,066 : ConfigProcessor : Loading config from cache: C:\Users\MEESTE~1\AppData\Local\Temp\eae5e374fdab94bc8ed9a0f08718cef8.mpf_cache
2021-06-11 16:25:02,067 : mpfmc : Mission Pinball Framework Media Controller v0.54.2
2021-06-11 16:25:02,067 : mpfmc : Mission Pinball Framework Game Engine v0.54.6
2021-06-11 16:25:02,067 : mpfmc : Machine path: C:\MissionPinball\P
2021-06-11 16:25:02,067 : mpfmc : Starting clock at 60.0Hz
2021-06-11 16:25:02,091 : kivy : Text: Provider: sdl2
2021-06-11 16:25:02,172 : kivy : Window: Provider: sdl2
2021-06-11 16:25:02,599 : kivy : GL: Using the "OpenGL" graphics system
2021-06-11 16:25:02,602 : kivy : GL: GLEW initialization succeeded
2021-06-11 16:25:02,602 : kivy : GL: Backend used <glew>
2021-06-11 16:25:02,602 : kivy : GL: OpenGL version <b'4.5.0 NVIDIA 377.11'>
2021-06-11 16:25:02,603 : kivy : GL: OpenGL vendor <b'NVIDIA Corporation'>
2021-06-11 16:25:02,603 : kivy : GL: OpenGL renderer <b'Quadro 1000M/PCIe/SSE2'>
2021-06-11 16:25:02,603 : kivy : GL: OpenGL parsed version: 4, 5
2021-06-11 16:25:02,603 : kivy : GL: Shading version <b'4.50 NVIDIA'>
2021-06-11 16:25:02,603 : kivy : GL: Texture max size <16384>
2021-06-11 16:25:02,603 : kivy : GL: Texture max units <32>
2021-06-11 16:25:02,628 : kivy : Window: auto add sdl2 input provider
2021-06-11 16:25:02,629 : kivy : Window: virtual keyboard not allowed, single mode, not docked
2021-06-11 16:25:02,645 : SoundSystem : SoundSystem: Using default 'sound_system' settings
2021-06-11 16:25:02,980 : AudioInterface : Initialized
2021-06-11 16:25:02,980 : SoundSystem : No audio tracks are specified in your machine config file. a track named 'default' has been created.
2021-06-11 16:25:02,984 : kivy : Base: Start application main loop
2021-06-11 16:25:02,984 : EventManager : Event: ======'display_window_initialized'====== Args={}
2021-06-11 16:25:03,000 : mpfmc : Display: Setting 'window' as default display
2021-06-11 16:25:03,008 : mpfmc : ASPECT RATIO MISMATCH: The on-screen window is not the same aspect ratio as the display called 'window'. The logical display will be scaled from 1024x256 to the window size 800x600, and a black bar will make up the difference
2021-06-11 16:25:03,009 : EventManager : Event: ======'displays_initialized'====== Args={}
2021-06-11 16:25:03,011 : EventManager : Event: ======'slide_window_blank_created'====== Args={}
2021-06-11 16:25:03,011 : EventManager : Event: ======'display_window_ready'====== Args={}
2021-06-11 16:25:03,031 : EventManager : Event: ======'init_phase_1'====== Args={}
2021-06-11 16:25:03,039 : EventManager : Event: ======'mc_ready'====== Args={}
2021-06-11 16:25:03,039 : EventManager : Event: ======'init_phase_2'====== Args={}
2021-06-11 16:25:03,043 : EventManager : Event: ======'init_phase_3'====== Args={}
2021-06-11 16:25:03,045 : EventManager : Event: ======'init_phase_4'====== Args={}
2021-06-11 16:25:03,045 : EventManager : Event: ======'init_phase_5'====== Args={}
2021-06-11 16:25:03,045 : EventManager : Event: ======'init_done'====== Args={}
2021-06-11 16:25:03,046 : MPF-MC BCP Server : Starting up on localhost port 5050
2021-06-11 16:25:03,051 : MPF-MC BCP Server : Waiting for a connection...
2021-06-11 16:25:03,051 : mpfmc : SlidePlayer: Play called with settings={'slides': {welcome_slide-None-None: {'priority': None, 'target': None, 'background_color': [0.0, 0.0, 0.0, 1.0], 'show': True, 'force': False, 'expire': None, 'slide': None, 'tokens': {}, 'action': 'play', 'transition': None, 'transition_out': None}}}
2021-06-11 16:25:03,059 : kivy : GL: NPOT texture support is available
2021-06-11 16:25:03,062 : EventManager : Event: ======'slide_welcome_slide_created'====== Args={}
2021-06-11 16:25:03,072 : EventManager : Event: ======'slide_welcome_slide_active'====== Args={}
2021-06-11 16:25:03,078 : EventManager : Event: ======'client_disconnected'====== Args={'host': '127.0.0.1', 'port': 5050}
2021-06-11 16:25:08,994 : kivy : WindowSDL: exiting mainloop and closing.
2021-06-11 16:25:09,144 : kivy : Base: Leaving application in progress...
2021-06-11 16:25:09,145 : mpfmc : Stopping...
2021-06-11 16:25:09,145 : EventManager : Event: ======'shutdown'====== Args={}
2021-06-11 16:25:09,145 : mpfmc : Loop rate 79.2 Hz
2021-06-11 16:25:09,145 : kivy : MC run loop ended.
2021-06-11 16:25:09,146 : kivy : Stopping child threads... (3 remaining)
2021-06-11 16:25:10,127 : MPF-MC BCP Server : Stopping BCP listener thread
2021-06-11 16:25:10,148 : MPF-MC BCP Server : Stopping BCP sending thread
2021-06-11 16:25:10,246 : kivy : All child threads stopped.
