2021-07-05 16:44:31,624 : kivy : Factory: 184 symbols loaded
2021-07-05 16:44:31,909 : kivy : ImageLoaderFFPy: Using ffpyplayer 4.3.1
2021-07-05 16:44:31,911 : kivy : Image: Providers: img_tex, img_dds, img_sdl2, img_pil, img_ffpyplayer, img_gif 
2021-07-05 16:44:32,006 : kivy : VideoGstplayer: Using Gstreamer 1.16.0.0
2021-07-05 16:44:32,006 : kivy : Video: Provider: gstplayer
2021-07-05 16:44:32,142 : kivy : Loading MPF-MC controller
2021-07-05 16:44:32,972 : ConfigProcessor : Config spec file cache created: C:\Users\MEESTE~1\AppData\Local\Temp\config_spec.mpf_cache
2021-07-05 16:44:32,972 : YamlMultifileConfigLoader : Machine config file #1: config
2021-07-05 16:44:32,973 : ConfigProcessor : Config file in cache changed: C:\MissionPinball\P\config\config
2021-07-05 16:44:32,973 : ConfigProcessor : Loading config from file c:\mpfenv\lib\site-packages\mpfmc\mcconfig.yaml.
2021-07-05 16:44:33,051 : ConfigProcessor : Loading config: c:\mpfenv\lib\site-packages\mpfmc\mcconfig.yaml
2021-07-05 16:44:33,052 : ConfigProcessor : Loading config from file C:\MissionPinball\P\config\config.
2021-07-05 16:44:33,067 : ConfigProcessor : Loading config: C:\MissionPinball\P\config\config
2021-07-05 16:44:33,203 : ConfigProcessor : Loading config: C:\MissionPinball\P\config\hardware.yaml
2021-07-05 16:44:33,208 : ConfigProcessor : Config file cache created: C:\Users\MEESTE~1\AppData\Local\Temp\7378a4f6b33991d5f3fd6d3ac4fb5d99.mpf_cache
2021-07-05 16:44:33,211 : ConfigProcessor : Loading config from cache: C:\Users\MEESTE~1\AppData\Local\Temp\ba565b152e3a424c60da0fc20421189a.mpf_cache
2021-07-05 16:44:33,212 : ConfigProcessor : Loading config from cache: C:\Users\MEESTE~1\AppData\Local\Temp\b16855f32fa15912a0c8dc3278537500.mpf_cache
2021-07-05 16:44:33,213 : ConfigProcessor : Loading config from cache: C:\Users\MEESTE~1\AppData\Local\Temp\eae5e374fdab94bc8ed9a0f08718cef8.mpf_cache
2021-07-05 16:44:33,213 : mpfmc : Mission Pinball Framework Media Controller v0.54.2
2021-07-05 16:44:33,213 : mpfmc : Mission Pinball Framework Game Engine v0.54.6
2021-07-05 16:44:33,214 : mpfmc : Machine path: C:\MissionPinball\P
2021-07-05 16:44:33,214 : mpfmc : Starting clock at 60.0Hz
2021-07-05 16:44:33,240 : kivy : Text: Provider: sdl2
2021-07-05 16:44:33,323 : kivy : Window: Provider: sdl2
2021-07-05 16:44:34,088 : kivy : GL: Using the "OpenGL" graphics system
2021-07-05 16:44:34,090 : kivy : GL: GLEW initialization succeeded
2021-07-05 16:44:34,091 : kivy : GL: Backend used <glew>
2021-07-05 16:44:34,091 : kivy : GL: OpenGL version <b'4.5.0 NVIDIA 377.11'>
2021-07-05 16:44:34,091 : kivy : GL: OpenGL vendor <b'NVIDIA Corporation'>
2021-07-05 16:44:34,091 : kivy : GL: OpenGL renderer <b'Quadro 1000M/PCIe/SSE2'>
2021-07-05 16:44:34,091 : kivy : GL: OpenGL parsed version: 4, 5
2021-07-05 16:44:34,091 : kivy : GL: Shading version <b'4.50 NVIDIA'>
2021-07-05 16:44:34,092 : kivy : GL: Texture max size <16384>
2021-07-05 16:44:34,092 : kivy : GL: Texture max units <32>
2021-07-05 16:44:34,126 : kivy : Window: auto add sdl2 input provider
2021-07-05 16:44:34,126 : kivy : Window: virtual keyboard not allowed, single mode, not docked
2021-07-05 16:44:34,593 : AudioInterface : Initialized
2021-07-05 16:44:34,598 : kivy : Base: Start application main loop
2021-07-05 16:44:34,599 : EventManager : Event: ======'display_window_initialized'====== Args={}
2021-07-05 16:44:34,635 : mpfmc : Display: Setting 'window' as default display
2021-07-05 16:44:34,648 : mpfmc : ASPECT RATIO MISMATCH: The on-screen window is not the same aspect ratio as the display called 'window'. The logical display will be scaled from 1024x256 to the window size 800x600, and a black bar will make up the difference
2021-07-05 16:44:34,648 : EventManager : Event: ======'displays_initialized'====== Args={}
2021-07-05 16:44:34,649 : EventManager : Event: ======'slide_window_blank_created'====== Args={}
2021-07-05 16:44:34,650 : EventManager : Event: ======'display_window_ready'====== Args={}
2021-07-05 16:44:34,669 : EventManager : Event: ======'init_phase_1'====== Args={}
2021-07-05 16:44:34,680 : EventManager : Event: ======'mc_ready'====== Args={}
2021-07-05 16:44:34,680 : EventManager : Event: ======'init_phase_2'====== Args={}
2021-07-05 16:44:34,686 : EventManager : Event: ======'init_phase_3'====== Args={}
2021-07-05 16:44:34,686 : AssetManager : Registering Asset: kiss, File: kiss.jpg, Default Group: default, Final Config: {'load': 'preload', 'file': 'C:\\MissionPinball\\P\\images\\kiss.jpg'}
2021-07-05 16:44:34,686 : AssetManager : Registering Asset: logo, File: logo.png, Default Group: default, Final Config: {'load': 'preload', 'file': 'C:\\MissionPinball\\P\\images\\logo.png'}
2021-07-05 16:44:34,686 : AssetManager : Registering Asset: wonderworld, File: wonderworld.png, Default Group: default, Final Config: {'load': 'preload', 'file': 'C:\\MissionPinball\\P\\images\\wonderworld.png'}
2021-07-05 16:44:34,687 : AssetManager : Registering Asset: wonderworld2, File: wonderworld2.png, Default Group: default, Final Config: {'load': 'preload', 'file': 'C:\\MissionPinball\\P\\images\\New folder\\wonderworld2.png'}
2021-07-05 16:44:34,688 : AssetManager : Registering Asset: attract_music, File: axel_f_long.wav, Default Group: music, Final Config: {'load': 'on_demand', 'track': 'music', 'file': 'C:\\MissionPinball\\P\\sounds\\music\\axel_f_long.wav'}
2021-07-05 16:44:34,688 : AssetManager : Registering Asset: base_music, File: the_heat_is_on.wav, Default Group: music, Final Config: {'load': 'on_demand', 'track': 'music', 'file': 'C:\\MissionPinball\\P\\sounds\\music\\the_heat_is_on.wav'}
2021-07-05 16:44:34,688 : AssetManager : Registering Asset: effect, File: effect.wav, Default Group: sfx, Final Config: {'load': 'on_demand', 'track': 'sfx', 'file': 'C:\\MissionPinball\\P\\sounds\\sfx\\effect.wav'}
2021-07-05 16:44:34,689 : AssetManager : Registering Asset: effect2, File: effect2.wav, Default Group: sfx, Final Config: {'load': 'on_demand', 'track': 'sfx', 'file': 'C:\\MissionPinball\\P\\sounds\\sfx\\effect2.wav'}
2021-07-05 16:44:34,689 : AssetManager : Registering Asset: hit, File: hit.wav, Default Group: sfx, Final Config: {'load': 'on_demand', 'track': 'sfx', 'file': 'C:\\MissionPinball\\P\\sounds\\sfx\\hit.wav'}
2021-07-05 16:44:34,689 : AssetManager : Registering Asset: i_lost_voice, File: i_lost.wav, Default Group: voice, Final Config: {'load': 'on_demand', 'track': 'voice', 'file': 'C:\\MissionPinball\\P\\sounds\\voice\\i_lost.wav'}
2021-07-05 16:44:34,689 : AssetManager : Registering Asset: i_need_a_lot_voice, File: i_need_a_lot.wav, Default Group: voice, Final Config: {'load': 'on_demand', 'track': 'voice', 'file': 'C:\\MissionPinball\\P\\sounds\\voice\\i_need_a_lot.wav'}
2021-07-05 16:44:34,690 : AssetManager : Registering Asset: laugh_4_voice, File: laugh_4.wav, Default Group: voice, Final Config: {'load': 'on_demand', 'track': 'voice', 'file': 'C:\\MissionPinball\\P\\sounds\\voice\\laugh_4.wav'}
2021-07-05 16:44:34,690 : AssetManager : Registering Asset: shoot_me_voice, File: shoot_me.wav, Default Group: voice, Final Config: {'load': 'on_demand', 'track': 'voice', 'file': 'C:\\MissionPinball\\P\\sounds\\voice\\shoot_me.wav'}
2021-07-05 16:44:34,693 : EventManager : Event: ======'init_phase_4'====== Args={}
2021-07-05 16:44:34,693 : EventManager : Event: ======'init_phase_5'====== Args={}
2021-07-05 16:44:34,715 : kivy : GL: NPOT texture support is available
2021-07-05 16:44:34,717 : EventManager : Event: ======'loading_assets'====== Args={'total': 4, 'loaded': 1, 'remaining': 3, 'percent': 25}
2021-07-05 16:44:34,717 : AssetManager : Loading assets: 1/4 (25%)
2021-07-05 16:44:34,726 : kivy : GL: Unpack subimage support is available
2021-07-05 16:44:34,727 : EventManager : Event: ======'loading_assets'====== Args={'total': 4, 'loaded': 4, 'remaining': 0, 'percent': 100}
2021-07-05 16:44:34,728 : AssetManager : Asset loading took: 0.13300776481628418
2021-07-05 16:44:34,728 : EventManager : Event: ======'asset_loading_complete'====== Args={}
2021-07-05 16:44:34,728 : AssetManager : Loading assets: 4/4 (100%)
2021-07-05 16:44:34,728 : EventManager : Event: ======'init_done'====== Args={}
2021-07-05 16:44:34,728 : MPF-MC BCP Server : Starting up on localhost port 5050
2021-07-05 16:44:34,736 : MPF-MC BCP Server : Waiting for a connection...
2021-07-05 16:44:34,736 : mpfmc : SlidePlayer: Play called with settings={'slides': {welcome_slide-None-None: {'priority': None, 'target': None, 'background_color': [0.0, 0.0, 0.0, 1.0], 'show': True, 'force': False, 'expire': None, 'slide': None, 'tokens': {}, 'action': 'play', 'transition': None, 'transition_out': None}}}
2021-07-05 16:44:34,747 : EventManager : Event: ======'slide_welcome_slide_created'====== Args={}
2021-07-05 16:44:34,749 : EventManager : Event: ======'slide_welcome_slide_active'====== Args={}
2021-07-05 16:44:34,758 : EventManager : Event: ======'client_disconnected'====== Args={'host': '127.0.0.1', 'port': 5050}
2021-07-05 16:44:35,620 : MPF-MC BCP Server : Received connection from: 127.0.0.1:58486
2021-07-05 16:44:35,622 : EventManager : Event: ======'client_connected'====== Args={'host': '127.0.0.1', 'port': 58486}
2021-07-05 16:44:35,647 : EventManager : Event: ======'machine_var_credits_string'====== Args={'value': 'FREE PLAY', 'prev_value': None, 'change': True}
2021-07-05 16:44:35,647 : EventManager : Event: ======'machine_var_player1_score'====== Args={'value': 30, 'prev_value': None, 'change': True}
2021-07-05 16:44:35,647 : EventManager : Event: ======'machine_var_mpf_version'====== Args={'value': 'MPF v0.54.6', 'prev_value': None, 'change': True}
2021-07-05 16:44:35,647 : EventManager : Event: ======'machine_var_mpf_extended_version'====== Args={'value': 'MPF v0.54.6, Config version:5, Show version: 5, BCP version:1.1', 'prev_value': None, 'change': True}
2021-07-05 16:44:35,647 : EventManager : Event: ======'machine_var_python_version'====== Args={'value': '3.7.8', 'prev_value': None, 'change': True}
2021-07-05 16:44:35,648 : EventManager : Event: ======'machine_var_platform'====== Args={'value': 'Windows-7-6.1.7601-SP1', 'prev_value': None, 'change': True}
2021-07-05 16:44:35,648 : EventManager : Event: ======'machine_var_platform_system'====== Args={'value': 'Windows', 'prev_value': None, 'change': True}
2021-07-05 16:44:35,648 : EventManager : Event: ======'machine_var_platform_release'====== Args={'value': '7', 'prev_value': None, 'change': True}
2021-07-05 16:44:35,648 : EventManager : Event: ======'machine_var_platform_version'====== Args={'value': '6.1.7601', 'prev_value': None, 'change': True}
2021-07-05 16:44:35,648 : EventManager : Event: ======'machine_var_platform_machine'====== Args={'value': 'AMD64', 'prev_value': None, 'change': True}
2021-07-05 16:44:35,648 : EventManager : Event: ======'machine_var_mc_version'====== Args={'value': 'MPF-MC v0.54.2', 'prev_value': None, 'change': True}
2021-07-05 16:44:35,649 : EventManager : Event: ======'machine_var_mc_extended_version'====== Args={'value': 'MPF-MC v0.54.2 (config_version=5, BCP v1.1, Requires MPF v0.54.0)', 'prev_value': None, 'change': True}
2021-07-05 16:44:35,649 : EventManager : Event: ======'machine_var_master_volume'====== Args={'value': 0.75, 'prev_value': None, 'change': True}
2021-07-05 16:44:35,743 : EventManager : Event: ======'machine_var_audits_shots_shot_vuk_left'====== Args={'value': 160, 'prev_value': None, 'change': True}
2021-07-05 16:44:35,743 : EventManager : Event: ======'machine_var_audits_switches_s_captive'====== Args={'value': 1, 'prev_value': None, 'change': True}
2021-07-05 16:44:35,743 : EventManager : Event: ======'machine_var_audits_switches_s_cop_left'====== Args={'value': 1, 'prev_value': None, 'change': True}
2021-07-05 16:44:35,743 : EventManager : Event: ======'machine_var_audits_switches_s_cop_middle'====== Args={'value': 1, 'prev_value': None, 'change': True}
2021-07-05 16:44:35,744 : EventManager : Event: ======'machine_var_audits_switches_s_cop_right'====== Args={'value': 1, 'prev_value': None, 'change': True}
2021-07-05 16:44:35,744 : EventManager : Event: ======'machine_var_audits_switches_s_drain'====== Args={'value': 45, 'prev_value': None, 'change': True}
2021-07-05 16:44:35,744 : EventManager : Event: ======'machine_var_audits_switches_s_droptarget_left_1'====== Args={'value': 1, 'prev_value': None, 'change': True}
2021-07-05 16:44:35,744 : EventManager : Event: ======'machine_var_audits_switches_s_droptarget_left_2'====== Args={'value': 1, 'prev_value': None, 'change': True}
2021-07-05 16:44:35,745 : EventManager : Event: ======'machine_var_audits_switches_s_droptarget_left_3'====== Args={'value': 2, 'prev_value': None, 'change': True}
2021-07-05 16:44:35,745 : EventManager : Event: ======'machine_var_audits_switches_s_droptarget_middle_1'====== Args={'value': 0, 'prev_value': None, 'change': True}
2021-07-05 16:44:35,745 : EventManager : Event: ======'machine_var_audits_switches_s_droptarget_middle_2'====== Args={'value': 0, 'prev_value': None, 'change': True}
2021-07-05 16:44:35,745 : EventManager : Event: ======'machine_var_audits_switches_s_droptarget_middle_3'====== Args={'value': 0, 'prev_value': None, 'change': True}
2021-07-05 16:44:35,745 : EventManager : Event: ======'machine_var_audits_switches_s_droptarget_right_1'====== Args={'value': 1, 'prev_value': None, 'change': True}
2021-07-05 16:44:35,746 : EventManager : Event: ======'machine_var_audits_switches_s_droptarget_right_2'====== Args={'value': 3, 'prev_value': None, 'change': True}
2021-07-05 16:44:35,746 : EventManager : Event: ======'machine_var_audits_switches_s_droptarget_right_3'====== Args={'value': 1, 'prev_value': None, 'change': True}
2021-07-05 16:44:35,746 : EventManager : Event: ======'machine_var_audits_switches_s_droptarget_right_4'====== Args={'value': 1, 'prev_value': None, 'change': True}
2021-07-05 16:44:35,746 : EventManager : Event: ======'machine_var_audits_switches_s_droptarget_right_5'====== Args={'value': 2, 'prev_value': None, 'change': True}
2021-07-05 16:44:35,746 : EventManager : Event: ======'machine_var_audits_switches_s_flipper_lane_left'====== Args={'value': 0, 'prev_value': None, 'change': True}
2021-07-05 16:44:35,747 : EventManager : Event: ======'machine_var_audits_switches_s_flipper_lane_right'====== Args={'value': 0, 'prev_value': None, 'change': True}
2021-07-05 16:44:35,747 : EventManager : Event: ======'machine_var_audits_switches_s_flipper_left'====== Args={'value': 0, 'prev_value': None, 'change': True}
2021-07-05 16:44:35,747 : EventManager : Event: ======'machine_var_audits_switches_s_flipper_links'====== Args={'value': 23, 'prev_value': None, 'change': True}
2021-07-05 16:44:35,747 : EventManager : Event: ======'machine_var_audits_switches_s_flipper_rechts'====== Args={'value': 20, 'prev_value': None, 'change': True}
2021-07-05 16:44:35,747 : EventManager : Event: ======'machine_var_audits_switches_s_flipper_right'====== Args={'value': 8, 'prev_value': None, 'change': True}
2021-07-05 16:44:35,748 : EventManager : Event: ======'machine_var_audits_switches_s_foley'====== Args={'value': 167, 'prev_value': None, 'change': True}
2021-07-05 16:44:35,755 : EventManager : Event: ======'machine_var_audits_switches_s_inlane_left'====== Args={'value': 1, 'prev_value': None, 'change': True}
2021-07-05 16:44:35,755 : EventManager : Event: ======'machine_var_audits_switches_s_inlane_right'====== Args={'value': 7, 'prev_value': None, 'change': True}
2021-07-05 16:44:35,755 : EventManager : Event: ======'machine_var_audits_switches_s_kickback'====== Args={'value': 1, 'prev_value': None, 'change': True}
2021-07-05 16:44:35,755 : EventManager : Event: ======'machine_var_audits_switches_s_kickout'====== Args={'value': 1, 'prev_value': None, 'change': True}
2021-07-05 16:44:35,756 : EventManager : Event: ======'machine_var_audits_switches_s_launch_button'====== Args={'value': 57, 'prev_value': None, 'change': True}
2021-07-05 16:44:35,756 : EventManager : Event: ======'machine_var_audits_switches_s_outlane_right'====== Args={'value': 35, 'prev_value': None, 'change': True}
2021-07-05 16:44:35,756 : EventManager : Event: ======'machine_var_audits_switches_s_plunger'====== Args={'value': 121, 'prev_value': None, 'change': True}
2021-07-05 16:44:35,756 : EventManager : Event: ======'machine_var_audits_switches_s_ramp_left'====== Args={'value': 2, 'prev_value': None, 'change': True}
2021-07-05 16:44:35,757 : EventManager : Event: ======'machine_var_audits_switches_s_slingshot_left'====== Args={'value': 0, 'prev_value': None, 'change': True}
2021-07-05 16:44:35,757 : EventManager : Event: ======'machine_var_audits_switches_s_slingshot_right'====== Args={'value': 8, 'prev_value': None, 'change': True}
2021-07-05 16:44:35,757 : EventManager : Event: ======'machine_var_audits_switches_s_spinner'====== Args={'value': 12, 'prev_value': None, 'change': True}
2021-07-05 16:44:35,757 : EventManager : Event: ======'machine_var_audits_switches_s_start'====== Args={'value': 27, 'prev_value': None, 'change': True}
2021-07-05 16:44:35,757 : EventManager : Event: ======'machine_var_audits_switches_s_trough1'====== Args={'value': 58, 'prev_value': None, 'change': True}
2021-07-05 16:44:35,767 : EventManager : Event: ======'machine_var_audits_switches_s_trough2'====== Args={'value': 8, 'prev_value': None, 'change': True}
2021-07-05 16:44:35,767 : EventManager : Event: ======'machine_var_audits_switches_s_trough3'====== Args={'value': 2, 'prev_value': None, 'change': True}
2021-07-05 16:44:35,767 : EventManager : Event: ======'machine_var_audits_switches_s_turbo_left'====== Args={'value': 5, 'prev_value': None, 'change': True}
2021-07-05 16:44:35,767 : EventManager : Event: ======'machine_var_audits_switches_s_turbo_links'====== Args={'value': 1, 'prev_value': None, 'change': True}
2021-07-05 16:44:35,767 : EventManager : Event: ======'machine_var_audits_switches_s_turbo_midden'====== Args={'value': 10, 'prev_value': None, 'change': True}
2021-07-05 16:44:35,768 : EventManager : Event: ======'machine_var_audits_switches_s_turbo_middle'====== Args={'value': 3, 'prev_value': None, 'change': True}
2021-07-05 16:44:35,768 : EventManager : Event: ======'machine_var_audits_switches_s_turbo_rechts'====== Args={'value': 3, 'prev_value': None, 'change': True}
2021-07-05 16:44:35,768 : EventManager : Event: ======'machine_var_audits_switches_s_turbo_right'====== Args={'value': 7, 'prev_value': None, 'change': True}
2021-07-05 16:44:35,768 : EventManager : Event: ======'machine_var_audits_switches_s_vuk_left'====== Args={'value': 160, 'prev_value': None, 'change': True}
2021-07-05 16:44:35,768 : EventManager : Event: ======'machine_var_audits_switches_s_vuk_right'====== Args={'value': 3, 'prev_value': None, 'change': True}
2021-07-05 16:44:35,803 : EventManager : Event: ======'slides_play'====== Args={'settings': {'welcome_slide': {'target': None, 'background_color': [0.0, 0.0, 0.0, 1.0], 'priority': None, 'show': True, 'force': False, 'expire': None, 'slide': None, 'tokens': {}, 'action': 'play'}}, 'context': '_global', 'calling_context': 'init_done', 'priority': 0}
2021-07-05 16:44:35,803 : EventManager : Event: ======'mc_reset_phase_1'====== Args={}
2021-07-05 16:44:35,803 : mpfmc : SlidePlayer: Play called with settings={'welcome_slide': {'target': None, 'background_color': [0.0, 0.0, 0.0, 1.0], 'priority': None, 'show': True, 'force': False, 'expire': None, 'slide': None, 'tokens': {}, 'action': 'play'}}
2021-07-05 16:44:35,804 : EventManager : Event: ======'slide_welcome_slide_removed'====== Args={}
2021-07-05 16:44:35,809 : EventManager : Event: ======'slide_welcome_slide_created'====== Args={}
2021-07-05 16:44:35,810 : EventManager : Event: ======'mc_reset_phase_2'====== Args={}
2021-07-05 16:44:35,810 : EventManager : Event: ======'mc_reset_phase_3'====== Args={}
2021-07-05 16:44:35,810 : EventManager : Event: ======'mc_reset_complete'====== Args={}
2021-07-05 16:44:35,811 : EventManager : Event: ======'slide_welcome_slide_active'====== Args={}
2021-07-05 16:44:35,817 : EventManager : Event: ======'slides_play'====== Args={'settings': {'awesome_slide': {'widgets': [{'type': 'text', 'text': 'PnP Pinball', 'font_size': 50, '_default_settings': ['type', 'text', 'font_size'], 'x': None, 'y': None, 'anchor_x': 'center', 'anchor_y': 'center', 'round_anchor_x': None, 'round_anchor_y': None, 'opacity': 1.0, 'z': 0, 'reset_animations_events': {}, 'color': [1.0, 1.0, 1.0, 1.0], 'style': [], 'adjust_top': 0, 'adjust_bottom': 0, 'adjust_left': 0, 'adjust_right': 0, 'expire': None, 'key': None, 'widget': None, 'events_when_added': [], 'events_when_removed': [], 'bitmap_font': False, 'font_kerning': True, 'bold': False, 'italic': False, 'number_grouping': False, 'min_digits': 0, 'halign': 'center', 'valign': 'middle', 'rotation': 0, 'scale': 1.0, 'casing': None, 'animations': None}], 'transition': {'type': 'push', 'duration': 1.0, 'direction': 'left', 'easing': 'out_quad'}, 'target': None, 'background_color': [0.0, 0.0, 0.0, 1.0], 'priority': None, 'show': True, 'force': False, 'expire': None, 'slide': None, 'tokens': {}, 'action': 'play'}}, 'context': 'show_1', 'calling_context': 0, 'priority': 10, 'show_tokens': {}, 'start_time': 28565.717}
2021-07-05 16:44:35,818 : EventManager : Event: ======'sounds_play'====== Args={'settings': {'attract_music': {'action': 'play', 'loops': -1, 'volume': 0.7, 'priority': None, 'track': None, 'pan': None, 'start_at': None, 'fade_in': None, 'fade_out': None, 'about_to_finish_time': -1.0, 'max_queue_time': -1.0, 'events_when_played': ['use_sound_setting'], 'events_when_stopped': ['use_sound_setting'], 'events_when_looping': ['use_sound_setting'], 'events_when_about_to_finish': ['use_sound_setting'], 'mode_end_action': 'use_sound_setting', 'key': 'use_sound_setting'}}, 'context': '_global', 'calling_context': 'mode_attract_started', 'priority': 0}
2021-07-05 16:44:35,818 : EventManager : Event: ======'slides_play'====== Args={'settings': {'attract_started': {'target': None, 'background_color': [0.0, 0.0, 0.0, 1.0], 'priority': None, 'show': True, 'force': False, 'expire': None, 'slide': None, 'tokens': {}, 'action': 'play'}}, 'context': '_global', 'calling_context': 'mode_attract_started', 'priority': 0}
2021-07-05 16:44:35,818 : mpfmc : SlidePlayer: Play called with settings={'awesome_slide': {'widgets': [{'type': 'text', 'text': 'PnP Pinball', 'font_size': 50, '_default_settings': ['type', 'text', 'font_size'], 'x': None, 'y': None, 'anchor_x': 'center', 'anchor_y': 'center', 'round_anchor_x': None, 'round_anchor_y': None, 'opacity': 1.0, 'z': 0, 'reset_animations_events': {}, 'color': [1.0, 1.0, 1.0, 1.0], 'style': [], 'adjust_top': 0, 'adjust_bottom': 0, 'adjust_left': 0, 'adjust_right': 0, 'expire': None, 'key': None, 'widget': None, 'events_when_added': [], 'events_when_removed': [], 'bitmap_font': False, 'font_kerning': True, 'bold': False, 'italic': False, 'number_grouping': False, 'min_digits': 0, 'halign': 'center', 'valign': 'middle', 'rotation': 0, 'scale': 1.0, 'casing': None, 'animations': None}], 'transition': {'type': 'push', 'duration': 1.0, 'direction': 'left', 'easing': 'out_quad'}, 'target': None, 'background_color': [0.0, 0.0, 0.0, 1.0], 'priority': None, 'show': True, 'force': False, 'expire': None, 'slide': None, 'tokens': {}, 'action': 'play'}}
2021-07-05 16:44:35,823 : EventManager : Event: ======'slide_awesome_slide_created'====== Args={}
2021-07-05 16:44:35,825 : mpfmc : SlidePlayer: Play called with settings={'attract_started': {'target': None, 'background_color': [0.0, 0.0, 0.0, 1.0], 'priority': None, 'show': True, 'force': False, 'expire': None, 'slide': None, 'tokens': {}, 'action': 'play'}}
2021-07-05 16:44:38,059 : EventManager : Event: ======'slide_attract_started_created'====== Args={}
2021-07-05 16:44:38,061 : EventManager : Event: ======'slide_awesome_slide_active'====== Args={}
2021-07-05 16:44:38,073 : EventManager : Event: ======'loading_assets'====== Args={'total': 1, 'loaded': 1, 'remaining': 0, 'percent': 100}
2021-07-05 16:44:38,073 : AssetManager : Asset loading took: 3.4781992435455322
2021-07-05 16:44:38,074 : EventManager : Event: ======'asset_loading_complete'====== Args={}
2021-07-05 16:44:38,074 : AssetManager : Loading assets: 1/1 (100%)
2021-07-05 16:44:38,830 : EventManager : Event: ======'slides_play'====== Args={'settings': {'press_start': {'widgets': [{'type': 'Text', 'text': 'PRESS START', 'animations': {'pre_show_slide': [{'property': ['opacity'], 'value': ['0'], 'duration': 0.5, 'relative': False, 'timing': 'after_previous', 'repeat': False, 'easing': 'linear'}, {'property': ['opacity'], 'value': ['1'], 'duration': 0.5, 'repeat': False, 'relative': False, 'timing': 'after_previous', 'easing': 'linear'}]}, '_default_settings': ['type', 'text', 'animations'], 'x': None, 'y': None, 'anchor_x': 'center', 'anchor_y': 'center', 'round_anchor_x': None, 'round_anchor_y': None, 'opacity': 1.0, 'z': 0, 'reset_animations_events': {}, 'color': [1.0, 1.0, 1.0, 1.0], 'style': [], 'adjust_top': 0, 'adjust_bottom': 0, 'adjust_left': 0, 'adjust_right': 0, 'expire': None, 'key': None, 'widget': None, 'events_when_added': [], 'events_when_removed': [], 'font_size': 15, 'bitmap_font': False, 'font_kerning': True, 'bold': False, 'italic': False, 'number_grouping': False, 'min_digits': 0, 'halign': 'center', 'valign': 'middle', 'rotation': 0, 'scale': 1.0, 'casing': None}, {'type': 'Text', 'text': 'FREE PLAY', 'color': [0.0, 0.5019607843137255, 0.0, 1], 'y': '10', 'anchor_y': 'bottom', '_default_settings': ['type', 'text', 'color', 'y', 'anchor_y'], 'x': None, 'anchor_x': 'center', 'round_anchor_x': None, 'round_anchor_y': None, 'opacity': 1.0, 'z': 0, 'reset_animations_events': {}, 'style': [], 'adjust_top': 0, 'adjust_bottom': 0, 'adjust_left': 0, 'adjust_right': 0, 'expire': None, 'key': None, 'widget': None, 'events_when_added': [], 'events_when_removed': [], 'font_size': 15, 'bitmap_font': False, 'font_kerning': True, 'bold': False, 'italic': False, 'number_grouping': False, 'min_digits': 0, 'halign': 'center', 'valign': 'middle', 'rotation': 0, 'scale': 1.0, 'casing': None, 'animations': None}], 'transition': {'type': 'move_in', 'duration': 1.0, 'direction': 'right', 'easing': 'out_quad'}, 'target': None, 'background_color': [0.0, 0.0, 0.0, 1.0], 'priority': None, 'show': True, 'force': False, 'expire': None, 'slide': None, 'tokens': {}, 'action': 'play'}}, 'context': 'show_1', 'calling_context': 1, 'priority': 10, 'show_tokens': {}, 'start_time': 28568.717}
2021-07-05 16:44:38,830 : mpfmc : SlidePlayer: Play called with settings={'press_start': {'widgets': [{'type': 'Text', 'text': 'PRESS START', 'animations': {'pre_show_slide': [{'property': ['opacity'], 'value': ['0'], 'duration': 0.5, 'relative': False, 'timing': 'after_previous', 'repeat': False, 'easing': 'linear'}, {'property': ['opacity'], 'value': ['1'], 'duration': 0.5, 'repeat': False, 'relative': False, 'timing': 'after_previous', 'easing': 'linear'}]}, '_default_settings': ['type', 'text', 'animations'], 'x': None, 'y': None, 'anchor_x': 'center', 'anchor_y': 'center', 'round_anchor_x': None, 'round_anchor_y': None, 'opacity': 1.0, 'z': 0, 'reset_animations_events': {}, 'color': [1.0, 1.0, 1.0, 1.0], 'style': [], 'adjust_top': 0, 'adjust_bottom': 0, 'adjust_left': 0, 'adjust_right': 0, 'expire': None, 'key': None, 'widget': None, 'events_when_added': [], 'events_when_removed': [], 'font_size': 15, 'bitmap_font': False, 'font_kerning': True, 'bold': False, 'italic': False, 'number_grouping': False, 'min_digits': 0, 'halign': 'center', 'valign': 'middle', 'rotation': 0, 'scale': 1.0, 'casing': None}, {'type': 'Text', 'text': 'FREE PLAY', 'color': [0.0, 0.5019607843137255, 0.0, 1], 'y': '10', 'anchor_y': 'bottom', '_default_settings': ['type', 'text', 'color', 'y', 'anchor_y'], 'x': None, 'anchor_x': 'center', 'round_anchor_x': None, 'round_anchor_y': None, 'opacity': 1.0, 'z': 0, 'reset_animations_events': {}, 'style': [], 'adjust_top': 0, 'adjust_bottom': 0, 'adjust_left': 0, 'adjust_right': 0, 'expire': None, 'key': None, 'widget': None, 'events_when_added': [], 'events_when_removed': [], 'font_size': 15, 'bitmap_font': False, 'font_kerning': True, 'bold': False, 'italic': False, 'number_grouping': False, 'min_digits': 0, 'halign': 'center', 'valign': 'middle', 'rotation': 0, 'scale': 1.0, 'casing': None, 'animations': None}], 'transition': {'type': 'move_in', 'duration': 1.0, 'direction': 'right', 'easing': 'out_quad'}, 'target': None, 'background_color': [0.0, 0.0, 0.0, 1.0], 'priority': None, 'show': True, 'force': False, 'expire': None, 'slide': None, 'tokens': {}, 'action': 'play'}}
2021-07-05 16:44:38,837 : EventManager : Event: ======'slide_press_start_created'====== Args={}
2021-07-05 16:44:38,841 : EventManager : Event: ======'slide_press_start_active'====== Args={}
2021-07-05 16:44:41,824 : EventManager : Event: ======'slides_play'====== Args={'settings': {'mission_pinball': {'widgets': [{'type': 'Text', 'text': 'MISSION PINBALL', 'color': [1.0, 0.0, 0.0, 1], '_default_settings': ['type', 'text', 'color'], 'x': None, 'y': None, 'anchor_x': 'center', 'anchor_y': 'center', 'round_anchor_x': None, 'round_anchor_y': None, 'opacity': 1.0, 'z': 0, 'reset_animations_events': {}, 'style': [], 'adjust_top': 0, 'adjust_bottom': 0, 'adjust_left': 0, 'adjust_right': 0, 'expire': None, 'key': None, 'widget': None, 'events_when_added': [], 'events_when_removed': [], 'font_size': 15, 'bitmap_font': False, 'font_kerning': True, 'bold': False, 'italic': False, 'number_grouping': False, 'min_digits': 0, 'halign': 'center', 'valign': 'middle', 'rotation': 0, 'scale': 1.0, 'casing': None, 'animations': None}], 'transition': {'type': 'move_in', 'duration': 0.5, 'direction': 'top', 'easing': 'out_quad'}, 'target': None, 'background_color': [0.0, 0.0, 0.0, 1.0], 'priority': None, 'show': True, 'force': False, 'expire': None, 'slide': None, 'tokens': {}, 'action': 'play'}}, 'context': 'show_1', 'calling_context': 2, 'priority': 10, 'show_tokens': {}, 'start_time': 28571.717}
2021-07-05 16:44:41,824 : mpfmc : SlidePlayer: Play called with settings={'mission_pinball': {'widgets': [{'type': 'Text', 'text': 'MISSION PINBALL', 'color': [1.0, 0.0, 0.0, 1], '_default_settings': ['type', 'text', 'color'], 'x': None, 'y': None, 'anchor_x': 'center', 'anchor_y': 'center', 'round_anchor_x': None, 'round_anchor_y': None, 'opacity': 1.0, 'z': 0, 'reset_animations_events': {}, 'style': [], 'adjust_top': 0, 'adjust_bottom': 0, 'adjust_left': 0, 'adjust_right': 0, 'expire': None, 'key': None, 'widget': None, 'events_when_added': [], 'events_when_removed': [], 'font_size': 15, 'bitmap_font': False, 'font_kerning': True, 'bold': False, 'italic': False, 'number_grouping': False, 'min_digits': 0, 'halign': 'center', 'valign': 'middle', 'rotation': 0, 'scale': 1.0, 'casing': None, 'animations': None}], 'transition': {'type': 'move_in', 'duration': 0.5, 'direction': 'top', 'easing': 'out_quad'}, 'target': None, 'background_color': [0.0, 0.0, 0.0, 1.0], 'priority': None, 'show': True, 'force': False, 'expire': None, 'slide': None, 'tokens': {}, 'action': 'play'}}
2021-07-05 16:44:41,828 : EventManager : Event: ======'slide_mission_pinball_created'====== Args={}
2021-07-05 16:44:41,830 : EventManager : Event: ======'slide_mission_pinball_active'====== Args={}
2021-07-05 16:44:41,964 : EventManager : Event: ======'sounds_play'====== Args={'settings': {'laugh_4_music': {'action': 'play', 'priority': None, 'track': None, 'volume': None, 'pan': None, 'loops': None, 'start_at': None, 'fade_in': None, 'fade_out': None, 'about_to_finish_time': -1.0, 'max_queue_time': -1.0, 'events_when_played': ['use_sound_setting'], 'events_when_stopped': ['use_sound_setting'], 'events_when_looping': ['use_sound_setting'], 'events_when_about_to_finish': ['use_sound_setting'], 'mode_end_action': 'use_sound_setting', 'key': 'use_sound_setting'}}, 'context': '_global', 'calling_context': 's_start_active', 'priority': 0}
2021-07-05 16:44:41,965 : mpfmc : SoundPlayer: The specified sound does not exist ('laugh_4_music').
2021-07-05 16:44:42,126 : EventManager : Event: ======'game_started'====== Args={}
2021-07-05 16:44:42,126 : EventManager : Event: ======'slides_clear'====== Args={'context': 'show_1'}
2021-07-05 16:44:42,126 : EventManager : Event: ======'sounds_play'====== Args={'settings': {'attract_music': {'action': 'stop', 'priority': None, 'track': None, 'volume': None, 'pan': None, 'loops': None, 'start_at': None, 'fade_in': None, 'fade_out': None, 'about_to_finish_time': -1.0, 'max_queue_time': -1.0, 'events_when_played': ['use_sound_setting'], 'events_when_stopped': ['use_sound_setting'], 'events_when_looping': ['use_sound_setting'], 'events_when_about_to_finish': ['use_sound_setting'], 'mode_end_action': 'use_sound_setting', 'key': 'use_sound_setting'}}, 'context': '_global', 'calling_context': 'mode_attract_stopped', 'priority': 0}
2021-07-05 16:44:42,128 : EventManager : Event: ======'slide_awesome_slide_removed'====== Args={}
2021-07-05 16:44:42,129 : EventManager : Event: ======'slide_press_start_removed'====== Args={}
2021-07-05 16:44:42,129 : EventManager : Event: ======'slide_mission_pinball_removed'====== Args={}
2021-07-05 16:44:42,131 : EventManager : Event: ======'slide_attract_started_active'====== Args={}
2021-07-05 16:44:42,145 : EventManager : Event: ======'player_added'====== Args={'player': <Player 1>, 'num': 1}
2021-07-05 16:44:42,145 : EventManager : Event: ======'player_index'====== Args={'value': 0, 'prev_value': 0, 'change': 0, 'player_num': 1}
2021-07-05 16:44:42,145 : EventManager : Event: ======'player_number'====== Args={'value': 1, 'prev_value': 1, 'change': 0, 'player_num': 1}
2021-07-05 16:44:42,145 : EventManager : Event: ======'player_score'====== Args={'value': 0, 'prev_value': 0, 'change': 0, 'player_num': 1}
2021-07-05 16:44:42,178 : EventManager : Event: ======'player_ball'====== Args={'value': 1, 'prev_value': 0, 'change': 1, 'player_num': 1}
2021-07-05 16:44:42,178 : EventManager : Event: ======'player_turn_start'====== Args={'number': 1, 'player': <Player 1>}
2021-07-05 16:44:42,190 : EventManager : Event: ======'player_shot_shot_vuk_left_enabled'====== Args={'value': True, 'prev_value': 0, 'change': 1, 'player_num': 1}
2021-07-05 16:44:42,203 : EventManager : Event: ======'slides_play'====== Args={'settings': {'base_slide': {'target': None, 'background_color': [0.0, 0.0, 0.0, 1.0], 'priority': None, 'show': True, 'force': False, 'expire': None, 'slide': None, 'tokens': {}, 'action': 'play'}}, 'context': 'base', 'calling_context': 'mode_base_started', 'priority': 100, 'player': 1, 'ball': 1, 'balls_remaining': 2, 'is_extra_ball': False}
2021-07-05 16:44:42,203 : EventManager : Event: ======'sounds_play'====== Args={'settings': {'base_music': {'action': 'play', 'loops': -1, 'volume': 0.6, 'priority': None, 'track': None, 'pan': None, 'start_at': None, 'fade_in': None, 'fade_out': None, 'about_to_finish_time': -1.0, 'max_queue_time': -1.0, 'events_when_played': ['use_sound_setting'], 'events_when_stopped': ['use_sound_setting'], 'events_when_looping': ['use_sound_setting'], 'events_when_about_to_finish': ['use_sound_setting'], 'mode_end_action': 'use_sound_setting', 'key': 'use_sound_setting'}}, 'context': '_global', 'calling_context': 'mode_base_started', 'priority': 0, 'player': 1, 'ball': 1, 'balls_remaining': 2, 'is_extra_ball': False}
2021-07-05 16:44:42,204 : mpfmc : SlidePlayer: Play called with settings={'base_slide': {'target': None, 'background_color': [0.0, 0.0, 0.0, 1.0], 'priority': None, 'show': True, 'force': False, 'expire': None, 'slide': None, 'tokens': {}, 'action': 'play'}}
2021-07-05 16:44:42,229 : EventManager : Event: ======'slide_base_slide_created'====== Args={}
2021-07-05 16:44:42,439 : EventManager : Event: ======'slide_base_slide_active'====== Args={}
2021-07-05 16:44:42,457 : EventManager : Event: ======'machine_var_audits_switches_s_plunger'====== Args={'value': 122, 'prev_value': 121, 'change': 1}
2021-07-05 16:44:42,458 : EventManager : Event: ======'sounds_play'====== Args={'settings': {'shoot_me_voice': {'action': 'play', 'max_queue_time': 1.0, 'priority': None, 'track': None, 'volume': None, 'pan': None, 'loops': None, 'start_at': None, 'fade_in': None, 'fade_out': None, 'about_to_finish_time': -1.0, 'events_when_played': ['use_sound_setting'], 'events_when_stopped': ['use_sound_setting'], 'events_when_looping': ['use_sound_setting'], 'events_when_about_to_finish': ['use_sound_setting'], 'mode_end_action': 'use_sound_setting', 'key': 'use_sound_setting'}}, 'context': 'base', 'calling_context': 's_plunger_active', 'priority': 100}
2021-07-05 16:44:42,458 : EventManager : Event: ======'loading_assets'====== Args={'total': 2, 'loaded': 1, 'remaining': 1, 'percent': 50}
2021-07-05 16:44:42,459 : AssetManager : Loading assets: 1/2 (50%)
2021-07-05 16:44:42,470 : EventManager : Event: ======'loading_assets'====== Args={'total': 2, 'loaded': 2, 'remaining': 0, 'percent': 100}
2021-07-05 16:44:42,470 : AssetManager : Asset loading took: 7.875450849533081
2021-07-05 16:44:42,470 : EventManager : Event: ======'asset_loading_complete'====== Args={}
2021-07-05 16:44:42,470 : AssetManager : Loading assets: 2/2 (100%)
2021-07-05 16:44:45,064 : EventManager : Event: ======'machine_var_audits_switches_s_launch_button'====== Args={'value': 58, 'prev_value': 57, 'change': 1}
2021-07-05 16:44:46,852 : EventManager : Event: ======'machine_var_audits_switches_s_foley'====== Args={'value': 168, 'prev_value': 167, 'change': 1}
2021-07-05 16:44:46,852 : EventManager : Event: ======'player_score'====== Args={'value': 10, 'prev_value': 0, 'change': 10, 'player_num': 1}
2021-07-05 16:44:46,864 : EventManager : Event: ======'sounds_play'====== Args={'settings': {'i_need_a_lot_voice': {'action': 'play', 'max_queue_time': 1.0, 'priority': None, 'track': None, 'volume': None, 'pan': None, 'loops': None, 'start_at': None, 'fade_in': None, 'fade_out': None, 'about_to_finish_time': -1.0, 'events_when_played': ['use_sound_setting'], 'events_when_stopped': ['use_sound_setting'], 'events_when_looping': ['use_sound_setting'], 'events_when_about_to_finish': ['use_sound_setting'], 'mode_end_action': 'use_sound_setting', 'key': 'use_sound_setting'}}, 'context': 'base', 'calling_context': 's_foley_active', 'priority': 100}
2021-07-05 16:44:46,876 : EventManager : Event: ======'loading_assets'====== Args={'total': 1, 'loaded': 1, 'remaining': 0, 'percent': 100}
2021-07-05 16:44:46,876 : AssetManager : Asset loading took: 12.280702590942383
2021-07-05 16:44:46,876 : EventManager : Event: ======'asset_loading_complete'====== Args={}
2021-07-05 16:44:46,876 : AssetManager : Loading assets: 1/1 (100%)
2021-07-05 16:44:49,133 : EventManager : Event: ======'machine_var_audits_switches_s_drain'====== Args={'value': 46, 'prev_value': 45, 'change': 1}
2021-07-05 16:44:49,133 : EventManager : Event: ======'sounds_play'====== Args={'settings': {'i_lost_voice': {'action': 'play', 'max_queue_time': 1.0, 'priority': None, 'track': None, 'volume': None, 'pan': None, 'loops': None, 'start_at': None, 'fade_in': None, 'fade_out': None, 'about_to_finish_time': -1.0, 'events_when_played': ['use_sound_setting'], 'events_when_stopped': ['use_sound_setting'], 'events_when_looping': ['use_sound_setting'], 'events_when_about_to_finish': ['use_sound_setting'], 'mode_end_action': 'use_sound_setting', 'key': 'use_sound_setting'}}, 'context': 'base', 'calling_context': 's_drain_active', 'priority': 100}
2021-07-05 16:44:49,146 : EventManager : Event: ======'loading_assets'====== Args={'total': 1, 'loaded': 1, 'remaining': 0, 'percent': 100}
2021-07-05 16:44:49,146 : AssetManager : Asset loading took: 14.550832509994507
2021-07-05 16:44:49,146 : EventManager : Event: ======'asset_loading_complete'====== Args={}
2021-07-05 16:44:49,146 : AssetManager : Loading assets: 1/1 (100%)
2021-07-05 16:44:49,651 : EventManager : Event: ======'sounds_clear'====== Args={'context': 'base'}
2021-07-05 16:44:49,651 : EventManager : Event: ======'slides_clear'====== Args={'context': 'base'}
2021-07-05 16:44:49,653 : EventManager : Event: ======'slide_base_slide_removed'====== Args={}
2021-07-05 16:44:49,654 : EventManager : Event: ======'sounds_play'====== Args={'settings': {'base_music': {'action': 'stop', 'priority': None, 'track': None, 'volume': None, 'pan': None, 'loops': None, 'start_at': None, 'fade_in': None, 'fade_out': None, 'about_to_finish_time': -1.0, 'max_queue_time': -1.0, 'events_when_played': ['use_sound_setting'], 'events_when_stopped': ['use_sound_setting'], 'events_when_looping': ['use_sound_setting'], 'events_when_about_to_finish': ['use_sound_setting'], 'mode_end_action': 'use_sound_setting', 'key': 'use_sound_setting'}}, 'context': '_global', 'calling_context': 'mode_base_stopped', 'priority': 0}
2021-07-05 16:44:49,655 : EventManager : Event: ======'slide_attract_started_active'====== Args={}
2021-07-05 16:44:49,731 : EventManager : Event: ======'player_ball'====== Args={'value': 2, 'prev_value': 1, 'change': 1, 'player_num': 1}
2021-07-05 16:44:49,756 : EventManager : Event: ======'slides_play'====== Args={'settings': {'base_slide': {'target': None, 'background_color': [0.0, 0.0, 0.0, 1.0], 'priority': None, 'show': True, 'force': False, 'expire': None, 'slide': None, 'tokens': {}, 'action': 'play'}}, 'context': 'base', 'calling_context': 'mode_base_started', 'priority': 100, 'player': 1, 'ball': 2, 'balls_remaining': 1, 'is_extra_ball': False}
2021-07-05 16:44:49,756 : EventManager : Event: ======'sounds_play'====== Args={'settings': {'base_music': {'action': 'play', 'loops': -1, 'volume': 0.6, 'priority': None, 'track': None, 'pan': None, 'start_at': None, 'fade_in': None, 'fade_out': None, 'about_to_finish_time': -1.0, 'max_queue_time': -1.0, 'events_when_played': ['use_sound_setting'], 'events_when_stopped': ['use_sound_setting'], 'events_when_looping': ['use_sound_setting'], 'events_when_about_to_finish': ['use_sound_setting'], 'mode_end_action': 'use_sound_setting', 'key': 'use_sound_setting'}}, 'context': '_global', 'calling_context': 'mode_base_started', 'priority': 0, 'player': 1, 'ball': 2, 'balls_remaining': 1, 'is_extra_ball': False}
2021-07-05 16:44:49,756 : mpfmc : SlidePlayer: Play called with settings={'base_slide': {'target': None, 'background_color': [0.0, 0.0, 0.0, 1.0], 'priority': None, 'show': True, 'force': False, 'expire': None, 'slide': None, 'tokens': {}, 'action': 'play'}}
2021-07-05 16:44:49,779 : EventManager : Event: ======'slide_base_slide_created'====== Args={}
2021-07-05 16:44:49,791 : EventManager : Event: ======'slide_base_slide_active'====== Args={}
2021-07-05 16:44:49,811 : EventManager : Event: ======'machine_var_audits_switches_s_trough1'====== Args={'value': 59, 'prev_value': 58, 'change': 1}
2021-07-05 16:44:50,423 : EventManager : Event: ======'machine_var_audits_switches_s_plunger'====== Args={'value': 123, 'prev_value': 122, 'change': 1}
2021-07-05 16:44:50,423 : EventManager : Event: ======'sounds_play'====== Args={'settings': {'shoot_me_voice': {'action': 'play', 'max_queue_time': 1.0, 'priority': None, 'track': None, 'volume': None, 'pan': None, 'loops': None, 'start_at': None, 'fade_in': None, 'fade_out': None, 'about_to_finish_time': -1.0, 'events_when_played': ['use_sound_setting'], 'events_when_stopped': ['use_sound_setting'], 'events_when_looping': ['use_sound_setting'], 'events_when_about_to_finish': ['use_sound_setting'], 'mode_end_action': 'use_sound_setting', 'key': 'use_sound_setting'}}, 'context': 'base', 'calling_context': 's_plunger_active', 'priority': 100}
2021-07-05 16:45:01,825 : EventManager : Event: ======'machine_var_audits_switches_s_plunger'====== Args={'value': 124, 'prev_value': 123, 'change': 1}
2021-07-05 16:45:01,825 : EventManager : Event: ======'sounds_play'====== Args={'settings': {'shoot_me_voice': {'action': 'play', 'max_queue_time': 1.0, 'priority': None, 'track': None, 'volume': None, 'pan': None, 'loops': None, 'start_at': None, 'fade_in': None, 'fade_out': None, 'about_to_finish_time': -1.0, 'events_when_played': ['use_sound_setting'], 'events_when_stopped': ['use_sound_setting'], 'events_when_looping': ['use_sound_setting'], 'events_when_about_to_finish': ['use_sound_setting'], 'mode_end_action': 'use_sound_setting', 'key': 'use_sound_setting'}}, 'context': 'base', 'calling_context': 's_plunger_active', 'priority': 100}
2021-07-05 16:45:04,070 : EventManager : Event: ======'machine_var_audits_switches_s_foley'====== Args={'value': 169, 'prev_value': 168, 'change': 1}
2021-07-05 16:45:04,070 : EventManager : Event: ======'player_score'====== Args={'value': 20, 'prev_value': 10, 'change': 10, 'player_num': 1}
2021-07-05 16:45:04,082 : EventManager : Event: ======'sounds_play'====== Args={'settings': {'i_need_a_lot_voice': {'action': 'play', 'max_queue_time': 1.0, 'priority': None, 'track': None, 'volume': None, 'pan': None, 'loops': None, 'start_at': None, 'fade_in': None, 'fade_out': None, 'about_to_finish_time': -1.0, 'events_when_played': ['use_sound_setting'], 'events_when_stopped': ['use_sound_setting'], 'events_when_looping': ['use_sound_setting'], 'events_when_about_to_finish': ['use_sound_setting'], 'mode_end_action': 'use_sound_setting', 'key': 'use_sound_setting'}}, 'context': 'base', 'calling_context': 's_foley_active', 'priority': 100}
2021-07-05 16:45:07,347 : EventManager : Event: ======'machine_var_audits_switches_s_foley'====== Args={'value': 170, 'prev_value': 169, 'change': 1}
2021-07-05 16:45:07,347 : EventManager : Event: ======'player_score'====== Args={'value': 30, 'prev_value': 20, 'change': 10, 'player_num': 1}
2021-07-05 16:45:07,359 : EventManager : Event: ======'sounds_play'====== Args={'settings': {'i_need_a_lot_voice': {'action': 'play', 'max_queue_time': 1.0, 'priority': None, 'track': None, 'volume': None, 'pan': None, 'loops': None, 'start_at': None, 'fade_in': None, 'fade_out': None, 'about_to_finish_time': -1.0, 'events_when_played': ['use_sound_setting'], 'events_when_stopped': ['use_sound_setting'], 'events_when_looping': ['use_sound_setting'], 'events_when_about_to_finish': ['use_sound_setting'], 'mode_end_action': 'use_sound_setting', 'key': 'use_sound_setting'}}, 'context': 'base', 'calling_context': 's_foley_active', 'priority': 100}
2021-07-05 16:45:08,620 : EventManager : Event: ======'machine_var_audits_switches_s_foley'====== Args={'value': 171, 'prev_value': 170, 'change': 1}
2021-07-05 16:45:08,620 : EventManager : Event: ======'player_score'====== Args={'value': 40, 'prev_value': 30, 'change': 10, 'player_num': 1}
2021-07-05 16:45:08,633 : EventManager : Event: ======'sounds_play'====== Args={'settings': {'i_need_a_lot_voice': {'action': 'play', 'max_queue_time': 1.0, 'priority': None, 'track': None, 'volume': None, 'pan': None, 'loops': None, 'start_at': None, 'fade_in': None, 'fade_out': None, 'about_to_finish_time': -1.0, 'events_when_played': ['use_sound_setting'], 'events_when_stopped': ['use_sound_setting'], 'events_when_looping': ['use_sound_setting'], 'events_when_about_to_finish': ['use_sound_setting'], 'mode_end_action': 'use_sound_setting', 'key': 'use_sound_setting'}}, 'context': 'base', 'calling_context': 's_foley_active', 'priority': 100}
2021-07-05 16:45:09,774 : EventManager : Event: ======'machine_var_audits_switches_s_foley'====== Args={'value': 172, 'prev_value': 171, 'change': 1}
2021-07-05 16:45:09,774 : EventManager : Event: ======'player_score'====== Args={'value': 50, 'prev_value': 40, 'change': 10, 'player_num': 1}
2021-07-05 16:45:09,775 : EventManager : Event: ======'sounds_play'====== Args={'settings': {'i_need_a_lot_voice': {'action': 'play', 'max_queue_time': 1.0, 'priority': None, 'track': None, 'volume': None, 'pan': None, 'loops': None, 'start_at': None, 'fade_in': None, 'fade_out': None, 'about_to_finish_time': -1.0, 'events_when_played': ['use_sound_setting'], 'events_when_stopped': ['use_sound_setting'], 'events_when_looping': ['use_sound_setting'], 'events_when_about_to_finish': ['use_sound_setting'], 'mode_end_action': 'use_sound_setting', 'key': 'use_sound_setting'}}, 'context': 'base', 'calling_context': 's_foley_active', 'priority': 100}
2021-07-05 16:45:12,201 : EventManager : Event: ======'machine_var_audits_switches_s_launch_button'====== Args={'value': 59, 'prev_value': 58, 'change': 1}
2021-07-05 16:45:13,474 : EventManager : Event: ======'machine_var_audits_switches_s_launch_button'====== Args={'value': 60, 'prev_value': 59, 'change': 1}
2021-07-05 16:45:15,682 : EventManager : Event: ======'machine_var_audits_switches_s_drain'====== Args={'value': 47, 'prev_value': 46, 'change': 1}
2021-07-05 16:45:15,682 : EventManager : Event: ======'sounds_play'====== Args={'settings': {'i_lost_voice': {'action': 'play', 'max_queue_time': 1.0, 'priority': None, 'track': None, 'volume': None, 'pan': None, 'loops': None, 'start_at': None, 'fade_in': None, 'fade_out': None, 'about_to_finish_time': -1.0, 'events_when_played': ['use_sound_setting'], 'events_when_stopped': ['use_sound_setting'], 'events_when_looping': ['use_sound_setting'], 'events_when_about_to_finish': ['use_sound_setting'], 'mode_end_action': 'use_sound_setting', 'key': 'use_sound_setting'}}, 'context': 'base', 'calling_context': 's_drain_active', 'priority': 100}
2021-07-05 16:45:16,199 : EventManager : Event: ======'sounds_clear'====== Args={'context': 'base'}
2021-07-05 16:45:16,199 : EventManager : Event: ======'slides_clear'====== Args={'context': 'base'}
2021-07-05 16:45:16,201 : EventManager : Event: ======'slide_base_slide_removed'====== Args={}
2021-07-05 16:45:16,202 : EventManager : Event: ======'sounds_play'====== Args={'settings': {'base_music': {'action': 'stop', 'priority': None, 'track': None, 'volume': None, 'pan': None, 'loops': None, 'start_at': None, 'fade_in': None, 'fade_out': None, 'about_to_finish_time': -1.0, 'max_queue_time': -1.0, 'events_when_played': ['use_sound_setting'], 'events_when_stopped': ['use_sound_setting'], 'events_when_looping': ['use_sound_setting'], 'events_when_about_to_finish': ['use_sound_setting'], 'mode_end_action': 'use_sound_setting', 'key': 'use_sound_setting'}}, 'context': '_global', 'calling_context': 'mode_base_stopped', 'priority': 0}
2021-07-05 16:45:16,203 : EventManager : Event: ======'slide_attract_started_active'====== Args={}
2021-07-05 16:45:16,280 : EventManager : Event: ======'player_ball'====== Args={'value': 3, 'prev_value': 2, 'change': 1, 'player_num': 1}
2021-07-05 16:45:16,305 : EventManager : Event: ======'slides_play'====== Args={'settings': {'base_slide': {'target': None, 'background_color': [0.0, 0.0, 0.0, 1.0], 'priority': None, 'show': True, 'force': False, 'expire': None, 'slide': None, 'tokens': {}, 'action': 'play'}}, 'context': 'base', 'calling_context': 'mode_base_started', 'priority': 100, 'player': 1, 'ball': 3, 'balls_remaining': 0, 'is_extra_ball': False}
2021-07-05 16:45:16,305 : EventManager : Event: ======'sounds_play'====== Args={'settings': {'base_music': {'action': 'play', 'loops': -1, 'volume': 0.6, 'priority': None, 'track': None, 'pan': None, 'start_at': None, 'fade_in': None, 'fade_out': None, 'about_to_finish_time': -1.0, 'max_queue_time': -1.0, 'events_when_played': ['use_sound_setting'], 'events_when_stopped': ['use_sound_setting'], 'events_when_looping': ['use_sound_setting'], 'events_when_about_to_finish': ['use_sound_setting'], 'mode_end_action': 'use_sound_setting', 'key': 'use_sound_setting'}}, 'context': '_global', 'calling_context': 'mode_base_started', 'priority': 0, 'player': 1, 'ball': 3, 'balls_remaining': 0, 'is_extra_ball': False}
2021-07-05 16:45:16,305 : mpfmc : SlidePlayer: Play called with settings={'base_slide': {'target': None, 'background_color': [0.0, 0.0, 0.0, 1.0], 'priority': None, 'show': True, 'force': False, 'expire': None, 'slide': None, 'tokens': {}, 'action': 'play'}}
2021-07-05 16:45:16,324 : EventManager : Event: ======'slide_base_slide_created'====== Args={}
2021-07-05 16:45:16,336 : EventManager : Event: ======'slide_base_slide_active'====== Args={}
2021-07-05 16:45:16,356 : EventManager : Event: ======'machine_var_audits_switches_s_trough1'====== Args={'value': 60, 'prev_value': 59, 'change': 1}
2021-07-05 16:45:16,968 : EventManager : Event: ======'machine_var_audits_switches_s_plunger'====== Args={'value': 125, 'prev_value': 124, 'change': 1}
2021-07-05 16:45:16,968 : EventManager : Event: ======'sounds_play'====== Args={'settings': {'shoot_me_voice': {'action': 'play', 'max_queue_time': 1.0, 'priority': None, 'track': None, 'volume': None, 'pan': None, 'loops': None, 'start_at': None, 'fade_in': None, 'fade_out': None, 'about_to_finish_time': -1.0, 'events_when_played': ['use_sound_setting'], 'events_when_stopped': ['use_sound_setting'], 'events_when_looping': ['use_sound_setting'], 'events_when_about_to_finish': ['use_sound_setting'], 'mode_end_action': 'use_sound_setting', 'key': 'use_sound_setting'}}, 'context': 'base', 'calling_context': 's_plunger_active', 'priority': 100}
2021-07-05 16:45:21,072 : kivy : WindowSDL: exiting mainloop and closing.
2021-07-05 16:45:21,262 : kivy : Base: Leaving application in progress...
2021-07-05 16:45:21,262 : mpfmc : Stopping...
2021-07-05 16:45:21,263 : EventManager : Event: ======'shutdown'====== Args={}
2021-07-05 16:45:21,263 : mpfmc : Loop rate 76.5 Hz
2021-07-05 16:45:21,263 : kivy : MC run loop ended.
2021-07-05 16:45:21,263 : kivy : Stopping child threads... (3 remaining)
2021-07-05 16:45:22,099 : mpfmc : Stopping...
2021-07-05 16:45:22,099 : EventManager : Event: ======'shutdown'====== Args={}
2021-07-05 16:45:22,099 : mpfmc : Loop rate 75.16 Hz
2021-07-05 16:45:22,265 : MPF-MC BCP Server : Stopping BCP sending thread
2021-07-05 16:45:22,363 : kivy : All child threads stopped.
