2021-06-11 11:01:37,027 : kivy : Factory: 184 symbols loaded
2021-06-11 11:01:37,296 : kivy : ImageLoaderFFPy: Using ffpyplayer 4.3.1
2021-06-11 11:01:37,296 : kivy : Image: Providers: img_tex, img_dds, img_sdl2, img_pil, img_ffpyplayer, img_gif 
2021-06-11 11:01:37,399 : kivy : VideoGstplayer: Using Gstreamer 1.16.0.0
2021-06-11 11:01:37,400 : kivy : Video: Provider: gstplayer
2021-06-11 11:01:37,510 : kivy : Loading MPF-MC controller
2021-06-11 11:01:38,294 : ConfigProcessor : Config spec file cache created: C:\Users\MEESTE~1\AppData\Local\Temp\config_spec.mpf_cache
2021-06-11 11:01:38,295 : YamlMultifileConfigLoader : Machine config file #1: config
2021-06-11 11:01:38,296 : ConfigProcessor : Config file in cache changed: C:\MissionPinball\P\config\config
2021-06-11 11:01:38,296 : ConfigProcessor : Loading config from file c:\mpfenv\lib\site-packages\mpfmc\mcconfig.yaml.
2021-06-11 11:01:38,374 : ConfigProcessor : Loading config: c:\mpfenv\lib\site-packages\mpfmc\mcconfig.yaml
2021-06-11 11:01:38,375 : ConfigProcessor : Loading config from file C:\MissionPinball\P\config\config.
2021-06-11 11:01:38,401 : ConfigProcessor : Loading config: C:\MissionPinball\P\config\config
2021-06-11 11:01:38,403 : ConfigProcessor : Config file cache created: C:\Users\MEESTE~1\AppData\Local\Temp\7378a4f6b33991d5f3fd6d3ac4fb5d99.mpf_cache
2021-06-11 11:01:38,404 : ConfigProcessor : Loading config from cache: C:\Users\MEESTE~1\AppData\Local\Temp\63bd49ce226a3af45f02b400f9478364.mpf_cache
2021-06-11 11:01:38,405 : ConfigProcessor : Loading config from cache: C:\Users\MEESTE~1\AppData\Local\Temp\b16855f32fa15912a0c8dc3278537500.mpf_cache
2021-06-11 11:01:38,405 : mpfmc : Mission Pinball Framework Media Controller v0.54.2
2021-06-11 11:01:38,406 : mpfmc : Mission Pinball Framework Game Engine v0.54.6
2021-06-11 11:01:38,406 : mpfmc : Machine path: C:\MissionPinball\P
2021-06-11 11:01:38,406 : mpfmc : Starting clock at 60.0Hz
2021-06-11 11:01:38,431 : kivy : Text: Provider: sdl2
2021-06-11 11:01:38,523 : kivy : Window: Provider: sdl2
2021-06-11 11:01:39,247 : kivy : GL: Using the "OpenGL" graphics system
2021-06-11 11:01:39,249 : kivy : GL: GLEW initialization succeeded
2021-06-11 11:01:39,250 : kivy : GL: Backend used <glew>
2021-06-11 11:01:39,250 : kivy : GL: OpenGL version <b'4.5.0 NVIDIA 377.11'>
2021-06-11 11:01:39,250 : kivy : GL: OpenGL vendor <b'NVIDIA Corporation'>
2021-06-11 11:01:39,250 : kivy : GL: OpenGL renderer <b'Quadro 1000M/PCIe/SSE2'>
2021-06-11 11:01:39,250 : kivy : GL: OpenGL parsed version: 4, 5
2021-06-11 11:01:39,251 : kivy : GL: Shading version <b'4.50 NVIDIA'>
2021-06-11 11:01:39,251 : kivy : GL: Texture max size <16384>
2021-06-11 11:01:39,251 : kivy : GL: Texture max units <32>
2021-06-11 11:01:39,276 : kivy : Window: auto add sdl2 input provider
2021-06-11 11:01:39,276 : kivy : Window: virtual keyboard not allowed, single mode, not docked
2021-06-11 11:01:39,295 : SoundSystem : SoundSystem: Using default 'sound_system' settings
2021-06-11 11:01:39,750 : AudioInterface : Initialized
2021-06-11 11:01:39,750 : SoundSystem : No audio tracks are specified in your machine config file. a track named 'default' has been created.
2021-06-11 11:01:39,754 : kivy : Base: Start application main loop
2021-06-11 11:01:39,755 : EventManager : Event: ======'display_window_initialized'====== Args={}
2021-06-11 11:01:39,776 : mpfmc : Display: Setting 'window' as default display
2021-06-11 11:01:39,788 : EventManager : Event: ======'displays_initialized'====== Args={}
2021-06-11 11:01:39,791 : EventManager : Event: ======'slide_window_blank_created'====== Args={}
2021-06-11 11:01:39,791 : EventManager : Event: ======'display_window_ready'====== Args={}
2021-06-11 11:01:39,812 : EventManager : Event: ======'init_phase_1'====== Args={}
2021-06-11 11:01:39,819 : EventManager : Event: ======'mc_ready'====== Args={}
2021-06-11 11:01:39,819 : EventManager : Event: ======'init_phase_2'====== Args={}
2021-06-11 11:01:39,823 : EventManager : Event: ======'init_phase_3'====== Args={}
2021-06-11 11:01:39,824 : EventManager : Event: ======'init_phase_4'====== Args={}
2021-06-11 11:01:39,824 : EventManager : Event: ======'init_phase_5'====== Args={}
2021-06-11 11:01:39,825 : EventManager : Event: ======'init_done'====== Args={}
2021-06-11 11:01:39,825 : MPF-MC BCP Server : Starting up on localhost port 5050
2021-06-11 11:01:39,831 : MPF-MC BCP Server : Waiting for a connection...
2021-06-11 11:01:39,831 : mpfmc : SlidePlayer: Play called with settings={'slides': {welcome_slide-None-None: {'priority': None, 'target': None, 'background_color': [0.0, 0.0, 0.0, 1.0], 'show': True, 'force': False, 'expire': None, 'slide': None, 'tokens': {}, 'action': 'play', 'transition': None, 'transition_out': None}}}
2021-06-11 11:01:39,840 : kivy : GL: NPOT texture support is available
2021-06-11 11:01:39,843 : EventManager : Event: ======'slide_welcome_slide_created'====== Args={}
2021-06-11 11:01:39,849 : EventManager : Event: ======'slide_welcome_slide_active'====== Args={}
2021-06-11 11:01:39,855 : EventManager : Event: ======'client_disconnected'====== Args={'host': '127.0.0.1', 'port': 5050}
2021-06-11 11:01:39,986 : MPF-MC BCP Server : Received connection from: 127.0.0.1:51871
2021-06-11 11:01:39,988 : EventManager : Event: ======'client_connected'====== Args={'host': '127.0.0.1', 'port': 51871}
2021-06-11 11:01:40,025 : EventManager : Event: ======'machine_var_credits_string'====== Args={'value': 'FREE PLAY', 'prev_value': None, 'change': True}
2021-06-11 11:01:40,025 : EventManager : Event: ======'machine_var_mpf_version'====== Args={'value': 'MPF v0.54.6', 'prev_value': None, 'change': True}
2021-06-11 11:01:40,025 : EventManager : Event: ======'machine_var_mpf_extended_version'====== Args={'value': 'MPF v0.54.6, Config version:5, Show version: 5, BCP version:1.1', 'prev_value': None, 'change': True}
2021-06-11 11:01:40,025 : EventManager : Event: ======'machine_var_python_version'====== Args={'value': '3.7.8', 'prev_value': None, 'change': True}
2021-06-11 11:01:40,025 : EventManager : Event: ======'machine_var_platform'====== Args={'value': 'Windows-7-6.1.7601-SP1', 'prev_value': None, 'change': True}
2021-06-11 11:01:40,026 : EventManager : Event: ======'machine_var_platform_system'====== Args={'value': 'Windows', 'prev_value': None, 'change': True}
2021-06-11 11:01:40,026 : EventManager : Event: ======'machine_var_platform_release'====== Args={'value': '7', 'prev_value': None, 'change': True}
2021-06-11 11:01:40,026 : EventManager : Event: ======'machine_var_platform_version'====== Args={'value': '6.1.7601', 'prev_value': None, 'change': True}
2021-06-11 11:01:40,026 : EventManager : Event: ======'machine_var_platform_machine'====== Args={'value': 'AMD64', 'prev_value': None, 'change': True}
2021-06-11 11:01:40,026 : EventManager : Event: ======'machine_var_mc_version'====== Args={'value': 'MPF-MC v0.54.2', 'prev_value': None, 'change': True}
2021-06-11 11:01:40,026 : EventManager : Event: ======'machine_var_mc_extended_version'====== Args={'value': 'MPF-MC v0.54.2 (config_version=5, BCP v1.1, Requires MPF v0.54.0)', 'prev_value': None, 'change': True}
2021-06-11 11:01:40,027 : EventManager : Event: ======'machine_var_master_volume'====== Args={'value': 0.5, 'prev_value': None, 'change': True}
2021-06-11 11:01:40,061 : EventManager : Event: ======'machine_var_audits_switches_s_flipper_links'====== Args={'value': 0, 'prev_value': None, 'change': True}
2021-06-11 11:01:40,061 : EventManager : Event: ======'machine_var_audits_switches_s_flipper_rechts'====== Args={'value': 0, 'prev_value': None, 'change': True}
2021-06-11 11:01:40,061 : EventManager : Event: ======'machine_var_audits_switches_s_drain'====== Args={'value': 0, 'prev_value': None, 'change': True}
2021-06-11 11:01:40,061 : EventManager : Event: ======'machine_var_audits_switches_s_through1'====== Args={'value': 0, 'prev_value': None, 'change': True}
2021-06-11 11:01:40,061 : EventManager : Event: ======'machine_var_audits_switches_s_through2'====== Args={'value': 0, 'prev_value': None, 'change': True}
2021-06-11 11:01:40,062 : EventManager : Event: ======'machine_var_audits_switches_s_through3'====== Args={'value': 0, 'prev_value': None, 'change': True}
2021-06-11 11:01:40,073 : EventManager : Event: ======'slides_play'====== Args={'settings': {'welcome_slide': {'target': None, 'background_color': [0.0, 0.0, 0.0, 1.0], 'priority': None, 'show': True, 'force': False, 'expire': None, 'slide': None, 'tokens': {}, 'action': 'play'}}, 'context': '_global', 'calling_context': 'init_done', 'priority': 0}
2021-06-11 11:01:40,073 : EventManager : Event: ======'mc_reset_phase_1'====== Args={}
2021-06-11 11:01:40,073 : mpfmc : SlidePlayer: Play called with settings={'welcome_slide': {'target': None, 'background_color': [0.0, 0.0, 0.0, 1.0], 'priority': None, 'show': True, 'force': False, 'expire': None, 'slide': None, 'tokens': {}, 'action': 'play'}}
2021-06-11 11:01:40,075 : EventManager : Event: ======'slide_welcome_slide_removed'====== Args={}
2021-06-11 11:01:40,080 : EventManager : Event: ======'slide_welcome_slide_created'====== Args={}
2021-06-11 11:01:40,081 : EventManager : Event: ======'mc_reset_phase_2'====== Args={}
2021-06-11 11:01:40,081 : EventManager : Event: ======'mc_reset_phase_3'====== Args={}
2021-06-11 11:01:40,081 : EventManager : Event: ======'mc_reset_complete'====== Args={}
2021-06-11 11:01:40,082 : EventManager : Event: ======'slide_welcome_slide_active'====== Args={}
2021-06-11 11:01:40,087 : EventManager : Event: ======'slides_play'====== Args={'settings': {'attract_started': {'target': None, 'background_color': [0.0, 0.0, 0.0, 1.0], 'priority': None, 'show': True, 'force': False, 'expire': None, 'slide': None, 'tokens': {}, 'action': 'play'}}, 'context': '_global', 'calling_context': 'mode_attract_started', 'priority': 0}
2021-06-11 11:01:40,088 : mpfmc : SlidePlayer: Play called with settings={'attract_started': {'target': None, 'background_color': [0.0, 0.0, 0.0, 1.0], 'priority': None, 'show': True, 'force': False, 'expire': None, 'slide': None, 'tokens': {}, 'action': 'play'}}
2021-06-11 11:01:40,094 : EventManager : Event: ======'slide_attract_started_created'====== Args={}
2021-06-11 11:01:40,096 : EventManager : Event: ======'slide_attract_started_active'====== Args={}
2021-06-11 11:01:52,970 : kivy : WindowSDL: exiting mainloop and closing.
2021-06-11 11:01:53,137 : kivy : Base: Leaving application in progress...
2021-06-11 11:01:53,137 : mpfmc : Stopping...
2021-06-11 11:01:53,137 : EventManager : Event: ======'shutdown'====== Args={}
2021-06-11 11:01:53,137 : mpfmc : Loop rate 71.81 Hz
2021-06-11 11:01:53,137 : kivy : MC run loop ended.
2021-06-11 11:01:53,137 : kivy : Stopping child threads... (3 remaining)
2021-06-11 11:01:53,667 : mpfmc : Stopping...
2021-06-11 11:01:53,667 : EventManager : Event: ======'shutdown'====== Args={}
2021-06-11 11:01:53,667 : mpfmc : Loop rate 69.07 Hz
2021-06-11 11:01:53,682 : MPF-MC BCP Server : Stopping BCP sending thread
2021-06-11 11:01:53,980 : kivy : All child threads stopped.
