2021-06-07 17:24:21,816 : INFO : root : Loading config.
2021-06-07 17:24:22,580 : INFO : ConfigProcessor : Config spec file cache created: C:\Users\MEESTE~1\AppData\Local\Temp\config_spec.mpf_cache
2021-06-07 17:24:22,580 : INFO : YamlMultifileConfigLoader : Machine config file #1: config.yaml
2021-06-07 17:24:22,580 : WARNING : ConfigProcessor : Cache file not found: C:\Users\MEESTE~1\AppData\Local\Temp\edf7552f13d07d8f591673b9e5d0af44.mpf_cache
2021-06-07 17:24:22,580 : INFO : ConfigProcessor : Loading config from file c:\mpfenv\lib\site-packages\mpf\mpfconfig.yaml.
2021-06-07 17:24:22,720 : INFO : ConfigProcessor : Loading config: c:\mpfenv\lib\site-packages\mpf\mpfconfig.yaml
2021-06-07 17:24:22,720 : INFO : ConfigProcessor : Loading config from file C:\MissionPinball\P\config\config.yaml.
2021-06-07 17:24:22,785 : INFO : ConfigProcessor : Loading config: C:\MissionPinball\P\config\config.yaml
2021-06-07 17:24:22,789 : INFO : ConfigProcessor : Config file cache created: C:\Users\MEESTE~1\AppData\Local\Temp\edf7552f13d07d8f591673b9e5d0af44.mpf_cache
2021-06-07 17:24:22,956 : INFO : ConfigProcessor : Loading config from cache: C:\Users\MEESTE~1\AppData\Local\Temp\63bd49ce226a3af45f02b400f9478364.mpf_cache
2021-06-07 17:24:22,958 : INFO : ConfigProcessor : Loading config from cache: C:\Users\MEESTE~1\AppData\Local\Temp\b16855f32fa15912a0c8dc3278537500.mpf_cache
2021-06-07 17:24:22,959 : INFO : Machine : Mission Pinball Framework Core Engine v0.54.6
2021-06-07 17:24:22,960 : INFO : Machine : Command line arguments: {'no_load_cache': False, 'create_config_cache': True, 'bcp': True, 'configfile': ['config.yaml'], 'force_assets_load': False, 'jsonlogging': False, 'logfile': 'logs\\2021-06-07-17-24-21-mpf-MeesterPieter.log', 'pause': False, 'production': False, 'text_ui': True, 'loglevel': 15, 'consoleloglevel': 20, 'force_platform': 'smart_virtual', 'syslog_address': None, 'mc_file_name': None, 'no_sound': False}
2021-06-07 17:24:22,960 : INFO : Machine : MPF path: c:\mpfenv\lib\site-packages\mpf
2021-06-07 17:24:22,960 : INFO : Machine : Machine path: C:\MissionPinball\P
2021-06-07 17:24:22,960 : INFO : Machine : Platform: win32
2021-06-07 17:24:22,960 : INFO : Machine : Python executable location: c:\mpfenv\scripts\python.exe
2021-06-07 17:24:22,960 : INFO : Machine : Python version: 3.7.8 (64-bit)
2021-06-07 17:24:22,964 : INFO : Machine : Initialise MPF.
2021-06-07 17:24:23,271 : INFO : EventManager : Event: ======'machine_var_credits_string'====== Args={'value': 'FREE PLAY', 'prev_value': None, 'change': True}
2021-06-07 17:24:23,380 : INFO : EventManager : Event: ======'machine_var_mpf_version'====== Args={'value': 'MPF v0.54.6', 'prev_value': None, 'change': True}
2021-06-07 17:24:23,380 : INFO : EventManager : Event: ======'machine_var_mpf_extended_version'====== Args={'value': 'MPF v0.54.6, Config version:5, Show version: 5, BCP version:1.1', 'prev_value': None, 'change': True}
2021-06-07 17:24:23,380 : INFO : EventManager : Event: ======'machine_var_python_version'====== Args={'value': '3.7.8', 'prev_value': None, 'change': True}
2021-06-07 17:24:23,380 : INFO : EventManager : Event: ======'machine_var_platform'====== Args={'value': 'Windows-7-6.1.7601-SP1', 'prev_value': None, 'change': True}
2021-06-07 17:24:23,381 : INFO : EventManager : Event: ======'machine_var_platform_system'====== Args={'value': 'Windows', 'prev_value': None, 'change': True}
2021-06-07 17:24:23,381 : INFO : EventManager : Event: ======'machine_var_platform_release'====== Args={'value': '7', 'prev_value': None, 'change': True}
2021-06-07 17:24:23,381 : INFO : EventManager : Event: ======'machine_var_platform_version'====== Args={'value': '6.1.7601', 'prev_value': None, 'change': True}
2021-06-07 17:24:23,381 : INFO : EventManager : Event: ======'machine_var_platform_machine'====== Args={'value': 'AMD64', 'prev_value': None, 'change': True}
2021-06-07 17:24:23,381 : INFO : EventManager : Event: ======'init_phase_1'====== Args={}
2021-06-07 17:24:23,432 : INFO : EventManager : Event: ======'init_phase_2'====== Args={}
2021-06-07 17:24:23,433 : INFO : SwitchController : Found active switch: (1007, <Platform.SmartVirtual>) <switch.s_trough1>
2021-06-07 17:24:23,433 : INFO : SwitchController : Found active switch: (1009, <Platform.SmartVirtual>) <switch.s_trough2>
2021-06-07 17:24:23,433 : INFO : SwitchController : Found active switch: (1017, <Platform.SmartVirtual>) <switch.s_trough3>
2021-06-07 17:24:23,437 : INFO : EventManager : Event: ======'bcp_connection_attempt'====== Args={'name': 'local_display', 'host': 'localhost', 'port': 5050}
2021-06-07 17:24:23,439 : INFO : BCPClientSocket : Connecting BCP to 'local_display' at localhost:5050...
2021-06-07 17:24:26,571 : INFO : BCPClientSocket : Connected BCP to 'local_display' localhost:5050
2021-06-07 17:24:26,572 : INFO : EventManager : Event: ======'bcp_clients_connected'====== Args={}
2021-06-07 17:24:26,591 : INFO : EventManager : Event: ======'machine_var_mc_version'====== Args={'value': 'MPF-MC v0.54.2', 'prev_value': None, 'change': True}
2021-06-07 17:24:26,592 : INFO : EventManager : Event: ======'machine_var_mc_extended_version'====== Args={'value': 'MPF-MC v0.54.2 (config_version=5, BCP v1.1, Requires MPF v0.54.0)', 'prev_value': None, 'change': True}
2021-06-07 17:24:26,595 : INFO : EventManager : Event: ======'machine_var_master_volume'====== Args={'value': 0.5, 'prev_value': None, 'change': True}
2021-06-07 17:24:26,596 : INFO : ball_device.bd_lower_vuk : State: idle
2021-06-07 17:24:26,633 : INFO : ball_device.bd_upper_vuk : State: idle
2021-06-07 17:24:26,634 : INFO : ball_device.bd_elevator : State: idle
2021-06-07 17:24:26,636 : INFO : ball_device.bd_trough : State: idle
2021-06-07 17:24:26,637 : INFO : ball_device.bd_plunger : State: idle
2021-06-07 17:24:26,638 : INFO : ball_device.bd_retina_hole : State: idle
2021-06-07 17:24:26,653 : INFO : EventManager : Event: ======'init_phase_3'====== Args={}
2021-06-07 17:24:26,658 : INFO : EventManager : Event: ======'init_phase_4'====== Args={}
2021-06-07 17:24:26,658 : INFO : BallController : Initial balls found: 3
2021-06-07 17:24:26,660 : INFO : EventManager : Event: ======'machine_var_audits_switches_s_left_flipper'====== Args={'value': 0, 'prev_value': None, 'change': True}
2021-06-07 17:24:26,661 : INFO : EventManager : Event: ======'machine_var_audits_switches_s_right_flipper'====== Args={'value': 0, 'prev_value': None, 'change': True}
2021-06-07 17:24:26,662 : INFO : EventManager : Event: ======'machine_var_audits_switches_s_trough1'====== Args={'value': 0, 'prev_value': None, 'change': True}
2021-06-07 17:24:26,662 : INFO : EventManager : Event: ======'machine_var_audits_switches_s_trough2'====== Args={'value': 0, 'prev_value': None, 'change': True}
2021-06-07 17:24:26,663 : INFO : EventManager : Event: ======'machine_var_audits_switches_s_trough3'====== Args={'value': 0, 'prev_value': None, 'change': True}
2021-06-07 17:24:26,664 : INFO : EventManager : Event: ======'machine_var_audits_switches_s_trough4'====== Args={'value': 0, 'prev_value': None, 'change': True}
2021-06-07 17:24:26,664 : INFO : EventManager : Event: ======'machine_var_audits_switches_s_trough5'====== Args={'value': 0, 'prev_value': None, 'change': True}
2021-06-07 17:24:26,665 : INFO : EventManager : Event: ======'machine_var_audits_switches_s_trough6'====== Args={'value': 0, 'prev_value': None, 'change': True}
2021-06-07 17:24:26,666 : INFO : EventManager : Event: ======'machine_var_audits_switches_s_trough_jam'====== Args={'value': 0, 'prev_value': None, 'change': True}
2021-06-07 17:24:26,666 : INFO : EventManager : Event: ======'machine_var_audits_switches_s_plunger'====== Args={'value': 0, 'prev_value': None, 'change': True}
2021-06-07 17:24:26,667 : INFO : EventManager : Event: ======'machine_var_audits_switches_s_start'====== Args={'value': 0, 'prev_value': None, 'change': True}
2021-06-07 17:24:26,668 : INFO : EventManager : Event: ======'machine_var_audits_switches_s_right_inlane'====== Args={'value': 0, 'prev_value': None, 'change': True}
2021-06-07 17:24:26,668 : INFO : EventManager : Event: ======'machine_var_audits_switches_s_top_popper'====== Args={'value': 0, 'prev_value': None, 'change': True}
2021-06-07 17:24:26,669 : INFO : EventManager : Event: ======'machine_var_audits_switches_s_elevator_hold'====== Args={'value': 0, 'prev_value': None, 'change': True}
2021-06-07 17:24:26,670 : INFO : EventManager : Event: ======'machine_var_audits_switches_s_eject'====== Args={'value': 0, 'prev_value': None, 'change': True}
2021-06-07 17:24:26,670 : INFO : EventManager : Event: ======'machine_var_audits_switches_s_bottom_popper'====== Args={'value': 0, 'prev_value': None, 'change': True}
2021-06-07 17:24:26,671 : INFO : EventManager : Event: ======'machine_var_audits_switches_s_left_slingshot'====== Args={'value': 0, 'prev_value': None, 'change': True}
2021-06-07 17:24:26,672 : INFO : EventManager : Event: ======'machine_var_audits_switches_s_right_slingshot'====== Args={'value': 0, 'prev_value': None, 'change': True}
2021-06-07 17:24:26,672 : INFO : EventManager : Event: ======'machine_var_audits_switches_s_top_slingshot'====== Args={'value': 0, 'prev_value': None, 'change': True}
2021-06-07 17:24:26,673 : INFO : EventManager : Event: ======'machine_var_audits_switches_s_left_jet'====== Args={'value': 0, 'prev_value': None, 'change': True}
2021-06-07 17:24:26,674 : INFO : EventManager : Event: ======'machine_var_audits_switches_s_right_jet'====== Args={'value': 0, 'prev_value': None, 'change': True}
2021-06-07 17:24:26,675 : INFO : EventManager : Event: ======'init_phase_5'====== Args={}
2021-06-07 17:24:26,701 : INFO : EventManager : Event: ======'init_done'====== Args={}
2021-06-07 17:24:26,701 : INFO : EventManager : Event: ======'machine_reset_phase_1'====== Args={}
2021-06-07 17:24:26,716 : INFO : EventManager : Event: ======'slide_welcome_slide_removed'====== Args={'_from_bcp': True}
2021-06-07 17:24:26,717 : INFO : EventManager : Event: ======'slide_welcome_slide_created'====== Args={'_from_bcp': True}
2021-06-07 17:24:26,720 : INFO : EventManager : Event: ======'machine_reset_phase_2'====== Args={}
2021-06-07 17:24:26,720 : INFO : EventManager : Event: ======'machine_reset_phase_3'====== Args={}
2021-06-07 17:24:26,720 : INFO : EventManager : Event: ======'reset_complete'====== Args={}
2021-06-07 17:24:26,721 : INFO : EventManager : Event: ======'mode_attract_will_start'====== Args={}
2021-06-07 17:24:26,722 : INFO : EventManager : Event: ======'mode_attract_starting'====== Args={}
2021-06-07 17:24:26,722 : INFO : Mode.attract : Started. Priority: 10
2021-06-07 17:24:26,722 : INFO : EventManager : Event: ======'modes_active_modes_changed'====== Args={}
2021-06-07 17:24:26,722 : INFO : EventManager : Event: ======'mode_attract_started'====== Args={}
2021-06-07 17:24:26,723 : INFO : EventManager : Event: ======'collecting_balls_complete'====== Args={}
2021-06-07 17:24:26,770 : INFO : EventManager : Event: ======'slide_welcome_slide_active'====== Args={'_from_bcp': True}
2021-06-07 17:24:26,771 : INFO : EventManager : Event: ======'slide_attract_started_created'====== Args={'_from_bcp': True}
2021-06-07 17:24:26,771 : INFO : EventManager : Event: ======'slide_attract_started_active'====== Args={'_from_bcp': True}
2021-06-07 17:24:26,771 : INFO : Machine : Starting the main run loop.
2021-06-07 17:24:29,119 : INFO : Machine : Shutting down...
2021-06-07 17:24:29,119 : INFO : EventManager : Event: ======'shutdown'====== Args={}
2021-06-07 17:24:29,129 : INFO : root : MPF run loop ended.
