2021-06-25 11:02:03,802 : INFO : root : Loading config.
2021-06-25 11:02:04,576 : INFO : ConfigProcessor : Config spec file cache created: C:\Users\MEESTE~1\AppData\Local\Temp\config_spec.mpf_cache
2021-06-25 11:02:04,581 : INFO : YamlMultifileConfigLoader : Machine config file #1: config.yaml
2021-06-25 11:02:04,581 : INFO : ConfigProcessor : Loading config from cache: C:\Users\MEESTE~1\AppData\Local\Temp\edf7552f13d07d8f591673b9e5d0af44.mpf_cache
2021-06-25 11:02:04,725 : INFO : ConfigProcessor : Loading config from cache: C:\Users\MEESTE~1\AppData\Local\Temp\ba565b152e3a424c60da0fc20421189a.mpf_cache
2021-06-25 11:02:04,727 : INFO : ConfigProcessor : Loading config from cache: C:\Users\MEESTE~1\AppData\Local\Temp\b16855f32fa15912a0c8dc3278537500.mpf_cache
2021-06-25 11:02:04,728 : INFO : ConfigProcessor : Loading config from cache: C:\Users\MEESTE~1\AppData\Local\Temp\eae5e374fdab94bc8ed9a0f08718cef8.mpf_cache
2021-06-25 11:02:04,730 : INFO : ConfigProcessor : Loading config from cache: C:\Users\MEESTE~1\AppData\Local\Temp\06d8f51c2a5c542e4abfbd5f3074f24f.mpf_cache
2021-06-25 11:02:04,732 : INFO : ConfigProcessor : Loading config from cache: C:\Users\MEESTE~1\AppData\Local\Temp\05af67a4df65f9c2a0b6133d009717fd.mpf_cache
2021-06-25 11:02:04,733 : INFO : Machine : Mission Pinball Framework Core Engine v0.54.6
2021-06-25 11:02:04,733 : INFO : Machine : Command line arguments: {'no_load_cache': False, 'create_config_cache': True, 'bcp': True, 'configfile': ['config.yaml'], 'force_assets_load': False, 'jsonlogging': False, 'logfile': 'logs\\2021-06-25-11-02-03-mpf-MeesterPieter.log', 'pause': False, 'production': False, 'text_ui': True, 'loglevel': 15, 'consoleloglevel': 20, 'force_platform': 'smart_virtual', 'syslog_address': None, 'mc_file_name': None, 'no_sound': False}
2021-06-25 11:02:04,733 : INFO : Machine : MPF path: c:\mpfenv\lib\site-packages\mpf
2021-06-25 11:02:04,733 : INFO : Machine : Machine path: C:\MissionPinball\P
2021-06-25 11:02:04,733 : INFO : Machine : Platform: win32
2021-06-25 11:02:04,733 : INFO : Machine : Python executable location: c:\mpfenv\scripts\python.exe
2021-06-25 11:02:04,733 : INFO : Machine : Python version: 3.7.8 (64-bit)
2021-06-25 11:02:04,737 : INFO : Machine : Initialise MPF.
2021-06-25 11:02:05,030 : INFO : EventManager : Event: ======'machine_var_credits_string'====== Args={'value': 'FREE PLAY', 'prev_value': None, 'change': True}
2021-06-25 11:02:05,143 : INFO : EventManager : Event: ======'machine_var_player1_score'====== Args={'value': 14104, 'prev_value': None, 'change': True}
2021-06-25 11:02:05,143 : INFO : EventManager : Event: ======'machine_var_mpf_version'====== Args={'value': 'MPF v0.54.6', 'prev_value': None, 'change': True}
2021-06-25 11:02:05,143 : INFO : EventManager : Event: ======'machine_var_mpf_extended_version'====== Args={'value': 'MPF v0.54.6, Config version:5, Show version: 5, BCP version:1.1', 'prev_value': None, 'change': True}
2021-06-25 11:02:05,143 : INFO : EventManager : Event: ======'machine_var_python_version'====== Args={'value': '3.7.8', 'prev_value': None, 'change': True}
2021-06-25 11:02:05,144 : INFO : EventManager : Event: ======'machine_var_platform'====== Args={'value': 'Windows-7-6.1.7601-SP1', 'prev_value': None, 'change': True}
2021-06-25 11:02:05,144 : INFO : EventManager : Event: ======'machine_var_platform_system'====== Args={'value': 'Windows', 'prev_value': None, 'change': True}
2021-06-25 11:02:05,144 : INFO : EventManager : Event: ======'machine_var_platform_release'====== Args={'value': '7', 'prev_value': None, 'change': True}
2021-06-25 11:02:05,144 : INFO : EventManager : Event: ======'machine_var_platform_version'====== Args={'value': '6.1.7601', 'prev_value': None, 'change': True}
2021-06-25 11:02:05,144 : INFO : EventManager : Event: ======'machine_var_platform_machine'====== Args={'value': 'AMD64', 'prev_value': None, 'change': True}
2021-06-25 11:02:05,144 : INFO : EventManager : Event: ======'init_phase_1'====== Args={}
2021-06-25 11:02:05,218 : INFO : EventManager : Event: ======'init_phase_2'====== Args={}
2021-06-25 11:02:05,218 : INFO : SwitchController : Found active switch: ('103', <Platform.SmartVirtual>) <switch.s_trough1>
2021-06-25 11:02:05,218 : INFO : SwitchController : Found active switch: ('104', <Platform.SmartVirtual>) <switch.s_trough2>
2021-06-25 11:02:05,219 : INFO : SwitchController : Found active switch: ('105', <Platform.SmartVirtual>) <switch.s_trough3>
2021-06-25 11:02:05,227 : INFO : EventManager : Event: ======'bcp_connection_attempt'====== Args={'name': 'local_display', 'host': 'localhost', 'port': 5050}
2021-06-25 11:02:05,230 : INFO : BCPClientSocket : Connecting BCP to 'local_display' at localhost:5050...
2021-06-25 11:02:08,379 : INFO : BCPClientSocket : Connected BCP to 'local_display' localhost:5050
2021-06-25 11:02:08,380 : INFO : EventManager : Event: ======'bcp_clients_connected'====== Args={}
2021-06-25 11:02:08,401 : INFO : EventManager : Event: ======'machine_var_mc_version'====== Args={'value': 'MPF-MC v0.54.2', 'prev_value': None, 'change': True}
2021-06-25 11:02:08,401 : INFO : EventManager : Event: ======'machine_var_mc_extended_version'====== Args={'value': 'MPF-MC v0.54.2 (config_version=5, BCP v1.1, Requires MPF v0.54.0)', 'prev_value': None, 'change': True}
2021-06-25 11:02:08,405 : INFO : EventManager : Event: ======'machine_var_master_volume'====== Args={'value': 0.5, 'prev_value': None, 'change': True}
2021-06-25 11:02:08,406 : INFO : ball_device.bd_drain : State: idle
2021-06-25 11:02:08,447 : INFO : ball_device.bd_trough : State: idle
2021-06-25 11:02:08,448 : INFO : ball_device.bd_plunger : State: idle
2021-06-25 11:02:08,449 : INFO : ball_device.bd_vuk_left : State: idle
2021-06-25 11:02:08,450 : INFO : ball_device.bd_vuk_right : State: idle
2021-06-25 11:02:08,451 : INFO : ball_device.bd_kickout : State: idle
2021-06-25 11:02:08,481 : INFO : EventManager : Event: ======'init_phase_3'====== Args={}
2021-06-25 11:02:08,490 : INFO : EventManager : Event: ======'init_phase_4'====== Args={}
2021-06-25 11:02:08,491 : INFO : BallController : Initial balls found: 3
2021-06-25 11:02:08,493 : INFO : EventManager : Event: ======'machine_var_audits_shots_shot_vuk_left'====== Args={'value': 160, 'prev_value': None, 'change': True}
2021-06-25 11:02:08,493 : INFO : EventManager : Event: ======'machine_var_audits_switches_s_captive'====== Args={'value': 1, 'prev_value': None, 'change': True}
2021-06-25 11:02:08,494 : INFO : EventManager : Event: ======'machine_var_audits_switches_s_cop_left'====== Args={'value': 1, 'prev_value': None, 'change': True}
2021-06-25 11:02:08,495 : INFO : EventManager : Event: ======'machine_var_audits_switches_s_cop_middle'====== Args={'value': 1, 'prev_value': None, 'change': True}
2021-06-25 11:02:08,495 : INFO : EventManager : Event: ======'machine_var_audits_switches_s_cop_right'====== Args={'value': 1, 'prev_value': None, 'change': True}
2021-06-25 11:02:08,496 : INFO : EventManager : Event: ======'machine_var_audits_switches_s_drain'====== Args={'value': 36, 'prev_value': None, 'change': True}
2021-06-25 11:02:08,497 : INFO : EventManager : Event: ======'machine_var_audits_switches_s_droptarget_left_1'====== Args={'value': 1, 'prev_value': None, 'change': True}
2021-06-25 11:02:08,497 : INFO : EventManager : Event: ======'machine_var_audits_switches_s_droptarget_left_2'====== Args={'value': 1, 'prev_value': None, 'change': True}
2021-06-25 11:02:08,498 : INFO : EventManager : Event: ======'machine_var_audits_switches_s_droptarget_left_3'====== Args={'value': 2, 'prev_value': None, 'change': True}
2021-06-25 11:02:08,499 : INFO : EventManager : Event: ======'machine_var_audits_switches_s_droptarget_middle_1'====== Args={'value': 0, 'prev_value': None, 'change': True}
2021-06-25 11:02:08,500 : INFO : EventManager : Event: ======'machine_var_audits_switches_s_droptarget_middle_2'====== Args={'value': 0, 'prev_value': None, 'change': True}
2021-06-25 11:02:08,500 : INFO : EventManager : Event: ======'machine_var_audits_switches_s_droptarget_middle_3'====== Args={'value': 0, 'prev_value': None, 'change': True}
2021-06-25 11:02:08,501 : INFO : EventManager : Event: ======'machine_var_audits_switches_s_droptarget_right_1'====== Args={'value': 1, 'prev_value': None, 'change': True}
2021-06-25 11:02:08,502 : INFO : EventManager : Event: ======'machine_var_audits_switches_s_droptarget_right_2'====== Args={'value': 3, 'prev_value': None, 'change': True}
2021-06-25 11:02:08,502 : INFO : EventManager : Event: ======'machine_var_audits_switches_s_droptarget_right_3'====== Args={'value': 1, 'prev_value': None, 'change': True}
2021-06-25 11:02:08,503 : INFO : EventManager : Event: ======'machine_var_audits_switches_s_droptarget_right_4'====== Args={'value': 1, 'prev_value': None, 'change': True}
2021-06-25 11:02:08,504 : INFO : EventManager : Event: ======'machine_var_audits_switches_s_droptarget_right_5'====== Args={'value': 2, 'prev_value': None, 'change': True}
2021-06-25 11:02:08,504 : INFO : EventManager : Event: ======'machine_var_audits_switches_s_flipper_lane_left'====== Args={'value': 0, 'prev_value': None, 'change': True}
2021-06-25 11:02:08,505 : INFO : EventManager : Event: ======'machine_var_audits_switches_s_flipper_lane_right'====== Args={'value': 0, 'prev_value': None, 'change': True}
2021-06-25 11:02:08,506 : INFO : EventManager : Event: ======'machine_var_audits_switches_s_flipper_left'====== Args={'value': 0, 'prev_value': None, 'change': True}
2021-06-25 11:02:08,506 : INFO : EventManager : Event: ======'machine_var_audits_switches_s_flipper_links'====== Args={'value': 23, 'prev_value': None, 'change': True}
2021-06-25 11:02:08,507 : INFO : EventManager : Event: ======'machine_var_audits_switches_s_flipper_rechts'====== Args={'value': 20, 'prev_value': None, 'change': True}
2021-06-25 11:02:08,508 : INFO : EventManager : Event: ======'machine_var_audits_switches_s_flipper_right'====== Args={'value': 0, 'prev_value': None, 'change': True}
2021-06-25 11:02:08,508 : INFO : EventManager : Event: ======'machine_var_audits_switches_s_foley'====== Args={'value': 101, 'prev_value': None, 'change': True}
2021-06-25 11:02:08,509 : INFO : EventManager : Event: ======'machine_var_audits_switches_s_inlane_left'====== Args={'value': 1, 'prev_value': None, 'change': True}
2021-06-25 11:02:08,510 : INFO : EventManager : Event: ======'machine_var_audits_switches_s_inlane_right'====== Args={'value': 2, 'prev_value': None, 'change': True}
2021-06-25 11:02:08,511 : INFO : EventManager : Event: ======'machine_var_audits_switches_s_kickback'====== Args={'value': 1, 'prev_value': None, 'change': True}
2021-06-25 11:02:08,511 : INFO : EventManager : Event: ======'machine_var_audits_switches_s_kickout'====== Args={'value': 1, 'prev_value': None, 'change': True}
2021-06-25 11:02:08,512 : INFO : EventManager : Event: ======'machine_var_audits_switches_s_launch_button'====== Args={'value': 45, 'prev_value': None, 'change': True}
2021-06-25 11:02:08,513 : INFO : EventManager : Event: ======'machine_var_audits_switches_s_outlane_right'====== Args={'value': 29, 'prev_value': None, 'change': True}
2021-06-25 11:02:08,514 : INFO : EventManager : Event: ======'machine_var_audits_switches_s_plunger'====== Args={'value': 88, 'prev_value': None, 'change': True}
2021-06-25 11:02:08,515 : INFO : EventManager : Event: ======'machine_var_audits_switches_s_ramp_left'====== Args={'value': 2, 'prev_value': None, 'change': True}
2021-06-25 11:02:08,515 : INFO : EventManager : Event: ======'machine_var_audits_switches_s_slingshot_left'====== Args={'value': 0, 'prev_value': None, 'change': True}
2021-06-25 11:02:08,516 : INFO : EventManager : Event: ======'machine_var_audits_switches_s_slingshot_right'====== Args={'value': 0, 'prev_value': None, 'change': True}
2021-06-25 11:02:08,517 : INFO : EventManager : Event: ======'machine_var_audits_switches_s_spinner'====== Args={'value': 12, 'prev_value': None, 'change': True}
2021-06-25 11:02:08,518 : INFO : EventManager : Event: ======'machine_var_audits_switches_s_start'====== Args={'value': 5, 'prev_value': None, 'change': True}
2021-06-25 11:02:08,519 : INFO : EventManager : Event: ======'machine_var_audits_switches_s_trough1'====== Args={'value': 54, 'prev_value': None, 'change': True}
2021-06-25 11:02:08,519 : INFO : EventManager : Event: ======'machine_var_audits_switches_s_trough2'====== Args={'value': 7, 'prev_value': None, 'change': True}
2021-06-25 11:02:08,520 : INFO : EventManager : Event: ======'machine_var_audits_switches_s_trough3'====== Args={'value': 2, 'prev_value': None, 'change': True}
2021-06-25 11:02:08,521 : INFO : EventManager : Event: ======'machine_var_audits_switches_s_turbo_left'====== Args={'value': 5, 'prev_value': None, 'change': True}
2021-06-25 11:02:08,522 : INFO : EventManager : Event: ======'machine_var_audits_switches_s_turbo_links'====== Args={'value': 1, 'prev_value': None, 'change': True}
2021-06-25 11:02:08,523 : INFO : EventManager : Event: ======'machine_var_audits_switches_s_turbo_midden'====== Args={'value': 10, 'prev_value': None, 'change': True}
2021-06-25 11:02:08,524 : INFO : EventManager : Event: ======'machine_var_audits_switches_s_turbo_middle'====== Args={'value': 3, 'prev_value': None, 'change': True}
2021-06-25 11:02:08,524 : INFO : EventManager : Event: ======'machine_var_audits_switches_s_turbo_rechts'====== Args={'value': 3, 'prev_value': None, 'change': True}
2021-06-25 11:02:08,525 : INFO : EventManager : Event: ======'machine_var_audits_switches_s_turbo_right'====== Args={'value': 7, 'prev_value': None, 'change': True}
2021-06-25 11:02:08,526 : INFO : EventManager : Event: ======'machine_var_audits_switches_s_vuk_left'====== Args={'value': 160, 'prev_value': None, 'change': True}
2021-06-25 11:02:08,527 : INFO : EventManager : Event: ======'machine_var_audits_switches_s_vuk_right'====== Args={'value': 3, 'prev_value': None, 'change': True}
2021-06-25 11:02:08,528 : INFO : EventManager : Event: ======'init_phase_5'====== Args={}
2021-06-25 11:02:08,555 : INFO : EventManager : Event: ======'init_done'====== Args={}
2021-06-25 11:02:08,556 : INFO : EventManager : Event: ======'machine_reset_phase_1'====== Args={}
2021-06-25 11:02:08,568 : INFO : EventManager : Event: ======'slide_welcome_slide_removed'====== Args={'_from_bcp': True}
2021-06-25 11:02:08,570 : INFO : EventManager : Event: ======'slide_welcome_slide_created'====== Args={'_from_bcp': True}
2021-06-25 11:02:08,571 : INFO : EventManager : Event: ======'machine_reset_phase_2'====== Args={}
2021-06-25 11:02:08,572 : INFO : EventManager : Event: ======'machine_reset_phase_3'====== Args={}
2021-06-25 11:02:08,572 : INFO : EventManager : Event: ======'reset_complete'====== Args={}
2021-06-25 11:02:08,573 : INFO : EventManager : Event: ======'mode_attract_will_start'====== Args={}
2021-06-25 11:02:08,574 : INFO : EventManager : Event: ======'mode_attract_starting'====== Args={}
2021-06-25 11:02:08,574 : INFO : Mode.attract : Started. Priority: 10
2021-06-25 11:02:08,574 : INFO : EventManager : Event: ======'modes_active_modes_changed'====== Args={}
2021-06-25 11:02:08,574 : INFO : EventManager : Event: ======'mode_attract_started'====== Args={}
2021-06-25 11:02:08,576 : INFO : EventManager : Event: ======'collecting_balls_complete'====== Args={}
2021-06-25 11:02:08,577 : INFO : EventManager : Event: ======'slide_welcome_slide_active'====== Args={'_from_bcp': True}
2021-06-25 11:02:08,631 : INFO : EventManager : Event: ======'slide_awesome_slide_created'====== Args={'_from_bcp': True}
2021-06-25 11:02:08,632 : INFO : EventManager : Event: ======'slide_attract_started_created'====== Args={'_from_bcp': True}
2021-06-25 11:02:08,632 : INFO : EventManager : Event: ======'slide_awesome_slide_active'====== Args={'_from_bcp': True}
2021-06-25 11:02:08,632 : INFO : Machine : Starting the main run loop.
2021-06-25 11:02:08,818 : INFO : BcpServer : New client connected.
2021-06-25 11:02:08,820 : INFO : SwitchController : <<<<<<< 's_start' active >>>>>>>
2021-06-25 11:02:08,820 : INFO : SwitchController : <<<<<<< 's_start' inactive >>>>>>>
2021-06-25 11:02:08,820 : INFO : EventManager : Event: ======'request_to_start_game'====== Args={}
2021-06-25 11:02:08,820 : INFO : EventManager : Event: ======'game_start'====== Args={'buttons': [], 'hold_time': 0.0}
2021-06-25 11:02:08,821 : INFO : EventManager : Event: ======'mode_game_will_start'====== Args={'buttons': [], 'hold_time': 0.0}
2021-06-25 11:02:08,822 : INFO : EventManager : Event: ======'mode_game_starting'====== Args={'buttons': [], 'hold_time': 0.0}
2021-06-25 11:02:08,822 : INFO : EventManager : Event: ======'mode_attract_will_stop'====== Args={}
2021-06-25 11:02:08,822 : INFO : EventManager : Event: ======'mode_attract_stopping'====== Args={}
2021-06-25 11:02:08,822 : INFO : Mode.attract : Stopped.
2021-06-25 11:02:08,822 : INFO : EventManager : Event: ======'modes_active_modes_changed'====== Args={}
2021-06-25 11:02:08,823 : INFO : EventManager : Event: ======'mode_attract_stopped'====== Args={}
2021-06-25 11:02:08,823 : INFO : EventManager : Event: ======'clear'====== Args={'key': 'attract'}
2021-06-25 11:02:08,824 : INFO : Mode.game : Started. Priority: 20
2021-06-25 11:02:08,824 : INFO : EventManager : Event: ======'modes_active_modes_changed'====== Args={}
2021-06-25 11:02:08,824 : INFO : EventManager : Event: ======'mode_game_started'====== Args={'buttons': [], 'hold_time': 0.0}
2021-06-25 11:02:08,840 : INFO : EventManager : Event: ======'game_will_start'====== Args={}
2021-06-25 11:02:08,858 : INFO : SwitchController : <<<<<<< 's_start' active >>>>>>>
2021-06-25 11:02:08,858 : INFO : EventManager : Event: ======'sw_start'====== Args={}
2021-06-25 11:02:08,859 : INFO : SwitchController : <<<<<<< 's_start' inactive >>>>>>>
2021-06-25 11:02:08,859 : INFO : EventManager : Event: ======'player_add_request'====== Args={}
2021-06-25 11:02:08,860 : INFO : EventManager : Event: ======'player_will_add'====== Args={'number': 1}
2021-06-25 11:02:08,860 : INFO : EventManager : Event: ======'player_adding'====== Args={'player': <Player 1>, 'number': 1}
2021-06-25 11:02:08,861 : INFO : EventManager : Event: ======'player_added'====== Args={'player': <Player 1>, 'num': 1}
2021-06-25 11:02:08,862 : INFO : Mode.game : Player added successfully. Total players: 1
2021-06-25 11:02:08,862 : INFO : EventManager : Event: ======'player_index'====== Args={'value': 0, 'prev_value': 0, 'change': 0, 'player_num': 1}
2021-06-25 11:02:08,863 : INFO : EventManager : Event: ======'player_number'====== Args={'value': 1, 'prev_value': 1, 'change': 0, 'player_num': 1}
2021-06-25 11:02:08,864 : INFO : EventManager : Event: ======'player_score'====== Args={'value': 0, 'prev_value': 0, 'change': 0, 'player_num': 1}
2021-06-25 11:02:08,865 : INFO : EventManager : Event: ======'slide_awesome_slide_removed'====== Args={'_from_bcp': True}
2021-06-25 11:02:08,866 : INFO : EventManager : Event: ======'slide_attract_started_active'====== Args={'_from_bcp': True}
2021-06-25 11:02:08,891 : INFO : EventManager : Event: ======'game_starting'====== Args={'game': <Mode.game>}
2021-06-25 11:02:08,892 : INFO : EventManager : Event: ======'game_started'====== Args={}
2021-06-25 11:02:08,893 : INFO : EventManager : Event: ======'player_turn_will_start'====== Args={'player': <Player 1>, 'number': 1}
2021-06-25 11:02:08,894 : INFO : EventManager : Event: ======'player_turn_starting'====== Args={'player': <Player 1>, 'number': 1}
2021-06-25 11:02:08,895 : INFO : EventManager : Event: ======'player_ball'====== Args={'value': 1, 'prev_value': 0, 'change': 1, 'player_num': 1}
2021-06-25 11:02:08,895 : INFO : EventManager : Event: ======'player_turn_started'====== Args={'player': <Player 1>, 'number': 1}
2021-06-25 11:02:08,896 : INFO : EventManager : Event: ======'ball_will_start'====== Args={'player': 1, 'ball': 1, 'balls_remaining': 2, 'is_extra_ball': False}
2021-06-25 11:02:08,909 : INFO : EventManager : Event: ======'ball_starting'====== Args={'player': 1, 'ball': 1, 'balls_remaining': 2, 'is_extra_ball': False}
2021-06-25 11:02:08,911 : INFO : EventManager : Event: ======'balls_in_play'====== Args={'balls': 1}
2021-06-25 11:02:08,911 : INFO : EventManager : Event: ======'ball_started'====== Args={'player': 1, 'ball': 1, 'balls_remaining': 2, 'is_extra_ball': False}
2021-06-25 11:02:08,912 : INFO : EventManager : Event: ======'mode_base_will_start'====== Args={'player': 1, 'ball': 1, 'balls_remaining': 2, 'is_extra_ball': False}
2021-06-25 11:02:08,913 : INFO : EventManager : Event: ======'player_shot_shot_vuk_left_enabled'====== Args={'value': True, 'prev_value': 0, 'change': 1, 'player_num': 1}
2021-06-25 11:02:08,918 : INFO : EventManager : Event: ======'mode_base_starting'====== Args={'player': 1, 'ball': 1, 'balls_remaining': 2, 'is_extra_ball': False}
2021-06-25 11:02:08,921 : INFO : Mode.base : Started. Priority: 100
2021-06-25 11:02:08,921 : INFO : EventManager : Event: ======'modes_active_modes_changed'====== Args={}
2021-06-25 11:02:08,922 : INFO : EventManager : Event: ======'mode_base_started'====== Args={'player': 1, 'ball': 1, 'balls_remaining': 2, 'is_extra_ball': False}
2021-06-25 11:02:08,924 : INFO : EventManager : Event: ======'single_player_ball_started'====== Args={}
2021-06-25 11:02:08,972 : INFO : ball_device.bd_plunger : Setting up player-controlled eject. Balls: 1, Target: <playfield.playfield>, player_controlled_eject_event: s_launch_button_active
2021-06-25 11:02:08,973 : INFO : EventManager : Event: ======'balldevice_balls_available'====== Args={}
2021-06-25 11:02:08,974 : INFO : EventManager : Event: ======'slide_base_slide_created'====== Args={'_from_bcp': True}
2021-06-25 11:02:08,975 : INFO : EventManager : Event: ======'slide_base_slide_active'====== Args={'_from_bcp': True}
2021-06-25 11:02:08,976 : INFO : ball_device.bd_trough : State: waiting_for_target_ready
2021-06-25 11:02:08,976 : INFO : EventManager : Event: ======'balldevice_bd_trough_ball_eject_attempt'====== Args={'balls': 1, 'target': <ball_device.bd_plunger>, 'source': <ball_device.bd_trough>, 'mechanical_eject': True, 'num_attempts': 0}
2021-06-25 11:02:08,977 : INFO : ball_device.bd_plunger : State: waiting_for_ball
2021-06-25 11:02:08,979 : INFO : ball_device.bd_trough : State: ejecting
2021-06-25 11:02:08,979 : INFO : ball_device.bd_trough : Ejecting ball to <ball_device.bd_plunger>
2021-06-25 11:02:08,980 : INFO : EventManager : Event: ======'balldevice_bd_trough_ejecting_ball'====== Args={'balls': 1, 'target': <ball_device.bd_plunger>, 'source': <ball_device.bd_trough>, 'mechanical_eject': True, 'num_attempts': 0}
2021-06-25 11:02:08,982 : INFO : ball_device.bd_trough : Wait for ball to leave device
2021-06-25 11:02:08,983 : INFO : coil.c_trough_release : Pulsing Driver for 15ms (1.0 pulse_power)
2021-06-25 11:02:08,984 : INFO : SwitchController : <<<<<<< 's_trough1' inactive >>>>>>>
2021-06-25 11:02:09,013 : INFO : ball_device.bd_trough : State: ball_left
2021-06-25 11:02:09,014 : INFO : ball_device.bd_trough : Ball left
2021-06-25 11:02:09,014 : INFO : ball_device.bd_trough : Wait for confirm with timeout 3.0
2021-06-25 11:02:09,075 : INFO : SwitchController : <<<<<<< 's_plunger' active >>>>>>>
2021-06-25 11:02:09,075 : INFO : EventManager : Event: ======'machine_var_audits_switches_s_plunger'====== Args={'value': 89, 'prev_value': 88, 'change': 1}
2021-06-25 11:02:09,579 : INFO : ball_device.bd_plunger : Received ball from <ball_device.bd_trough>
2021-06-25 11:02:09,580 : INFO : EventManager : Event: ======'balldevice_bd_plunger_ball_enter'====== Args={'new_balls': 1, 'unclaimed_balls': 0, 'new_available_balls': 0, 'device': <ball_device.bd_plunger>}
2021-06-25 11:02:09,581 : INFO : EventManager : Event: ======'balldevice_bd_plunger_ball_entered'====== Args={'new_balls': 0, 'device': <ball_device.bd_plunger>}
2021-06-25 11:02:09,582 : INFO : EventManager : Event: ======'balldevice_bd_plunger_ball_count_changed'====== Args={'balls': 1}
2021-06-25 11:02:09,582 : INFO : ball_device.bd_trough : Got eject confirm
2021-06-25 11:02:09,583 : INFO : ball_device.bd_trough : Eject successful
2021-06-25 11:02:09,583 : INFO : EventManager : Event: ======'balldevice_bd_trough_ball_eject_success'====== Args={'balls': 1, 'target': <ball_device.bd_plunger>}
2021-06-25 11:02:09,584 : INFO : EventManager : Event: ======'balldevice_bd_trough_ball_count_changed'====== Args={'balls': 2}
2021-06-25 11:02:09,584 : INFO : ball_device.bd_trough : State: idle
2021-06-25 11:02:09,585 : INFO : ball_device.bd_plunger : State: waiting_for_target_ready
2021-06-25 11:02:09,586 : INFO : EventManager : Event: ======'balldevice_bd_plunger_ball_eject_attempt'====== Args={'balls': 1, 'target': <playfield.playfield>, 'source': <ball_device.bd_plunger>, 'mechanical_eject': True, 'num_attempts': 0}
2021-06-25 11:02:09,586 : INFO : ball_device.bd_plunger : State: ejecting
2021-06-25 11:02:09,587 : INFO : ball_device.bd_plunger : Ejecting ball to <playfield.playfield>
2021-06-25 11:02:09,587 : INFO : EventManager : Event: ======'balldevice_bd_plunger_ejecting_ball'====== Args={'balls': 1, 'target': <playfield.playfield>, 'source': <ball_device.bd_plunger>, 'mechanical_eject': True, 'num_attempts': 0}
2021-06-25 11:02:09,589 : INFO : ball_device.bd_plunger : Wait for ball to leave device
2021-06-25 11:03:37,480 : INFO : Machine : Shutting down...
2021-06-25 11:03:37,480 : INFO : EventManager : Event: ======'shutdown'====== Args={}
2021-06-25 11:03:37,487 : INFO : root : MPF run loop ended.
