2021-06-21 20:44:00,156 : INFO : root : Loading config.
2021-06-21 20:44:00,929 : INFO : ConfigProcessor : Config spec file cache created: C:\Users\MEESTE~1\AppData\Local\Temp\config_spec.mpf_cache
2021-06-21 20:44:00,930 : INFO : YamlMultifileConfigLoader : Machine config file #1: config.yaml
2021-06-21 20:44:00,931 : INFO : ConfigProcessor : Loading config from cache: C:\Users\MEESTE~1\AppData\Local\Temp\edf7552f13d07d8f591673b9e5d0af44.mpf_cache
2021-06-21 20:44:01,091 : INFO : ConfigProcessor : Loading config from cache: C:\Users\MEESTE~1\AppData\Local\Temp\ba565b152e3a424c60da0fc20421189a.mpf_cache
2021-06-21 20:44:01,093 : INFO : ConfigProcessor : Loading config from cache: C:\Users\MEESTE~1\AppData\Local\Temp\b16855f32fa15912a0c8dc3278537500.mpf_cache
2021-06-21 20:44:01,094 : WARNING : ConfigProcessor : Config file in cache changed: C:\MissionPinball\P\modes\base\config\base.yaml
2021-06-21 20:44:01,095 : INFO : ConfigProcessor : Loading config from file C:\MissionPinball\P\modes\base\config\base.yaml.
