2021-06-26 16:42:04,824 : kivy : Factory: 184 symbols loaded
2021-06-26 16:42:05,087 : kivy : ImageLoaderFFPy: Using ffpyplayer 4.3.1
2021-06-26 16:42:05,089 : kivy : Image: Providers: img_tex, img_dds, img_sdl2, img_pil, img_ffpyplayer, img_gif 
2021-06-26 16:42:05,177 : kivy : VideoGstplayer: Using Gstreamer 1.16.0.0
2021-06-26 16:42:05,177 : kivy : Video: Provider: gstplayer
2021-06-26 16:42:05,278 : kivy : Loading MPF-MC controller
2021-06-26 16:42:06,047 : ConfigProcessor : Config spec file cache created: C:\Users\MEESTE~1\AppData\Local\Temp\config_spec.mpf_cache
2021-06-26 16:42:06,048 : YamlMultifileConfigLoader : Machine config file #1: config
2021-06-26 16:42:06,048 : ConfigProcessor : Config file in cache changed: C:\MissionPinball\P\config\config
2021-06-26 16:42:06,048 : ConfigProcessor : Loading config from file c:\mpfenv\lib\site-packages\mpfmc\mcconfig.yaml.
2021-06-26 16:42:06,127 : ConfigProcessor : Loading config: c:\mpfenv\lib\site-packages\mpfmc\mcconfig.yaml
2021-06-26 16:42:06,128 : ConfigProcessor : Loading config from file C:\MissionPinball\P\config\config.
2021-06-26 16:42:06,132 : ConfigProcessor : Loading config: C:\MissionPinball\P\config\config
2021-06-26 16:42:06,254 : ConfigProcessor : Loading config: C:\MissionPinball\P\config\hardware.yaml
2021-06-26 16:42:06,259 : ConfigProcessor : Config file cache created: C:\Users\MEESTE~1\AppData\Local\Temp\7378a4f6b33991d5f3fd6d3ac4fb5d99.mpf_cache
2021-06-26 16:42:06,260 : ConfigProcessor : Loading config from cache: C:\Users\MEESTE~1\AppData\Local\Temp\ba565b152e3a424c60da0fc20421189a.mpf_cache
2021-06-26 16:42:06,261 : ConfigProcessor : Loading config from cache: C:\Users\MEESTE~1\AppData\Local\Temp\b16855f32fa15912a0c8dc3278537500.mpf_cache
2021-06-26 16:42:06,262 : ConfigProcessor : Loading config from cache: C:\Users\MEESTE~1\AppData\Local\Temp\eae5e374fdab94bc8ed9a0f08718cef8.mpf_cache
2021-06-26 16:42:06,263 : mpfmc : Mission Pinball Framework Media Controller v0.54.2
2021-06-26 16:42:06,263 : mpfmc : Mission Pinball Framework Game Engine v0.54.6
2021-06-26 16:42:06,263 : mpfmc : Machine path: C:\MissionPinball\P
2021-06-26 16:42:06,264 : mpfmc : Starting clock at 60.0Hz
2021-06-26 16:42:06,288 : kivy : Text: Provider: sdl2
2021-06-26 16:42:06,364 : kivy : Window: Provider: sdl2
2021-06-26 16:42:07,183 : kivy : GL: Using the "OpenGL" graphics system
2021-06-26 16:42:07,188 : kivy : GL: GLEW initialization succeeded
2021-06-26 16:42:07,188 : kivy : GL: Backend used <glew>
2021-06-26 16:42:07,189 : kivy : GL: OpenGL version <b'4.5.0 NVIDIA 377.11'>
2021-06-26 16:42:07,189 : kivy : GL: OpenGL vendor <b'NVIDIA Corporation'>
2021-06-26 16:42:07,189 : kivy : GL: OpenGL renderer <b'Quadro 1000M/PCIe/SSE2'>
2021-06-26 16:42:07,189 : kivy : GL: OpenGL parsed version: 4, 5
2021-06-26 16:42:07,190 : kivy : GL: Shading version <b'4.50 NVIDIA'>
2021-06-26 16:42:07,190 : kivy : GL: Texture max size <16384>
2021-06-26 16:42:07,190 : kivy : GL: Texture max units <32>
2021-06-26 16:42:07,220 : kivy : Window: auto add sdl2 input provider
2021-06-26 16:42:07,221 : kivy : Window: virtual keyboard not allowed, single mode, not docked
2021-06-26 16:42:07,236 : SoundSystem : SoundSystem: Using default 'sound_system' settings
2021-06-26 16:42:07,723 : AudioInterface : Initialized
2021-06-26 16:42:07,723 : SoundSystem : No audio tracks are specified in your machine config file. a track named 'default' has been created.
2021-06-26 16:42:07,727 : kivy : Base: Start application main loop
2021-06-26 16:42:07,728 : EventManager : Event: ======'display_window_initialized'====== Args={}
2021-06-26 16:42:07,756 : mpfmc : Display: Setting 'window' as default display
2021-06-26 16:42:07,764 : mpfmc : ASPECT RATIO MISMATCH: The on-screen window is not the same aspect ratio as the display called 'window'. The logical display will be scaled from 1024x256 to the window size 800x600, and a black bar will make up the difference
2021-06-26 16:42:07,764 : EventManager : Event: ======'displays_initialized'====== Args={}
2021-06-26 16:42:07,766 : EventManager : Event: ======'slide_window_blank_created'====== Args={}
2021-06-26 16:42:07,766 : EventManager : Event: ======'display_window_ready'====== Args={}
2021-06-26 16:42:07,788 : EventManager : Event: ======'init_phase_1'====== Args={}
2021-06-26 16:42:07,803 : EventManager : Event: ======'mc_ready'====== Args={}
2021-06-26 16:42:07,803 : EventManager : Event: ======'init_phase_2'====== Args={}
2021-06-26 16:42:07,808 : EventManager : Event: ======'init_phase_3'====== Args={}
2021-06-26 16:42:07,809 : AssetManager : Registering Asset: kiss, File: kiss.jpg, Default Group: default, Final Config: {'load': 'preload', 'file': 'C:\\MissionPinball\\P\\images\\kiss.jpg'}
2021-06-26 16:42:07,809 : AssetManager : Registering Asset: logo, File: logo.png, Default Group: default, Final Config: {'load': 'preload', 'file': 'C:\\MissionPinball\\P\\images\\logo.png'}
2021-06-26 16:42:07,809 : AssetManager : Registering Asset: wonderworld, File: wonderworld.png, Default Group: default, Final Config: {'load': 'preload', 'file': 'C:\\MissionPinball\\P\\images\\wonderworld.png'}
2021-06-26 16:42:07,809 : AssetManager : Registering Asset: wonderworld2, File: wonderworld2.png, Default Group: default, Final Config: {'load': 'preload', 'file': 'C:\\MissionPinball\\P\\images\\New folder\\wonderworld2.png'}
2021-06-26 16:42:07,811 : AssetManager : Registering Asset: music, File: music.wav, Default Group: default, Final Config: {'load': 'preload', 'file': 'C:\\MissionPinball\\P\\modes\\base\\sounds\\music\\music.wav'}
2021-06-26 16:42:07,812 : AssetManager : Registering Asset: music2, File: music2.wav, Default Group: default, Final Config: {'load': 'preload', 'file': 'C:\\MissionPinball\\P\\modes\\base\\sounds\\music\\music2.wav'}
2021-06-26 16:42:07,812 : AssetManager : Registering Asset: effect, File: effect.wav, Default Group: default, Final Config: {'load': 'preload', 'file': 'C:\\MissionPinball\\P\\modes\\base\\sounds\\sfx\\effect.wav'}
2021-06-26 16:42:07,812 : AssetManager : Registering Asset: effect2, File: effect2.wav, Default Group: default, Final Config: {'load': 'preload', 'file': 'C:\\MissionPinball\\P\\modes\\base\\sounds\\sfx\\effect2.wav'}
2021-06-26 16:42:07,812 : AssetManager : Registering Asset: hit, File: hit.wav, Default Group: default, Final Config: {'load': 'preload', 'file': 'C:\\MissionPinball\\P\\modes\\base\\sounds\\sfx\\hit.wav'}
2021-06-26 16:42:07,814 : EventManager : Event: ======'init_phase_4'====== Args={}
2021-06-26 16:42:07,814 : EventManager : Event: ======'init_phase_5'====== Args={}
2021-06-26 16:42:07,852 : EventManager : Event: ======'loading_assets'====== Args={'total': 9, 'loaded': 1, 'remaining': 8, 'percent': 11}
2021-06-26 16:42:07,852 : AssetManager : Loading assets: 1/9 (11%)
2021-06-26 16:42:07,867 : kivy : GL: NPOT texture support is available
2021-06-26 16:42:07,875 : kivy : GL: Unpack subimage support is available
2021-06-26 16:42:07,880 : EventManager : Event: ======'loading_assets'====== Args={'total': 9, 'loaded': 9, 'remaining': 0, 'percent': 100}
2021-06-26 16:42:07,880 : AssetManager : Asset loading took: 0.15600895881652832
2021-06-26 16:42:07,880 : EventManager : Event: ======'asset_loading_complete'====== Args={}
2021-06-26 16:42:07,881 : AssetManager : Loading assets: 9/9 (100%)
2021-06-26 16:42:07,881 : EventManager : Event: ======'init_done'====== Args={}
2021-06-26 16:42:07,881 : MPF-MC BCP Server : Starting up on localhost port 5050
2021-06-26 16:42:07,889 : MPF-MC BCP Server : Waiting for a connection...
2021-06-26 16:42:07,889 : mpfmc : SlidePlayer: Play called with settings={'slides': {welcome_slide-None-None: {'priority': None, 'target': None, 'background_color': [0.0, 0.0, 0.0, 1.0], 'show': True, 'force': False, 'expire': None, 'slide': None, 'tokens': {}, 'action': 'play', 'transition': None, 'transition_out': None}}}
2021-06-26 16:42:07,901 : EventManager : Event: ======'slide_welcome_slide_created'====== Args={}
2021-06-26 16:42:07,903 : EventManager : Event: ======'slide_welcome_slide_active'====== Args={}
2021-06-26 16:42:07,922 : EventManager : Event: ======'client_disconnected'====== Args={'host': '127.0.0.1', 'port': 5050}
2021-06-26 16:42:08,929 : MPF-MC BCP Server : Received connection from: 127.0.0.1:63271
2021-06-26 16:42:08,932 : EventManager : Event: ======'client_connected'====== Args={'host': '127.0.0.1', 'port': 63271}
2021-06-26 16:42:08,956 : EventManager : Event: ======'machine_var_credits_string'====== Args={'value': 'FREE PLAY', 'prev_value': None, 'change': True}
2021-06-26 16:42:08,956 : EventManager : Event: ======'machine_var_player1_score'====== Args={'value': 14104, 'prev_value': None, 'change': True}
2021-06-26 16:42:08,956 : EventManager : Event: ======'machine_var_mpf_version'====== Args={'value': 'MPF v0.54.6', 'prev_value': None, 'change': True}
2021-06-26 16:42:08,956 : EventManager : Event: ======'machine_var_mpf_extended_version'====== Args={'value': 'MPF v0.54.6, Config version:5, Show version: 5, BCP version:1.1', 'prev_value': None, 'change': True}
2021-06-26 16:42:08,957 : EventManager : Event: ======'machine_var_python_version'====== Args={'value': '3.7.8', 'prev_value': None, 'change': True}
2021-06-26 16:42:08,957 : EventManager : Event: ======'machine_var_platform'====== Args={'value': 'Windows-7-6.1.7601-SP1', 'prev_value': None, 'change': True}
2021-06-26 16:42:08,957 : EventManager : Event: ======'machine_var_platform_system'====== Args={'value': 'Windows', 'prev_value': None, 'change': True}
2021-06-26 16:42:08,957 : EventManager : Event: ======'machine_var_platform_release'====== Args={'value': '7', 'prev_value': None, 'change': True}
2021-06-26 16:42:08,957 : EventManager : Event: ======'machine_var_platform_version'====== Args={'value': '6.1.7601', 'prev_value': None, 'change': True}
2021-06-26 16:42:08,957 : EventManager : Event: ======'machine_var_platform_machine'====== Args={'value': 'AMD64', 'prev_value': None, 'change': True}
2021-06-26 16:42:08,958 : EventManager : Event: ======'machine_var_mc_version'====== Args={'value': 'MPF-MC v0.54.2', 'prev_value': None, 'change': True}
2021-06-26 16:42:08,958 : EventManager : Event: ======'machine_var_mc_extended_version'====== Args={'value': 'MPF-MC v0.54.2 (config_version=5, BCP v1.1, Requires MPF v0.54.0)', 'prev_value': None, 'change': True}
2021-06-26 16:42:08,958 : EventManager : Event: ======'machine_var_master_volume'====== Args={'value': 0.5, 'prev_value': None, 'change': True}
2021-06-26 16:42:09,053 : EventManager : Event: ======'machine_var_audits_shots_shot_vuk_left'====== Args={'value': 160, 'prev_value': None, 'change': True}
2021-06-26 16:42:09,053 : EventManager : Event: ======'machine_var_audits_switches_s_captive'====== Args={'value': 1, 'prev_value': None, 'change': True}
2021-06-26 16:42:09,053 : EventManager : Event: ======'machine_var_audits_switches_s_cop_left'====== Args={'value': 1, 'prev_value': None, 'change': True}
2021-06-26 16:42:09,054 : EventManager : Event: ======'machine_var_audits_switches_s_cop_middle'====== Args={'value': 1, 'prev_value': None, 'change': True}
2021-06-26 16:42:09,054 : EventManager : Event: ======'machine_var_audits_switches_s_cop_right'====== Args={'value': 1, 'prev_value': None, 'change': True}
2021-06-26 16:42:09,054 : EventManager : Event: ======'machine_var_audits_switches_s_drain'====== Args={'value': 36, 'prev_value': None, 'change': True}
2021-06-26 16:42:09,054 : EventManager : Event: ======'machine_var_audits_switches_s_droptarget_left_1'====== Args={'value': 1, 'prev_value': None, 'change': True}
2021-06-26 16:42:09,054 : EventManager : Event: ======'machine_var_audits_switches_s_droptarget_left_2'====== Args={'value': 1, 'prev_value': None, 'change': True}
2021-06-26 16:42:09,055 : EventManager : Event: ======'machine_var_audits_switches_s_droptarget_left_3'====== Args={'value': 2, 'prev_value': None, 'change': True}
2021-06-26 16:42:09,055 : EventManager : Event: ======'machine_var_audits_switches_s_droptarget_middle_1'====== Args={'value': 0, 'prev_value': None, 'change': True}
2021-06-26 16:42:09,055 : EventManager : Event: ======'machine_var_audits_switches_s_droptarget_middle_2'====== Args={'value': 0, 'prev_value': None, 'change': True}
2021-06-26 16:42:09,055 : EventManager : Event: ======'machine_var_audits_switches_s_droptarget_middle_3'====== Args={'value': 0, 'prev_value': None, 'change': True}
2021-06-26 16:42:09,056 : EventManager : Event: ======'machine_var_audits_switches_s_droptarget_right_1'====== Args={'value': 1, 'prev_value': None, 'change': True}
2021-06-26 16:42:09,056 : EventManager : Event: ======'machine_var_audits_switches_s_droptarget_right_2'====== Args={'value': 3, 'prev_value': None, 'change': True}
2021-06-26 16:42:09,056 : EventManager : Event: ======'machine_var_audits_switches_s_droptarget_right_3'====== Args={'value': 1, 'prev_value': None, 'change': True}
2021-06-26 16:42:09,056 : EventManager : Event: ======'machine_var_audits_switches_s_droptarget_right_4'====== Args={'value': 1, 'prev_value': None, 'change': True}
2021-06-26 16:42:09,056 : EventManager : Event: ======'machine_var_audits_switches_s_droptarget_right_5'====== Args={'value': 2, 'prev_value': None, 'change': True}
2021-06-26 16:42:09,057 : EventManager : Event: ======'machine_var_audits_switches_s_flipper_lane_left'====== Args={'value': 0, 'prev_value': None, 'change': True}
2021-06-26 16:42:09,057 : EventManager : Event: ======'machine_var_audits_switches_s_flipper_lane_right'====== Args={'value': 0, 'prev_value': None, 'change': True}
2021-06-26 16:42:09,065 : EventManager : Event: ======'machine_var_audits_switches_s_flipper_left'====== Args={'value': 0, 'prev_value': None, 'change': True}
2021-06-26 16:42:09,065 : EventManager : Event: ======'machine_var_audits_switches_s_flipper_links'====== Args={'value': 23, 'prev_value': None, 'change': True}
2021-06-26 16:42:09,065 : EventManager : Event: ======'machine_var_audits_switches_s_flipper_rechts'====== Args={'value': 20, 'prev_value': None, 'change': True}
2021-06-26 16:42:09,065 : EventManager : Event: ======'machine_var_audits_switches_s_flipper_right'====== Args={'value': 0, 'prev_value': None, 'change': True}
2021-06-26 16:42:09,065 : EventManager : Event: ======'machine_var_audits_switches_s_foley'====== Args={'value': 101, 'prev_value': None, 'change': True}
2021-06-26 16:42:09,066 : EventManager : Event: ======'machine_var_audits_switches_s_inlane_left'====== Args={'value': 1, 'prev_value': None, 'change': True}
2021-06-26 16:42:09,066 : EventManager : Event: ======'machine_var_audits_switches_s_inlane_right'====== Args={'value': 2, 'prev_value': None, 'change': True}
2021-06-26 16:42:09,066 : EventManager : Event: ======'machine_var_audits_switches_s_kickback'====== Args={'value': 1, 'prev_value': None, 'change': True}
2021-06-26 16:42:09,066 : EventManager : Event: ======'machine_var_audits_switches_s_kickout'====== Args={'value': 1, 'prev_value': None, 'change': True}
2021-06-26 16:42:09,066 : EventManager : Event: ======'machine_var_audits_switches_s_launch_button'====== Args={'value': 45, 'prev_value': None, 'change': True}
2021-06-26 16:42:09,067 : EventManager : Event: ======'machine_var_audits_switches_s_outlane_right'====== Args={'value': 29, 'prev_value': None, 'change': True}
2021-06-26 16:42:09,067 : EventManager : Event: ======'machine_var_audits_switches_s_plunger'====== Args={'value': 90, 'prev_value': None, 'change': True}
2021-06-26 16:42:09,067 : EventManager : Event: ======'machine_var_audits_switches_s_ramp_left'====== Args={'value': 2, 'prev_value': None, 'change': True}
2021-06-26 16:42:09,067 : EventManager : Event: ======'machine_var_audits_switches_s_slingshot_left'====== Args={'value': 0, 'prev_value': None, 'change': True}
2021-06-26 16:42:09,078 : EventManager : Event: ======'machine_var_audits_switches_s_slingshot_right'====== Args={'value': 0, 'prev_value': None, 'change': True}
2021-06-26 16:42:09,078 : EventManager : Event: ======'machine_var_audits_switches_s_spinner'====== Args={'value': 12, 'prev_value': None, 'change': True}
2021-06-26 16:42:09,078 : EventManager : Event: ======'machine_var_audits_switches_s_start'====== Args={'value': 5, 'prev_value': None, 'change': True}
2021-06-26 16:42:09,078 : EventManager : Event: ======'machine_var_audits_switches_s_trough1'====== Args={'value': 54, 'prev_value': None, 'change': True}
2021-06-26 16:42:09,079 : EventManager : Event: ======'machine_var_audits_switches_s_trough2'====== Args={'value': 7, 'prev_value': None, 'change': True}
2021-06-26 16:42:09,079 : EventManager : Event: ======'machine_var_audits_switches_s_trough3'====== Args={'value': 2, 'prev_value': None, 'change': True}
2021-06-26 16:42:09,079 : EventManager : Event: ======'machine_var_audits_switches_s_turbo_left'====== Args={'value': 5, 'prev_value': None, 'change': True}
2021-06-26 16:42:09,079 : EventManager : Event: ======'machine_var_audits_switches_s_turbo_links'====== Args={'value': 1, 'prev_value': None, 'change': True}
2021-06-26 16:42:09,079 : EventManager : Event: ======'machine_var_audits_switches_s_turbo_midden'====== Args={'value': 10, 'prev_value': None, 'change': True}
2021-06-26 16:42:09,080 : EventManager : Event: ======'machine_var_audits_switches_s_turbo_middle'====== Args={'value': 3, 'prev_value': None, 'change': True}
2021-06-26 16:42:09,080 : EventManager : Event: ======'machine_var_audits_switches_s_turbo_rechts'====== Args={'value': 3, 'prev_value': None, 'change': True}
2021-06-26 16:42:09,080 : EventManager : Event: ======'machine_var_audits_switches_s_turbo_right'====== Args={'value': 7, 'prev_value': None, 'change': True}
2021-06-26 16:42:09,080 : EventManager : Event: ======'machine_var_audits_switches_s_vuk_left'====== Args={'value': 160, 'prev_value': None, 'change': True}
2021-06-26 16:42:09,080 : EventManager : Event: ======'machine_var_audits_switches_s_vuk_right'====== Args={'value': 3, 'prev_value': None, 'change': True}
2021-06-26 16:42:09,115 : EventManager : Event: ======'slides_play'====== Args={'settings': {'welcome_slide': {'target': None, 'background_color': [0.0, 0.0, 0.0, 1.0], 'priority': None, 'show': True, 'force': False, 'expire': None, 'slide': None, 'tokens': {}, 'action': 'play'}}, 'context': '_global', 'calling_context': 'init_done', 'priority': 0}
2021-06-26 16:42:09,115 : EventManager : Event: ======'mc_reset_phase_1'====== Args={}
2021-06-26 16:42:09,115 : mpfmc : SlidePlayer: Play called with settings={'welcome_slide': {'target': None, 'background_color': [0.0, 0.0, 0.0, 1.0], 'priority': None, 'show': True, 'force': False, 'expire': None, 'slide': None, 'tokens': {}, 'action': 'play'}}
2021-06-26 16:42:09,116 : EventManager : Event: ======'slide_welcome_slide_removed'====== Args={}
2021-06-26 16:42:09,121 : EventManager : Event: ======'slide_welcome_slide_created'====== Args={}
2021-06-26 16:42:09,122 : EventManager : Event: ======'mc_reset_phase_2'====== Args={}
2021-06-26 16:42:09,122 : EventManager : Event: ======'mc_reset_phase_3'====== Args={}
2021-06-26 16:42:09,122 : EventManager : Event: ======'mc_reset_complete'====== Args={}
2021-06-26 16:42:09,123 : EventManager : Event: ======'slide_welcome_slide_active'====== Args={}
2021-06-26 16:42:09,132 : EventManager : Event: ======'slides_play'====== Args={'settings': {'awesome_slide': {'widgets': [{'type': 'text', 'text': 'PnP Pinball', 'font_size': 50, '_default_settings': ['type', 'text', 'font_size'], 'x': None, 'y': None, 'anchor_x': 'center', 'anchor_y': 'center', 'round_anchor_x': None, 'round_anchor_y': None, 'opacity': 1.0, 'z': 0, 'reset_animations_events': {}, 'color': [1.0, 1.0, 1.0, 1.0], 'style': [], 'adjust_top': 0, 'adjust_bottom': 0, 'adjust_left': 0, 'adjust_right': 0, 'expire': None, 'key': None, 'widget': None, 'events_when_added': [], 'events_when_removed': [], 'bitmap_font': False, 'font_kerning': True, 'bold': False, 'italic': False, 'number_grouping': False, 'min_digits': 0, 'halign': 'center', 'valign': 'middle', 'rotation': 0, 'scale': 1.0, 'casing': None, 'animations': None}], 'transition': {'type': 'push', 'duration': 1.0, 'direction': 'left', 'easing': 'out_quad'}, 'target': None, 'background_color': [0.0, 0.0, 0.0, 1.0], 'priority': None, 'show': True, 'force': False, 'expire': None, 'slide': None, 'tokens': {}, 'action': 'play'}}, 'context': 'show_1', 'calling_context': 0, 'priority': 10, 'show_tokens': {}, 'start_time': 10476.044}
2021-06-26 16:42:09,132 : EventManager : Event: ======'slides_play'====== Args={'settings': {'attract_started': {'target': None, 'background_color': [0.0, 0.0, 0.0, 1.0], 'priority': None, 'show': True, 'force': False, 'expire': None, 'slide': None, 'tokens': {}, 'action': 'play'}}, 'context': '_global', 'calling_context': 'mode_attract_started', 'priority': 0}
2021-06-26 16:42:09,133 : mpfmc : SlidePlayer: Play called with settings={'awesome_slide': {'widgets': [{'type': 'text', 'text': 'PnP Pinball', 'font_size': 50, '_default_settings': ['type', 'text', 'font_size'], 'x': None, 'y': None, 'anchor_x': 'center', 'anchor_y': 'center', 'round_anchor_x': None, 'round_anchor_y': None, 'opacity': 1.0, 'z': 0, 'reset_animations_events': {}, 'color': [1.0, 1.0, 1.0, 1.0], 'style': [], 'adjust_top': 0, 'adjust_bottom': 0, 'adjust_left': 0, 'adjust_right': 0, 'expire': None, 'key': None, 'widget': None, 'events_when_added': [], 'events_when_removed': [], 'bitmap_font': False, 'font_kerning': True, 'bold': False, 'italic': False, 'number_grouping': False, 'min_digits': 0, 'halign': 'center', 'valign': 'middle', 'rotation': 0, 'scale': 1.0, 'casing': None, 'animations': None}], 'transition': {'type': 'push', 'duration': 1.0, 'direction': 'left', 'easing': 'out_quad'}, 'target': None, 'background_color': [0.0, 0.0, 0.0, 1.0], 'priority': None, 'show': True, 'force': False, 'expire': None, 'slide': None, 'tokens': {}, 'action': 'play'}}
2021-06-26 16:42:09,138 : EventManager : Event: ======'slide_awesome_slide_created'====== Args={}
2021-06-26 16:42:09,139 : mpfmc : SlidePlayer: Play called with settings={'attract_started': {'target': None, 'background_color': [0.0, 0.0, 0.0, 1.0], 'priority': None, 'show': True, 'force': False, 'expire': None, 'slide': None, 'tokens': {}, 'action': 'play'}}
2021-06-26 16:42:09,144 : EventManager : Event: ======'slide_attract_started_created'====== Args={}
2021-06-26 16:42:09,147 : EventManager : Event: ======'slide_awesome_slide_active'====== Args={}
2021-06-26 16:42:11,093 : kivy : WindowSDL: exiting mainloop and closing.
2021-06-26 16:42:11,247 : kivy : Base: Leaving application in progress...
2021-06-26 16:42:11,248 : mpfmc : Stopping...
2021-06-26 16:42:11,248 : EventManager : Event: ======'shutdown'====== Args={}
2021-06-26 16:42:11,248 : mpfmc : Loop rate 64.75 Hz
2021-06-26 16:42:11,248 : kivy : MC run loop ended.
2021-06-26 16:42:11,248 : kivy : Stopping child threads... (3 remaining)
2021-06-26 16:42:11,434 : mpfmc : Stopping...
2021-06-26 16:42:11,434 : EventManager : Event: ======'shutdown'====== Args={}
2021-06-26 16:42:11,434 : mpfmc : Loop rate 61.5 Hz
2021-06-26 16:42:11,447 : MPF-MC BCP Server : Stopping BCP sending thread
2021-06-26 16:42:11,949 : kivy : All child threads stopped.
