2021-06-26 16:40:05,804 : INFO : root : Loading config.
2021-06-26 16:40:06,566 : INFO : ConfigProcessor : Config spec file cache created: C:\Users\MEESTE~1\AppData\Local\Temp\config_spec.mpf_cache
2021-06-26 16:40:06,567 : INFO : YamlMultifileConfigLoader : Machine config file #1: config.yaml
2021-06-26 16:40:06,568 : INFO : ConfigProcessor : Loading config from cache: C:\Users\MEESTE~1\AppData\Local\Temp\edf7552f13d07d8f591673b9e5d0af44.mpf_cache
2021-06-26 16:40:06,569 : WARNING : ConfigProcessor : Config file in cache changed: C:\MissionPinball\P\config\hardware.yaml
2021-06-26 16:40:06,570 : INFO : ConfigProcessor : Loading config from file c:\mpfenv\lib\site-packages\mpf\mpfconfig.yaml.
2021-06-26 16:40:06,713 : INFO : ConfigProcessor : Loading config: c:\mpfenv\lib\site-packages\mpf\mpfconfig.yaml
2021-06-26 16:40:06,714 : INFO : ConfigProcessor : Loading config from file C:\MissionPinball\P\config\config.yaml.
2021-06-26 16:40:06,719 : INFO : ConfigProcessor : Loading config: C:\MissionPinball\P\config\config.yaml
2021-06-26 16:40:06,844 : INFO : ConfigProcessor : Loading config: C:\MissionPinball\P\config\hardware.yaml
2021-06-26 16:40:06,850 : INFO : ConfigProcessor : Config file cache created: C:\Users\MEESTE~1\AppData\Local\Temp\edf7552f13d07d8f591673b9e5d0af44.mpf_cache
2021-06-26 16:40:06,965 : INFO : ConfigProcessor : Loading config from cache: C:\Users\MEESTE~1\AppData\Local\Temp\ba565b152e3a424c60da0fc20421189a.mpf_cache
2021-06-26 16:40:06,967 : INFO : ConfigProcessor : Loading config from cache: C:\Users\MEESTE~1\AppData\Local\Temp\b16855f32fa15912a0c8dc3278537500.mpf_cache
2021-06-26 16:40:06,968 : INFO : ConfigProcessor : Loading config from cache: C:\Users\MEESTE~1\AppData\Local\Temp\eae5e374fdab94bc8ed9a0f08718cef8.mpf_cache
2021-06-26 16:40:06,970 : INFO : ConfigProcessor : Loading config from cache: C:\Users\MEESTE~1\AppData\Local\Temp\06d8f51c2a5c542e4abfbd5f3074f24f.mpf_cache
2021-06-26 16:40:06,971 : INFO : ConfigProcessor : Loading config from cache: C:\Users\MEESTE~1\AppData\Local\Temp\05af67a4df65f9c2a0b6133d009717fd.mpf_cache
2021-06-26 16:40:06,972 : INFO : Machine : Mission Pinball Framework Core Engine v0.54.6
2021-06-26 16:40:06,972 : INFO : Machine : Command line arguments: {'no_load_cache': False, 'create_config_cache': True, 'bcp': True, 'configfile': ['config.yaml'], 'force_assets_load': False, 'jsonlogging': False, 'logfile': 'logs\\2021-06-26-16-40-05-mpf-MeesterPieter.log', 'pause': False, 'production': False, 'text_ui': True, 'loglevel': 15, 'consoleloglevel': 20, 'force_platform': 'smart_virtual', 'syslog_address': None, 'mc_file_name': None, 'no_sound': False}
2021-06-26 16:40:06,972 : INFO : Machine : MPF path: c:\mpfenv\lib\site-packages\mpf
2021-06-26 16:40:06,972 : INFO : Machine : Machine path: C:\MissionPinball\P
2021-06-26 16:40:06,972 : INFO : Machine : Platform: win32
2021-06-26 16:40:06,972 : INFO : Machine : Python executable location: c:\mpfenv\scripts\python.exe
2021-06-26 16:40:06,972 : INFO : Machine : Python version: 3.7.8 (64-bit)
2021-06-26 16:40:06,976 : INFO : Machine : Initialise MPF.
2021-06-26 16:40:07,249 : INFO : EventManager : Event: ======'machine_var_credits_string'====== Args={'value': 'FREE PLAY', 'prev_value': None, 'change': True}
2021-06-26 16:40:07,349 : INFO : EventManager : Event: ======'machine_var_player1_score'====== Args={'value': 14104, 'prev_value': None, 'change': True}
2021-06-26 16:40:07,349 : INFO : EventManager : Event: ======'machine_var_mpf_version'====== Args={'value': 'MPF v0.54.6', 'prev_value': None, 'change': True}
2021-06-26 16:40:07,349 : INFO : EventManager : Event: ======'machine_var_mpf_extended_version'====== Args={'value': 'MPF v0.54.6, Config version:5, Show version: 5, BCP version:1.1', 'prev_value': None, 'change': True}
2021-06-26 16:40:07,349 : INFO : EventManager : Event: ======'machine_var_python_version'====== Args={'value': '3.7.8', 'prev_value': None, 'change': True}
2021-06-26 16:40:07,350 : INFO : EventManager : Event: ======'machine_var_platform'====== Args={'value': 'Windows-7-6.1.7601-SP1', 'prev_value': None, 'change': True}
2021-06-26 16:40:07,350 : INFO : EventManager : Event: ======'machine_var_platform_system'====== Args={'value': 'Windows', 'prev_value': None, 'change': True}
2021-06-26 16:40:07,350 : INFO : EventManager : Event: ======'machine_var_platform_release'====== Args={'value': '7', 'prev_value': None, 'change': True}
2021-06-26 16:40:07,350 : INFO : EventManager : Event: ======'machine_var_platform_version'====== Args={'value': '6.1.7601', 'prev_value': None, 'change': True}
2021-06-26 16:40:07,351 : INFO : EventManager : Event: ======'machine_var_platform_machine'====== Args={'value': 'AMD64', 'prev_value': None, 'change': True}
2021-06-26 16:40:07,351 : INFO : EventManager : Event: ======'init_phase_1'====== Args={}
2021-06-26 16:40:07,422 : INFO : EventManager : Event: ======'init_phase_2'====== Args={}
2021-06-26 16:40:07,423 : INFO : SwitchController : Found active switch: ('103', <Platform.SmartVirtual>) <switch.s_trough1>
2021-06-26 16:40:07,423 : INFO : SwitchController : Found active switch: ('104', <Platform.SmartVirtual>) <switch.s_trough2>
2021-06-26 16:40:07,423 : INFO : SwitchController : Found active switch: ('105', <Platform.SmartVirtual>) <switch.s_trough3>
2021-06-26 16:40:07,432 : INFO : EventManager : Event: ======'bcp_connection_attempt'====== Args={'name': 'local_display', 'host': 'localhost', 'port': 5050}
2021-06-26 16:40:07,434 : INFO : BCPClientSocket : Connecting BCP to 'local_display' at localhost:5050...
2021-06-26 16:40:10,563 : INFO : BCPClientSocket : Connected BCP to 'local_display' localhost:5050
2021-06-26 16:40:10,564 : INFO : EventManager : Event: ======'bcp_clients_connected'====== Args={}
2021-06-26 16:40:10,585 : INFO : EventManager : Event: ======'machine_var_mc_version'====== Args={'value': 'MPF-MC v0.54.2', 'prev_value': None, 'change': True}
2021-06-26 16:40:10,585 : INFO : EventManager : Event: ======'machine_var_mc_extended_version'====== Args={'value': 'MPF-MC v0.54.2 (config_version=5, BCP v1.1, Requires MPF v0.54.0)', 'prev_value': None, 'change': True}
2021-06-26 16:40:10,589 : INFO : EventManager : Event: ======'machine_var_master_volume'====== Args={'value': 0.5, 'prev_value': None, 'change': True}
2021-06-26 16:40:10,590 : INFO : ball_device.bd_drain : State: idle
2021-06-26 16:40:10,634 : INFO : ball_device.bd_trough : State: idle
2021-06-26 16:40:10,635 : INFO : ball_device.bd_plunger : State: idle
2021-06-26 16:40:10,636 : INFO : ball_device.bd_vuk_left : State: idle
2021-06-26 16:40:10,637 : INFO : ball_device.bd_vuk_right : State: idle
2021-06-26 16:40:10,638 : INFO : ball_device.bd_kickout : State: idle
2021-06-26 16:40:10,700 : INFO : EventManager : Event: ======'init_phase_3'====== Args={}
2021-06-26 16:40:10,709 : INFO : EventManager : Event: ======'init_phase_4'====== Args={}
2021-06-26 16:40:10,710 : INFO : BallController : Initial balls found: 3
2021-06-26 16:40:10,712 : INFO : EventManager : Event: ======'machine_var_audits_shots_shot_vuk_left'====== Args={'value': 160, 'prev_value': None, 'change': True}
2021-06-26 16:40:10,712 : INFO : EventManager : Event: ======'machine_var_audits_switches_s_captive'====== Args={'value': 1, 'prev_value': None, 'change': True}
2021-06-26 16:40:10,713 : INFO : EventManager : Event: ======'machine_var_audits_switches_s_cop_left'====== Args={'value': 1, 'prev_value': None, 'change': True}
2021-06-26 16:40:10,714 : INFO : EventManager : Event: ======'machine_var_audits_switches_s_cop_middle'====== Args={'value': 1, 'prev_value': None, 'change': True}
2021-06-26 16:40:10,714 : INFO : EventManager : Event: ======'machine_var_audits_switches_s_cop_right'====== Args={'value': 1, 'prev_value': None, 'change': True}
2021-06-26 16:40:10,715 : INFO : EventManager : Event: ======'machine_var_audits_switches_s_drain'====== Args={'value': 36, 'prev_value': None, 'change': True}
2021-06-26 16:40:10,715 : INFO : EventManager : Event: ======'machine_var_audits_switches_s_droptarget_left_1'====== Args={'value': 1, 'prev_value': None, 'change': True}
2021-06-26 16:40:10,716 : INFO : EventManager : Event: ======'machine_var_audits_switches_s_droptarget_left_2'====== Args={'value': 1, 'prev_value': None, 'change': True}
2021-06-26 16:40:10,717 : INFO : EventManager : Event: ======'machine_var_audits_switches_s_droptarget_left_3'====== Args={'value': 2, 'prev_value': None, 'change': True}
2021-06-26 16:40:10,717 : INFO : EventManager : Event: ======'machine_var_audits_switches_s_droptarget_middle_1'====== Args={'value': 0, 'prev_value': None, 'change': True}
2021-06-26 16:40:10,718 : INFO : EventManager : Event: ======'machine_var_audits_switches_s_droptarget_middle_2'====== Args={'value': 0, 'prev_value': None, 'change': True}
2021-06-26 16:40:10,719 : INFO : EventManager : Event: ======'machine_var_audits_switches_s_droptarget_middle_3'====== Args={'value': 0, 'prev_value': None, 'change': True}
2021-06-26 16:40:10,719 : INFO : EventManager : Event: ======'machine_var_audits_switches_s_droptarget_right_1'====== Args={'value': 1, 'prev_value': None, 'change': True}
2021-06-26 16:40:10,720 : INFO : EventManager : Event: ======'machine_var_audits_switches_s_droptarget_right_2'====== Args={'value': 3, 'prev_value': None, 'change': True}
2021-06-26 16:40:10,721 : INFO : EventManager : Event: ======'machine_var_audits_switches_s_droptarget_right_3'====== Args={'value': 1, 'prev_value': None, 'change': True}
2021-06-26 16:40:10,721 : INFO : EventManager : Event: ======'machine_var_audits_switches_s_droptarget_right_4'====== Args={'value': 1, 'prev_value': None, 'change': True}
2021-06-26 16:40:10,722 : INFO : EventManager : Event: ======'machine_var_audits_switches_s_droptarget_right_5'====== Args={'value': 2, 'prev_value': None, 'change': True}
2021-06-26 16:40:10,723 : INFO : EventManager : Event: ======'machine_var_audits_switches_s_flipper_lane_left'====== Args={'value': 0, 'prev_value': None, 'change': True}
2021-06-26 16:40:10,723 : INFO : EventManager : Event: ======'machine_var_audits_switches_s_flipper_lane_right'====== Args={'value': 0, 'prev_value': None, 'change': True}
2021-06-26 16:40:10,724 : INFO : EventManager : Event: ======'machine_var_audits_switches_s_flipper_left'====== Args={'value': 0, 'prev_value': None, 'change': True}
2021-06-26 16:40:10,725 : INFO : EventManager : Event: ======'machine_var_audits_switches_s_flipper_links'====== Args={'value': 23, 'prev_value': None, 'change': True}
2021-06-26 16:40:10,725 : INFO : EventManager : Event: ======'machine_var_audits_switches_s_flipper_rechts'====== Args={'value': 20, 'prev_value': None, 'change': True}
2021-06-26 16:40:10,726 : INFO : EventManager : Event: ======'machine_var_audits_switches_s_flipper_right'====== Args={'value': 0, 'prev_value': None, 'change': True}
2021-06-26 16:40:10,727 : INFO : EventManager : Event: ======'machine_var_audits_switches_s_foley'====== Args={'value': 101, 'prev_value': None, 'change': True}
2021-06-26 16:40:10,728 : INFO : EventManager : Event: ======'machine_var_audits_switches_s_inlane_left'====== Args={'value': 1, 'prev_value': None, 'change': True}
2021-06-26 16:40:10,728 : INFO : EventManager : Event: ======'machine_var_audits_switches_s_inlane_right'====== Args={'value': 2, 'prev_value': None, 'change': True}
2021-06-26 16:40:10,729 : INFO : EventManager : Event: ======'machine_var_audits_switches_s_kickback'====== Args={'value': 1, 'prev_value': None, 'change': True}
2021-06-26 16:40:10,730 : INFO : EventManager : Event: ======'machine_var_audits_switches_s_kickout'====== Args={'value': 1, 'prev_value': None, 'change': True}
2021-06-26 16:40:10,731 : INFO : EventManager : Event: ======'machine_var_audits_switches_s_launch_button'====== Args={'value': 45, 'prev_value': None, 'change': True}
2021-06-26 16:40:10,731 : INFO : EventManager : Event: ======'machine_var_audits_switches_s_outlane_right'====== Args={'value': 29, 'prev_value': None, 'change': True}
2021-06-26 16:40:10,732 : INFO : EventManager : Event: ======'machine_var_audits_switches_s_plunger'====== Args={'value': 90, 'prev_value': None, 'change': True}
2021-06-26 16:40:10,733 : INFO : EventManager : Event: ======'machine_var_audits_switches_s_ramp_left'====== Args={'value': 2, 'prev_value': None, 'change': True}
2021-06-26 16:40:10,734 : INFO : EventManager : Event: ======'machine_var_audits_switches_s_slingshot_left'====== Args={'value': 0, 'prev_value': None, 'change': True}
2021-06-26 16:40:10,735 : INFO : EventManager : Event: ======'machine_var_audits_switches_s_slingshot_right'====== Args={'value': 0, 'prev_value': None, 'change': True}
2021-06-26 16:40:10,735 : INFO : EventManager : Event: ======'machine_var_audits_switches_s_spinner'====== Args={'value': 12, 'prev_value': None, 'change': True}
2021-06-26 16:40:10,736 : INFO : EventManager : Event: ======'machine_var_audits_switches_s_start'====== Args={'value': 5, 'prev_value': None, 'change': True}
2021-06-26 16:40:10,737 : INFO : EventManager : Event: ======'machine_var_audits_switches_s_trough1'====== Args={'value': 54, 'prev_value': None, 'change': True}
2021-06-26 16:40:10,738 : INFO : EventManager : Event: ======'machine_var_audits_switches_s_trough2'====== Args={'value': 7, 'prev_value': None, 'change': True}
2021-06-26 16:40:10,739 : INFO : EventManager : Event: ======'machine_var_audits_switches_s_trough3'====== Args={'value': 2, 'prev_value': None, 'change': True}
2021-06-26 16:40:10,739 : INFO : EventManager : Event: ======'machine_var_audits_switches_s_turbo_left'====== Args={'value': 5, 'prev_value': None, 'change': True}
2021-06-26 16:40:10,740 : INFO : EventManager : Event: ======'machine_var_audits_switches_s_turbo_links'====== Args={'value': 1, 'prev_value': None, 'change': True}
2021-06-26 16:40:10,741 : INFO : EventManager : Event: ======'machine_var_audits_switches_s_turbo_midden'====== Args={'value': 10, 'prev_value': None, 'change': True}
2021-06-26 16:40:10,742 : INFO : EventManager : Event: ======'machine_var_audits_switches_s_turbo_middle'====== Args={'value': 3, 'prev_value': None, 'change': True}
2021-06-26 16:40:10,743 : INFO : EventManager : Event: ======'machine_var_audits_switches_s_turbo_rechts'====== Args={'value': 3, 'prev_value': None, 'change': True}
2021-06-26 16:40:10,744 : INFO : EventManager : Event: ======'machine_var_audits_switches_s_turbo_right'====== Args={'value': 7, 'prev_value': None, 'change': True}
2021-06-26 16:40:10,744 : INFO : EventManager : Event: ======'machine_var_audits_switches_s_vuk_left'====== Args={'value': 160, 'prev_value': None, 'change': True}
2021-06-26 16:40:10,745 : INFO : EventManager : Event: ======'machine_var_audits_switches_s_vuk_right'====== Args={'value': 3, 'prev_value': None, 'change': True}
2021-06-26 16:40:10,747 : INFO : EventManager : Event: ======'init_phase_5'====== Args={}
2021-06-26 16:40:10,775 : INFO : EventManager : Event: ======'init_done'====== Args={}
2021-06-26 16:40:10,776 : INFO : EventManager : Event: ======'machine_reset_phase_1'====== Args={}
2021-06-26 16:40:10,786 : INFO : EventManager : Event: ======'slide_welcome_slide_removed'====== Args={'_from_bcp': True}
2021-06-26 16:40:10,787 : INFO : EventManager : Event: ======'slide_welcome_slide_created'====== Args={'_from_bcp': True}
2021-06-26 16:40:10,788 : INFO : EventManager : Event: ======'machine_reset_phase_2'====== Args={}
2021-06-26 16:40:10,789 : INFO : EventManager : Event: ======'machine_reset_phase_3'====== Args={}
2021-06-26 16:40:10,789 : INFO : EventManager : Event: ======'reset_complete'====== Args={}
2021-06-26 16:40:10,789 : INFO : EventManager : Event: ======'mode_attract_will_start'====== Args={}
2021-06-26 16:40:10,790 : INFO : EventManager : Event: ======'mode_attract_starting'====== Args={}
2021-06-26 16:40:10,790 : INFO : Mode.attract : Started. Priority: 10
2021-06-26 16:40:10,790 : INFO : EventManager : Event: ======'modes_active_modes_changed'====== Args={}
2021-06-26 16:40:10,791 : INFO : EventManager : Event: ======'mode_attract_started'====== Args={}
2021-06-26 16:40:10,793 : INFO : EventManager : Event: ======'collecting_balls_complete'====== Args={}
2021-06-26 16:40:10,843 : INFO : EventManager : Event: ======'slide_welcome_slide_active'====== Args={'_from_bcp': True}
2021-06-26 16:40:10,844 : INFO : EventManager : Event: ======'slide_awesome_slide_created'====== Args={'_from_bcp': True}
2021-06-26 16:40:10,844 : INFO : EventManager : Event: ======'slide_attract_started_created'====== Args={'_from_bcp': True}
2021-06-26 16:40:10,845 : INFO : EventManager : Event: ======'slide_awesome_slide_active'====== Args={'_from_bcp': True}
2021-06-26 16:40:10,845 : INFO : Machine : Starting the main run loop.
2021-06-26 16:40:11,143 : INFO : BcpServer : New client connected.
2021-06-26 16:40:13,800 : INFO : EventManager : Event: ======'slide_press_start_created'====== Args={'_from_bcp': True}
2021-06-26 16:40:13,802 : INFO : EventManager : Event: ======'slide_press_start_active'====== Args={'_from_bcp': True}
2021-06-26 16:40:15,088 : INFO : Machine : Shutting down...
2021-06-26 16:40:15,088 : INFO : EventManager : Event: ======'shutdown'====== Args={}
2021-06-26 16:40:15,096 : INFO : root : MPF run loop ended.
