2021-06-21 21:19:02,274 : INFO : root : Loading config.
2021-06-21 21:19:03,056 : INFO : ConfigProcessor : Config spec file cache created: C:\Users\MEESTE~1\AppData\Local\Temp\config_spec.mpf_cache
2021-06-21 21:19:03,056 : INFO : YamlMultifileConfigLoader : Machine config file #1: config.yaml
2021-06-21 21:19:03,057 : INFO : ConfigProcessor : Loading config from cache: C:\Users\MEESTE~1\AppData\Local\Temp\edf7552f13d07d8f591673b9e5d0af44.mpf_cache
2021-06-21 21:19:03,218 : INFO : ConfigProcessor : Loading config from cache: C:\Users\MEESTE~1\AppData\Local\Temp\ba565b152e3a424c60da0fc20421189a.mpf_cache
2021-06-21 21:19:03,220 : INFO : ConfigProcessor : Loading config from cache: C:\Users\MEESTE~1\AppData\Local\Temp\b16855f32fa15912a0c8dc3278537500.mpf_cache
2021-06-21 21:19:03,221 : INFO : ConfigProcessor : Loading config from cache: C:\Users\MEESTE~1\AppData\Local\Temp\eae5e374fdab94bc8ed9a0f08718cef8.mpf_cache
2021-06-21 21:19:03,222 : INFO : ConfigProcessor : Loading config from cache: C:\Users\MEESTE~1\AppData\Local\Temp\06d8f51c2a5c542e4abfbd5f3074f24f.mpf_cache
2021-06-21 21:19:03,223 : INFO : ConfigProcessor : Loading config from cache: C:\Users\MEESTE~1\AppData\Local\Temp\05af67a4df65f9c2a0b6133d009717fd.mpf_cache
2021-06-21 21:19:03,224 : INFO : Machine : Mission Pinball Framework Core Engine v0.54.6
2021-06-21 21:19:03,224 : INFO : Machine : Command line arguments: {'no_load_cache': False, 'create_config_cache': True, 'bcp': True, 'configfile': ['config.yaml'], 'force_assets_load': False, 'jsonlogging': False, 'logfile': 'logs\\2021-06-21-21-19-02-mpf-MeesterPieter.log', 'pause': False, 'production': False, 'text_ui': True, 'loglevel': 15, 'consoleloglevel': 20, 'force_platform': None, 'syslog_address': None, 'mc_file_name': None, 'no_sound': False}
2021-06-21 21:19:03,224 : INFO : Machine : MPF path: c:\mpfenv\lib\site-packages\mpf
2021-06-21 21:19:03,225 : INFO : Machine : Machine path: C:\MissionPinball\P
2021-06-21 21:19:03,225 : INFO : Machine : Platform: win32
2021-06-21 21:19:03,225 : INFO : Machine : Python executable location: c:\mpfenv\scripts\python.exe
2021-06-21 21:19:03,225 : INFO : Machine : Python version: 3.7.8 (64-bit)
2021-06-21 21:19:03,228 : INFO : Machine : Initialise MPF.
2021-06-21 21:19:03,509 : INFO : EventManager : Event: ======'machine_var_credits_string'====== Args={'value': 'FREE PLAY', 'prev_value': None, 'change': True}
2021-06-21 21:19:03,618 : INFO : EventManager : Event: ======'machine_var_player1_score'====== Args={'value': 6778, 'prev_value': None, 'change': True}
2021-06-21 21:19:03,618 : INFO : EventManager : Event: ======'machine_var_mpf_version'====== Args={'value': 'MPF v0.54.6', 'prev_value': None, 'change': True}
2021-06-21 21:19:03,618 : INFO : EventManager : Event: ======'machine_var_mpf_extended_version'====== Args={'value': 'MPF v0.54.6, Config version:5, Show version: 5, BCP version:1.1', 'prev_value': None, 'change': True}
2021-06-21 21:19:03,618 : INFO : EventManager : Event: ======'machine_var_python_version'====== Args={'value': '3.7.8', 'prev_value': None, 'change': True}
2021-06-21 21:19:03,619 : INFO : EventManager : Event: ======'machine_var_platform'====== Args={'value': 'Windows-7-6.1.7601-SP1', 'prev_value': None, 'change': True}
2021-06-21 21:19:03,619 : INFO : EventManager : Event: ======'machine_var_platform_system'====== Args={'value': 'Windows', 'prev_value': None, 'change': True}
2021-06-21 21:19:03,619 : INFO : EventManager : Event: ======'machine_var_platform_release'====== Args={'value': '7', 'prev_value': None, 'change': True}
2021-06-21 21:19:03,619 : INFO : EventManager : Event: ======'machine_var_platform_version'====== Args={'value': '6.1.7601', 'prev_value': None, 'change': True}
2021-06-21 21:19:03,619 : INFO : EventManager : Event: ======'machine_var_platform_machine'====== Args={'value': 'AMD64', 'prev_value': None, 'change': True}
2021-06-21 21:19:03,619 : INFO : EventManager : Event: ======'init_phase_1'====== Args={}
2021-06-21 21:19:03,683 : INFO : EventManager : Event: ======'init_phase_2'====== Args={}
2021-06-21 21:19:03,684 : INFO : SwitchController : Found active switch: ('103', <Platform.SmartVirtual>) <switch.s_trough1>
2021-06-21 21:19:03,684 : INFO : SwitchController : Found active switch: ('104', <Platform.SmartVirtual>) <switch.s_trough2>
2021-06-21 21:19:03,684 : INFO : SwitchController : Found active switch: ('105', <Platform.SmartVirtual>) <switch.s_trough3>
2021-06-21 21:19:03,695 : INFO : EventManager : Event: ======'bcp_connection_attempt'====== Args={'name': 'local_display', 'host': 'localhost', 'port': 5050}
2021-06-21 21:19:03,697 : INFO : BCPClientSocket : Connecting BCP to 'local_display' at localhost:5050...
2021-06-21 21:19:06,860 : INFO : BCPClientSocket : Connected BCP to 'local_display' localhost:5050
2021-06-21 21:19:06,861 : INFO : EventManager : Event: ======'bcp_clients_connected'====== Args={}
2021-06-21 21:19:06,880 : INFO : EventManager : Event: ======'machine_var_mc_version'====== Args={'value': 'MPF-MC v0.54.2', 'prev_value': None, 'change': True}
2021-06-21 21:19:06,881 : INFO : EventManager : Event: ======'machine_var_mc_extended_version'====== Args={'value': 'MPF-MC v0.54.2 (config_version=5, BCP v1.1, Requires MPF v0.54.0)', 'prev_value': None, 'change': True}
2021-06-21 21:19:06,884 : INFO : EventManager : Event: ======'machine_var_master_volume'====== Args={'value': 0.5, 'prev_value': None, 'change': True}
2021-06-21 21:19:06,885 : INFO : ball_device.bd_drain : State: idle
2021-06-21 21:19:06,923 : INFO : ball_device.bd_trough : State: idle
2021-06-21 21:19:06,924 : INFO : ball_device.bd_plunger : State: idle
2021-06-21 21:19:06,925 : INFO : ball_device.bd_vuk_left : State: idle
2021-06-21 21:19:06,926 : INFO : ball_device.bd_vuk_right : State: idle
2021-06-21 21:19:06,927 : INFO : ball_device.bd_kickout : State: idle
2021-06-21 21:19:06,959 : INFO : EventManager : Event: ======'init_phase_3'====== Args={}
2021-06-21 21:19:06,968 : INFO : EventManager : Event: ======'init_phase_4'====== Args={}
2021-06-21 21:19:06,968 : INFO : BallController : Initial balls found: 3
2021-06-21 21:19:06,970 : INFO : EventManager : Event: ======'machine_var_audits_shots_shot_vuk_left'====== Args={'value': 25, 'prev_value': None, 'change': True}
2021-06-21 21:19:06,971 : INFO : EventManager : Event: ======'machine_var_audits_switches_s_cop_left'====== Args={'value': 1, 'prev_value': None, 'change': True}
2021-06-21 21:19:06,971 : INFO : EventManager : Event: ======'machine_var_audits_switches_s_cop_middle'====== Args={'value': 1, 'prev_value': None, 'change': True}
2021-06-21 21:19:06,972 : INFO : EventManager : Event: ======'machine_var_audits_switches_s_cop_right'====== Args={'value': 1, 'prev_value': None, 'change': True}
2021-06-21 21:19:06,972 : INFO : EventManager : Event: ======'machine_var_audits_switches_s_drain'====== Args={'value': 32, 'prev_value': None, 'change': True}
2021-06-21 21:19:06,973 : INFO : EventManager : Event: ======'machine_var_audits_switches_s_droptarget_left_1'====== Args={'value': 1, 'prev_value': None, 'change': True}
2021-06-21 21:19:06,974 : INFO : EventManager : Event: ======'machine_var_audits_switches_s_droptarget_left_2'====== Args={'value': 1, 'prev_value': None, 'change': True}
2021-06-21 21:19:06,974 : INFO : EventManager : Event: ======'machine_var_audits_switches_s_droptarget_left_3'====== Args={'value': 1, 'prev_value': None, 'change': True}
2021-06-21 21:19:06,975 : INFO : EventManager : Event: ======'machine_var_audits_switches_s_droptarget_middle_1'====== Args={'value': 0, 'prev_value': None, 'change': True}
2021-06-21 21:19:06,975 : INFO : EventManager : Event: ======'machine_var_audits_switches_s_droptarget_middle_2'====== Args={'value': 0, 'prev_value': None, 'change': True}
2021-06-21 21:19:06,976 : INFO : EventManager : Event: ======'machine_var_audits_switches_s_droptarget_middle_3'====== Args={'value': 0, 'prev_value': None, 'change': True}
2021-06-21 21:19:06,977 : INFO : EventManager : Event: ======'machine_var_audits_switches_s_droptarget_right_1'====== Args={'value': 1, 'prev_value': None, 'change': True}
2021-06-21 21:19:06,977 : INFO : EventManager : Event: ======'machine_var_audits_switches_s_droptarget_right_2'====== Args={'value': 3, 'prev_value': None, 'change': True}
2021-06-21 21:19:06,978 : INFO : EventManager : Event: ======'machine_var_audits_switches_s_droptarget_right_3'====== Args={'value': 1, 'prev_value': None, 'change': True}
2021-06-21 21:19:06,979 : INFO : EventManager : Event: ======'machine_var_audits_switches_s_droptarget_right_4'====== Args={'value': 1, 'prev_value': None, 'change': True}
2021-06-21 21:19:06,980 : INFO : EventManager : Event: ======'machine_var_audits_switches_s_droptarget_right_5'====== Args={'value': 1, 'prev_value': None, 'change': True}
2021-06-21 21:19:06,980 : INFO : EventManager : Event: ======'machine_var_audits_switches_s_flipper_lane_left'====== Args={'value': 0, 'prev_value': None, 'change': True}
2021-06-21 21:19:06,981 : INFO : EventManager : Event: ======'machine_var_audits_switches_s_flipper_lane_right'====== Args={'value': 0, 'prev_value': None, 'change': True}
2021-06-21 21:19:06,982 : INFO : EventManager : Event: ======'machine_var_audits_switches_s_flipper_left'====== Args={'value': 0, 'prev_value': None, 'change': True}
2021-06-21 21:19:06,982 : INFO : EventManager : Event: ======'machine_var_audits_switches_s_flipper_links'====== Args={'value': 23, 'prev_value': None, 'change': True}
2021-06-21 21:19:06,983 : INFO : EventManager : Event: ======'machine_var_audits_switches_s_flipper_rechts'====== Args={'value': 20, 'prev_value': None, 'change': True}
2021-06-21 21:19:06,984 : INFO : EventManager : Event: ======'machine_var_audits_switches_s_flipper_right'====== Args={'value': 0, 'prev_value': None, 'change': True}
2021-06-21 21:19:06,985 : INFO : EventManager : Event: ======'machine_var_audits_switches_s_foley'====== Args={'value': 76, 'prev_value': None, 'change': True}
2021-06-21 21:19:06,985 : INFO : EventManager : Event: ======'machine_var_audits_switches_s_inlane_left'====== Args={'value': 1, 'prev_value': None, 'change': True}
2021-06-21 21:19:06,986 : INFO : EventManager : Event: ======'machine_var_audits_switches_s_inlane_right'====== Args={'value': 1, 'prev_value': None, 'change': True}
2021-06-21 21:19:06,987 : INFO : EventManager : Event: ======'machine_var_audits_switches_s_kickback'====== Args={'value': 1, 'prev_value': None, 'change': True}
2021-06-21 21:19:06,987 : INFO : EventManager : Event: ======'machine_var_audits_switches_s_kickout'====== Args={'value': 1, 'prev_value': None, 'change': True}
2021-06-21 21:19:06,988 : INFO : EventManager : Event: ======'machine_var_audits_switches_s_launch_button'====== Args={'value': 40, 'prev_value': None, 'change': True}
2021-06-21 21:19:06,989 : INFO : EventManager : Event: ======'machine_var_audits_switches_s_outlane_right'====== Args={'value': 28, 'prev_value': None, 'change': True}
2021-06-21 21:19:06,990 : INFO : EventManager : Event: ======'machine_var_audits_switches_s_plunger'====== Args={'value': 75, 'prev_value': None, 'change': True}
2021-06-21 21:19:06,991 : INFO : EventManager : Event: ======'machine_var_audits_switches_s_ramp_left'====== Args={'value': 2, 'prev_value': None, 'change': True}
2021-06-21 21:19:06,991 : INFO : EventManager : Event: ======'machine_var_audits_switches_s_slingshot_left'====== Args={'value': 0, 'prev_value': None, 'change': True}
2021-06-21 21:19:06,992 : INFO : EventManager : Event: ======'machine_var_audits_switches_s_slingshot_right'====== Args={'value': 0, 'prev_value': None, 'change': True}
2021-06-21 21:19:06,993 : INFO : EventManager : Event: ======'machine_var_audits_switches_s_spinner'====== Args={'value': 6, 'prev_value': None, 'change': True}
2021-06-21 21:19:06,994 : INFO : EventManager : Event: ======'machine_var_audits_switches_s_start'====== Args={'value': 5, 'prev_value': None, 'change': True}
2021-06-21 21:19:06,995 : INFO : EventManager : Event: ======'machine_var_audits_switches_s_trough1'====== Args={'value': 51, 'prev_value': None, 'change': True}
2021-06-21 21:19:06,995 : INFO : EventManager : Event: ======'machine_var_audits_switches_s_trough2'====== Args={'value': 7, 'prev_value': None, 'change': True}
2021-06-21 21:19:06,996 : INFO : EventManager : Event: ======'machine_var_audits_switches_s_trough3'====== Args={'value': 2, 'prev_value': None, 'change': True}
2021-06-21 21:19:06,997 : INFO : EventManager : Event: ======'machine_var_audits_switches_s_turbo_left'====== Args={'value': 2, 'prev_value': None, 'change': True}
2021-06-21 21:19:06,998 : INFO : EventManager : Event: ======'machine_var_audits_switches_s_turbo_links'====== Args={'value': 1, 'prev_value': None, 'change': True}
2021-06-21 21:19:06,999 : INFO : EventManager : Event: ======'machine_var_audits_switches_s_turbo_midden'====== Args={'value': 10, 'prev_value': None, 'change': True}
2021-06-21 21:19:07,000 : INFO : EventManager : Event: ======'machine_var_audits_switches_s_turbo_middle'====== Args={'value': 2, 'prev_value': None, 'change': True}
2021-06-21 21:19:07,001 : INFO : EventManager : Event: ======'machine_var_audits_switches_s_turbo_rechts'====== Args={'value': 3, 'prev_value': None, 'change': True}
2021-06-21 21:19:07,001 : INFO : EventManager : Event: ======'machine_var_audits_switches_s_turbo_right'====== Args={'value': 2, 'prev_value': None, 'change': True}
2021-06-21 21:19:07,002 : INFO : EventManager : Event: ======'machine_var_audits_switches_s_vuk_left'====== Args={'value': 25, 'prev_value': None, 'change': True}
2021-06-21 21:19:07,003 : INFO : EventManager : Event: ======'machine_var_audits_switches_s_vuk_right'====== Args={'value': 3, 'prev_value': None, 'change': True}
2021-06-21 21:19:07,004 : INFO : EventManager : Event: ======'init_phase_5'====== Args={}
2021-06-21 21:19:07,032 : INFO : EventManager : Event: ======'init_done'====== Args={}
2021-06-21 21:19:07,033 : INFO : EventManager : Event: ======'machine_reset_phase_1'====== Args={}
2021-06-21 21:19:07,033 : INFO : BcpServer : New client connected.
2021-06-21 21:19:07,043 : INFO : EventManager : Event: ======'slide_welcome_slide_removed'====== Args={'_from_bcp': True}
2021-06-21 21:19:07,048 : INFO : EventManager : Event: ======'slide_welcome_slide_created'====== Args={'_from_bcp': True}
2021-06-21 21:19:07,050 : INFO : EventManager : Event: ======'machine_reset_phase_2'====== Args={}
2021-06-21 21:19:07,051 : INFO : EventManager : Event: ======'machine_reset_phase_3'====== Args={}
2021-06-21 21:19:07,051 : INFO : EventManager : Event: ======'reset_complete'====== Args={}
2021-06-21 21:19:07,052 : INFO : EventManager : Event: ======'mode_attract_will_start'====== Args={}
2021-06-21 21:19:07,054 : INFO : EventManager : Event: ======'mode_attract_starting'====== Args={}
2021-06-21 21:19:07,055 : INFO : Mode.attract : Started. Priority: 10
2021-06-21 21:19:07,055 : INFO : EventManager : Event: ======'modes_active_modes_changed'====== Args={}
2021-06-21 21:19:07,055 : INFO : EventManager : Event: ======'mode_attract_started'====== Args={}
2021-06-21 21:19:07,058 : INFO : EventManager : Event: ======'collecting_balls_complete'====== Args={}
2021-06-21 21:19:07,059 : INFO : EventManager : Event: ======'slide_welcome_slide_active'====== Args={'_from_bcp': True}
2021-06-21 21:19:07,109 : INFO : EventManager : Event: ======'slide_awesome_slide_created'====== Args={'_from_bcp': True}
2021-06-21 21:19:07,110 : INFO : EventManager : Event: ======'slide_attract_started_created'====== Args={'_from_bcp': True}
2021-06-21 21:19:07,110 : INFO : EventManager : Event: ======'slide_awesome_slide_active'====== Args={'_from_bcp': True}
2021-06-21 21:19:07,111 : INFO : Machine : Starting the main run loop.
2021-06-21 21:19:09,774 : INFO : SwitchController : <<<<<<< 's_start' active >>>>>>>
2021-06-21 21:19:09,823 : INFO : SwitchController : <<<<<<< 's_start' inactive >>>>>>>
2021-06-21 21:19:09,823 : INFO : EventManager : Event: ======'request_to_start_game'====== Args={}
2021-06-21 21:19:09,824 : INFO : EventManager : Event: ======'game_start'====== Args={'buttons': [], 'hold_time': 0.046999999998661224}
2021-06-21 21:19:09,824 : INFO : EventManager : Event: ======'mode_game_will_start'====== Args={'buttons': [], 'hold_time': 0.046999999998661224}
2021-06-21 21:19:09,826 : INFO : EventManager : Event: ======'mode_game_starting'====== Args={'buttons': [], 'hold_time': 0.046999999998661224}
2021-06-21 21:19:09,826 : INFO : EventManager : Event: ======'mode_attract_will_stop'====== Args={}
2021-06-21 21:19:09,827 : INFO : EventManager : Event: ======'mode_attract_stopping'====== Args={}
2021-06-21 21:19:09,827 : INFO : Mode.attract : Stopped.
2021-06-21 21:19:09,827 : INFO : EventManager : Event: ======'modes_active_modes_changed'====== Args={}
2021-06-21 21:19:09,828 : INFO : EventManager : Event: ======'mode_attract_stopped'====== Args={}
2021-06-21 21:19:09,829 : INFO : EventManager : Event: ======'clear'====== Args={'key': 'attract'}
2021-06-21 21:19:09,830 : INFO : Mode.game : Started. Priority: 20
2021-06-21 21:19:09,830 : INFO : EventManager : Event: ======'modes_active_modes_changed'====== Args={}
2021-06-21 21:19:09,830 : INFO : EventManager : Event: ======'mode_game_started'====== Args={'buttons': [], 'hold_time': 0.046999999998661224}
2021-06-21 21:19:09,847 : INFO : EventManager : Event: ======'game_will_start'====== Args={}
2021-06-21 21:19:09,848 : INFO : EventManager : Event: ======'slide_awesome_slide_removed'====== Args={'_from_bcp': True}
2021-06-21 21:19:09,848 : INFO : EventManager : Event: ======'slide_attract_started_active'====== Args={'_from_bcp': True}
2021-06-21 21:19:09,849 : INFO : EventManager : Event: ======'game_starting'====== Args={'game': <Mode.game>}
2021-06-21 21:19:09,850 : INFO : EventManager : Event: ======'player_add_request'====== Args={}
2021-06-21 21:19:09,850 : INFO : EventManager : Event: ======'player_will_add'====== Args={'number': 1}
2021-06-21 21:19:09,851 : INFO : EventManager : Event: ======'player_adding'====== Args={'player': <Player 1>, 'number': 1}
2021-06-21 21:19:09,851 : INFO : EventManager : Event: ======'player_added'====== Args={'player': <Player 1>, 'num': 1}
2021-06-21 21:19:09,852 : INFO : Mode.game : Player added successfully. Total players: 1
2021-06-21 21:19:09,852 : INFO : EventManager : Event: ======'player_index'====== Args={'value': 0, 'prev_value': 0, 'change': 0, 'player_num': 1}
2021-06-21 21:19:09,853 : INFO : EventManager : Event: ======'player_number'====== Args={'value': 1, 'prev_value': 1, 'change': 0, 'player_num': 1}
2021-06-21 21:19:09,854 : INFO : EventManager : Event: ======'player_score'====== Args={'value': 0, 'prev_value': 0, 'change': 0, 'player_num': 1}
2021-06-21 21:19:09,855 : INFO : EventManager : Event: ======'game_started'====== Args={}
2021-06-21 21:19:09,877 : INFO : EventManager : Event: ======'player_turn_will_start'====== Args={'player': <Player 1>, 'number': 1}
2021-06-21 21:19:09,878 : INFO : EventManager : Event: ======'player_turn_starting'====== Args={'player': <Player 1>, 'number': 1}
2021-06-21 21:19:09,878 : INFO : EventManager : Event: ======'player_ball'====== Args={'value': 1, 'prev_value': 0, 'change': 1, 'player_num': 1}
2021-06-21 21:19:09,879 : INFO : EventManager : Event: ======'player_turn_started'====== Args={'player': <Player 1>, 'number': 1}
2021-06-21 21:19:09,880 : INFO : EventManager : Event: ======'ball_will_start'====== Args={'player': 1, 'ball': 1, 'balls_remaining': 2, 'is_extra_ball': False}
2021-06-21 21:19:09,893 : INFO : EventManager : Event: ======'ball_starting'====== Args={'player': 1, 'ball': 1, 'balls_remaining': 2, 'is_extra_ball': False}
2021-06-21 21:19:09,894 : INFO : EventManager : Event: ======'balls_in_play'====== Args={'balls': 1}
2021-06-21 21:19:09,894 : INFO : EventManager : Event: ======'ball_started'====== Args={'player': 1, 'ball': 1, 'balls_remaining': 2, 'is_extra_ball': False}
2021-06-21 21:19:09,895 : INFO : EventManager : Event: ======'mode_base_will_start'====== Args={'player': 1, 'ball': 1, 'balls_remaining': 2, 'is_extra_ball': False}
2021-06-21 21:19:09,896 : INFO : EventManager : Event: ======'player_shot_shot_vuk_left_enabled'====== Args={'value': True, 'prev_value': 0, 'change': 1, 'player_num': 1}
2021-06-21 21:19:09,901 : INFO : EventManager : Event: ======'mode_base_starting'====== Args={'player': 1, 'ball': 1, 'balls_remaining': 2, 'is_extra_ball': False}
2021-06-21 21:19:09,904 : INFO : Mode.base : Started. Priority: 100
2021-06-21 21:19:09,904 : INFO : EventManager : Event: ======'modes_active_modes_changed'====== Args={}
2021-06-21 21:19:09,904 : INFO : EventManager : Event: ======'mode_base_started'====== Args={'player': 1, 'ball': 1, 'balls_remaining': 2, 'is_extra_ball': False}
2021-06-21 21:19:09,906 : INFO : EventManager : Event: ======'single_player_ball_started'====== Args={}
2021-06-21 21:19:09,950 : INFO : ball_device.bd_plunger : Setting up player-controlled eject. Balls: 1, Target: <playfield.playfield>, player_controlled_eject_event: s_launch_button_active
2021-06-21 21:19:09,951 : INFO : EventManager : Event: ======'balldevice_balls_available'====== Args={}
2021-06-21 21:19:09,951 : INFO : EventManager : Event: ======'slide_base.slide_player-mode_base_started_created'====== Args={'_from_bcp': True}
2021-06-21 21:19:09,952 : INFO : ball_device.bd_trough : State: waiting_for_target_ready
2021-06-21 21:19:09,953 : INFO : EventManager : Event: ======'balldevice_bd_trough_ball_eject_attempt'====== Args={'balls': 1, 'target': <ball_device.bd_plunger>, 'source': <ball_device.bd_trough>, 'mechanical_eject': True, 'num_attempts': 0}
2021-06-21 21:19:09,953 : INFO : ball_device.bd_plunger : State: waiting_for_ball
2021-06-21 21:19:09,954 : INFO : ball_device.bd_trough : State: ejecting
2021-06-21 21:19:09,955 : INFO : ball_device.bd_trough : Ejecting ball to <ball_device.bd_plunger>
2021-06-21 21:19:09,955 : INFO : EventManager : Event: ======'balldevice_bd_trough_ejecting_ball'====== Args={'balls': 1, 'target': <ball_device.bd_plunger>, 'source': <ball_device.bd_trough>, 'mechanical_eject': True, 'num_attempts': 0}
2021-06-21 21:19:09,956 : INFO : EventManager : Event: ======'slide_base.slide_player-mode_base_started_active'====== Args={'_from_bcp': True}
2021-06-21 21:19:09,957 : INFO : ball_device.bd_trough : Wait for ball to leave device
2021-06-21 21:19:09,958 : INFO : coil.c_trough_release : Pulsing Driver for 15ms (1.0 pulse_power)
2021-06-21 21:19:09,959 : INFO : SwitchController : <<<<<<< 's_trough1' inactive >>>>>>>
2021-06-21 21:19:09,976 : INFO : ball_device.bd_trough : State: ball_left
2021-06-21 21:19:09,977 : INFO : ball_device.bd_trough : Ball left
2021-06-21 21:19:09,977 : INFO : ball_device.bd_trough : Wait for confirm with timeout 3.0
2021-06-21 21:19:10,057 : INFO : SwitchController : <<<<<<< 's_plunger' active >>>>>>>
2021-06-21 21:19:10,057 : INFO : EventManager : Event: ======'machine_var_audits_switches_s_plunger'====== Args={'value': 76, 'prev_value': 75, 'change': 1}
2021-06-21 21:19:10,568 : INFO : ball_device.bd_plunger : Received ball from <ball_device.bd_trough>
2021-06-21 21:19:10,568 : INFO : EventManager : Event: ======'balldevice_bd_plunger_ball_enter'====== Args={'new_balls': 1, 'unclaimed_balls': 0, 'new_available_balls': 0, 'device': <ball_device.bd_plunger>}
2021-06-21 21:19:10,569 : INFO : EventManager : Event: ======'balldevice_bd_plunger_ball_entered'====== Args={'new_balls': 0, 'device': <ball_device.bd_plunger>}
2021-06-21 21:19:10,570 : INFO : EventManager : Event: ======'balldevice_bd_plunger_ball_count_changed'====== Args={'balls': 1}
2021-06-21 21:19:10,571 : INFO : ball_device.bd_trough : Got eject confirm
2021-06-21 21:19:10,571 : INFO : ball_device.bd_trough : Eject successful
2021-06-21 21:19:10,571 : INFO : EventManager : Event: ======'balldevice_bd_trough_ball_eject_success'====== Args={'balls': 1, 'target': <ball_device.bd_plunger>}
2021-06-21 21:19:10,572 : INFO : EventManager : Event: ======'balldevice_bd_trough_ball_count_changed'====== Args={'balls': 2}
2021-06-21 21:19:10,573 : INFO : ball_device.bd_trough : State: idle
2021-06-21 21:19:10,573 : INFO : ball_device.bd_plunger : State: waiting_for_target_ready
2021-06-21 21:19:10,574 : INFO : EventManager : Event: ======'balldevice_bd_plunger_ball_eject_attempt'====== Args={'balls': 1, 'target': <playfield.playfield>, 'source': <ball_device.bd_plunger>, 'mechanical_eject': True, 'num_attempts': 0}
2021-06-21 21:19:10,574 : INFO : ball_device.bd_plunger : State: ejecting
2021-06-21 21:19:10,575 : INFO : ball_device.bd_plunger : Ejecting ball to <playfield.playfield>
2021-06-21 21:19:10,575 : INFO : EventManager : Event: ======'balldevice_bd_plunger_ejecting_ball'====== Args={'balls': 1, 'target': <playfield.playfield>, 'source': <ball_device.bd_plunger>, 'mechanical_eject': True, 'num_attempts': 0}
2021-06-21 21:19:10,577 : INFO : ball_device.bd_plunger : Wait for ball to leave device
2021-06-21 21:30:12,363 : INFO : Machine : Shutting down...
2021-06-21 21:30:12,363 : INFO : EventManager : Event: ======'shutdown'====== Args={}
2021-06-21 21:30:12,372 : INFO : root : MPF run loop ended.
