2022-04-10 11:42:49,406 : kivy : Factory: 186 symbols loaded
2022-04-10 11:42:49,703 : kivy : ImageLoaderFFPy: Using ffpyplayer 4.3.2
2022-04-10 11:42:49,703 : kivy : Image: Providers: img_tex, img_dds, img_sdl2, img_pil, img_ffpyplayer 
2022-04-10 11:42:49,774 : kivy : VideoGstplayer: Using Gstreamer 1.18.0.0
2022-04-10 11:42:49,774 : kivy : Video: Provider: gstplayer
2022-04-10 11:42:49,993 : kivy : Loading MPF-MC controller
2022-04-10 11:42:50,807 : ConfigProcessor : Config spec file cache created: C:\Users\MEESTE~1\AppData\Local\Temp\config_spec.mpf_cache
2022-04-10 11:42:50,807 : YamlMultifileConfigLoader : Machine config file #1: config
2022-04-10 11:42:50,808 : ConfigProcessor : Config file in cache changed: C:\MissionPinball\pnp\config\config
2022-04-10 11:42:50,808 : ConfigProcessor : Loading config from file c:\mpfenv\lib\site-packages\mpfmc\mcconfig.yaml.
2022-04-10 11:42:50,886 : ConfigProcessor : Loading config: c:\mpfenv\lib\site-packages\mpfmc\mcconfig.yaml
2022-04-10 11:42:50,887 : ConfigProcessor : Loading config from file C:\MissionPinball\pnp\config\config.
2022-04-10 11:42:50,904 : ConfigProcessor : Loading config: C:\MissionPinball\pnp\config\config
2022-04-10 11:42:51,049 : ConfigProcessor : Loading config: C:\MissionPinball\pnp\config\hardware.yaml
2022-04-10 11:42:51,054 : ConfigProcessor : Config file cache created: C:\Users\MEESTE~1\AppData\Local\Temp\f1b1ba3a6508ce0fd98dd9419837ec77.mpf_cache
2022-04-10 11:42:51,055 : ConfigProcessor : Loading config from cache: C:\Users\MEESTE~1\AppData\Local\Temp\67dd6918687bfedec306007a472007ee.mpf_cache
2022-04-10 11:42:51,056 : ConfigProcessor : Loading config from cache: C:\Users\MEESTE~1\AppData\Local\Temp\b16855f32fa15912a0c8dc3278537500.mpf_cache
2022-04-10 11:42:51,057 : ConfigProcessor : Loading config from cache: C:\Users\MEESTE~1\AppData\Local\Temp\92215af4dd7e20683270ecff1545a54c.mpf_cache
2022-04-10 11:42:51,058 : mpfmc : Mission Pinball Framework Media Controller v0.55.0
2022-04-10 11:42:51,058 : mpfmc : Mission Pinball Framework Game Engine v0.55.0
2022-04-10 11:42:51,059 : mpfmc : Machine path: C:\MissionPinball\pnp
2022-04-10 11:42:51,059 : mpfmc : Starting clock at 60.0Hz
2022-04-10 11:42:51,077 : kivy : Text: Provider: sdl2
2022-04-10 11:42:51,136 : kivy : Window: Provider: sdl2
2022-04-10 11:42:51,875 : kivy : GL: Using the "OpenGL" graphics system
2022-04-10 11:42:51,877 : kivy : GL: GLEW initialization succeeded
2022-04-10 11:42:51,878 : kivy : GL: Backend used <glew>
2022-04-10 11:42:51,878 : kivy : GL: OpenGL version <b'4.5.0 NVIDIA 377.11'>
2022-04-10 11:42:51,878 : kivy : GL: OpenGL vendor <b'NVIDIA Corporation'>
2022-04-10 11:42:51,878 : kivy : GL: OpenGL renderer <b'Quadro 1000M/PCIe/SSE2'>
2022-04-10 11:42:51,878 : kivy : GL: OpenGL parsed version: 4, 5
2022-04-10 11:42:51,879 : kivy : GL: Shading version <b'4.50 NVIDIA'>
2022-04-10 11:42:51,879 : kivy : GL: Texture max size <16384>
2022-04-10 11:42:51,879 : kivy : GL: Texture max units <32>
2022-04-10 11:42:51,909 : kivy : Window: auto add sdl2 input provider
2022-04-10 11:42:51,910 : kivy : Window: virtual keyboard not allowed, single mode, not docked
2022-04-10 11:42:52,254 : AudioInterface : Initialized
2022-04-10 11:42:52,254 : AudioInterface : Loaded SDL 2.0.12
2022-04-10 11:42:52,254 : AudioInterface : Loaded SDL_Mixer 2.0.4
2022-04-10 11:42:52,254 : AudioInterface : Loaded GStreamer 1.18.0.0
2022-04-10 11:42:52,254 : AudioInterface : Loaded GLib 2.62.6
2022-04-10 11:42:52,255 : AudioInterface : Settings requested - rate: 44100, channels: 1, buffer: 2048 samples
2022-04-10 11:42:52,255 : AudioInterface : Settings in use - rate: 44100, channels: 1, buffer: 2048 samples (4096 bytes @ 2 bytes per sample)
2022-04-10 11:42:52,256 : SoundSystem : Setting master volume to 0.0
2022-04-10 11:42:52,256 : SoundSystem : master_volume in sound_system is deprecated and will be removed in the future.
2022-04-10 11:42:52,256 : AudioInterface : Enabling audio playback
2022-04-10 11:42:52,259 : kivy : Base: Start application main loop
2022-04-10 11:42:52,260 : EventManager : Event: ======'display_window_initialized'====== Args={}
2022-04-10 11:42:52,277 : mpfmc : Display: Setting 'window' as default display
2022-04-10 11:42:52,284 : mpfmc : ASPECT RATIO MISMATCH: The on-screen window is not the same aspect ratio as the display called 'window'. The logical display will be scaled from 1024x256 to the window size 800x600, and a black bar will make up the difference
2022-04-10 11:42:52,284 : EventManager : Event: ======'displays_initialized'====== Args={}
2022-04-10 11:42:52,286 : EventManager : Event: ======'slide_window_blank_created'====== Args={}
2022-04-10 11:42:52,286 : EventManager : Event: ======'display_window_ready'====== Args={}
2022-04-10 11:42:52,299 : EventManager : Event: ======'init_phase_1'====== Args={}
2022-04-10 11:42:52,311 : EventManager : Event: ======'mc_ready'====== Args={}
2022-04-10 11:42:52,312 : EventManager : Event: ======'init_phase_2'====== Args={}
2022-04-10 11:42:52,317 : EventManager : Event: ======'init_phase_3'====== Args={}
2022-04-10 11:42:52,322 : EventManager : Event: ======'init_phase_4'====== Args={}
2022-04-10 11:42:52,322 : EventManager : Event: ======'init_phase_5'====== Args={}
2022-04-10 11:42:52,349 : kivy : GL: NPOT texture support is available
2022-04-10 11:42:52,349 : EventManager : Event: ======'loading_assets'====== Args={'total': 4, 'loaded': 1, 'remaining': 3, 'percent': 25}
2022-04-10 11:42:52,350 : AssetManager : Loading assets: 1/4 (25%)
2022-04-10 11:42:52,353 : kivy : GL: Unpack subimage support is available
2022-04-10 11:42:52,354 : EventManager : Event: ======'loading_assets'====== Args={'total': 4, 'loaded': 4, 'remaining': 0, 'percent': 100}
2022-04-10 11:42:52,355 : AssetManager : Asset loading took: 0.09900569915771484
2022-04-10 11:42:52,355 : EventManager : Event: ======'asset_loading_complete'====== Args={}
2022-04-10 11:42:52,355 : AssetManager : Loading assets: 4/4 (100%)
2022-04-10 11:42:52,355 : EventManager : Event: ======'init_done'====== Args={}
2022-04-10 11:42:52,355 : MPF-MC BCP Server : Starting up on localhost port 5050
2022-04-10 11:42:52,359 : MPF-MC BCP Server : Waiting for a connection...
2022-04-10 11:42:52,360 : mpfmc : SlidePlayer: Play called with settings={'slides': {welcome_slide-None-None: {'priority': None, 'target': None, 'background_color': [0.0, 0.0, 0.0, 1.0], 'show': True, 'force': False, 'expire': None, 'slide': None, 'tokens': {}, 'action': 'play', 'transition': None, 'transition_out': None}}}
2022-04-10 11:42:52,370 : EventManager : Event: ======'slide_welcome_slide_created'====== Args={}
2022-04-10 11:42:52,371 : EventManager : Event: ======'slide_welcome_slide_active'====== Args={}
2022-04-10 11:42:52,377 : EventManager : Event: ======'client_disconnected'====== Args={'host': '127.0.0.1', 'port': 5050}
2022-04-10 11:42:52,451 : MPF-MC BCP Server : Received connection from: 127.0.0.1:52230
2022-04-10 11:42:52,453 : EventManager : Event: ======'client_connected'====== Args={'host': '127.0.0.1', 'port': 52230}
2022-04-10 11:42:52,478 : EventManager : Event: ======'machine_var_credits_string'====== Args={'value': 'FREE PLAY', 'prev_value': None, 'change': True}
2022-04-10 11:42:52,478 : EventManager : Event: ======'machine_var_master_volume'====== Args={'value': 0.5, 'prev_value': None, 'change': True}
2022-04-10 11:42:52,478 : EventManager : Event: ======'machine_var_player1_score'====== Args={'value': 11609, 'prev_value': None, 'change': True}
2022-04-10 11:42:52,478 : EventManager : Event: ======'machine_var_mpf_version'====== Args={'value': 'MPF v0.55.0', 'prev_value': None, 'change': True}
2022-04-10 11:42:52,478 : EventManager : Event: ======'machine_var_mpf_extended_version'====== Args={'value': 'MPF v0.55.0, Config version:5, Show version: 5, BCP version:1.1', 'prev_value': None, 'change': True}
2022-04-10 11:42:52,479 : EventManager : Event: ======'machine_var_python_version'====== Args={'value': '3.7.8', 'prev_value': None, 'change': True}
2022-04-10 11:42:52,479 : EventManager : Event: ======'machine_var_platform'====== Args={'value': 'Windows-7-6.1.7601-SP1', 'prev_value': None, 'change': True}
2022-04-10 11:42:52,479 : EventManager : Event: ======'machine_var_platform_system'====== Args={'value': 'Windows', 'prev_value': None, 'change': True}
2022-04-10 11:42:52,479 : EventManager : Event: ======'machine_var_platform_release'====== Args={'value': '7', 'prev_value': None, 'change': True}
2022-04-10 11:42:52,479 : EventManager : Event: ======'machine_var_platform_version'====== Args={'value': '6.1.7601', 'prev_value': None, 'change': True}
2022-04-10 11:42:52,479 : EventManager : Event: ======'machine_var_platform_machine'====== Args={'value': 'AMD64', 'prev_value': None, 'change': True}
2022-04-10 11:42:52,480 : EventManager : Event: ======'machine_var_mc_version'====== Args={'value': 'MPF-MC v0.55.0', 'prev_value': None, 'change': True}
2022-04-10 11:42:52,480 : EventManager : Event: ======'machine_var_mc_extended_version'====== Args={'value': 'MPF-MC v0.55.0 (config_version=5, BCP v1.1, Requires MPF v0.55.0-dev.49)', 'prev_value': None, 'change': True}
2022-04-10 11:42:52,480 : SoundSystem : Setting master volume to 0.5
2022-04-10 11:42:52,568 : EventManager : Event: ======'machine_var_audits_events_game_ended'====== Args={'value': 0, 'prev_value': None, 'change': True}
2022-04-10 11:42:52,580 : EventManager : Event: ======'machine_var_audits_events_game_started'====== Args={'value': 0, 'prev_value': None, 'change': True}
2022-04-10 11:42:52,580 : EventManager : Event: ======'machine_var_audits_player_score'====== Args={'value': {'average': 12041.25, 'top': [24015, 12501, 11609, 40], 'total': 4}, 'prev_value': None, 'change': True}
2022-04-10 11:42:52,580 : EventManager : Event: ======'machine_var_audits_shots_shot_droptarget_middle_1'====== Args={'value': 3, 'prev_value': None, 'change': True}
2022-04-10 11:42:52,580 : EventManager : Event: ======'machine_var_audits_shots_shot_droptarget_middle_2'====== Args={'value': 3, 'prev_value': None, 'change': True}
2022-04-10 11:42:52,580 : EventManager : Event: ======'machine_var_audits_shots_shot_droptarget_middle_3'====== Args={'value': 6, 'prev_value': None, 'change': True}
2022-04-10 11:42:52,580 : EventManager : Event: ======'machine_var_audits_shots_shot_inlane_right'====== Args={'value': 40, 'prev_value': None, 'change': True}
2022-04-10 11:42:52,581 : EventManager : Event: ======'machine_var_audits_shots_shot_vuk_left'====== Args={'value': 208, 'prev_value': None, 'change': True}
2022-04-10 11:42:52,581 : EventManager : Event: ======'machine_var_audits_switches_s_captive'====== Args={'value': 1, 'prev_value': None, 'change': True}
2022-04-10 11:42:52,581 : EventManager : Event: ======'machine_var_audits_switches_s_cop_left'====== Args={'value': 10, 'prev_value': None, 'change': True}
2022-04-10 11:42:52,581 : EventManager : Event: ======'machine_var_audits_switches_s_cop_middle'====== Args={'value': 10, 'prev_value': None, 'change': True}
2022-04-10 11:42:52,581 : EventManager : Event: ======'machine_var_audits_switches_s_cop_right'====== Args={'value': 10, 'prev_value': None, 'change': True}
2022-04-10 11:42:52,581 : EventManager : Event: ======'machine_var_audits_switches_s_drain'====== Args={'value': 95, 'prev_value': None, 'change': True}
2022-04-10 11:42:52,581 : EventManager : Event: ======'machine_var_audits_switches_s_droptarget_left_1'====== Args={'value': 15, 'prev_value': None, 'change': True}
2022-04-10 11:42:52,582 : EventManager : Event: ======'machine_var_audits_switches_s_droptarget_left_2'====== Args={'value': 15, 'prev_value': None, 'change': True}
2022-04-10 11:42:52,582 : EventManager : Event: ======'machine_var_audits_switches_s_droptarget_left_3'====== Args={'value': 170, 'prev_value': None, 'change': True}
2022-04-10 11:42:52,582 : EventManager : Event: ======'machine_var_audits_switches_s_droptarget_middle_1'====== Args={'value': 88, 'prev_value': None, 'change': True}
2022-04-10 11:42:52,582 : EventManager : Event: ======'machine_var_audits_switches_s_droptarget_middle_2'====== Args={'value': 16, 'prev_value': None, 'change': True}
2022-04-10 11:42:52,583 : EventManager : Event: ======'machine_var_audits_switches_s_droptarget_middle_3'====== Args={'value': 13, 'prev_value': None, 'change': True}
2022-04-10 11:42:52,583 : EventManager : Event: ======'machine_var_audits_switches_s_droptarget_right_1'====== Args={'value': 17, 'prev_value': None, 'change': True}
2022-04-10 11:42:52,583 : EventManager : Event: ======'machine_var_audits_switches_s_droptarget_right_2'====== Args={'value': 29, 'prev_value': None, 'change': True}
2022-04-10 11:42:52,583 : EventManager : Event: ======'machine_var_audits_switches_s_droptarget_right_3'====== Args={'value': 78, 'prev_value': None, 'change': True}
2022-04-10 11:42:52,583 : EventManager : Event: ======'machine_var_audits_switches_s_droptarget_right_4'====== Args={'value': 19, 'prev_value': None, 'change': True}
2022-04-10 11:42:52,593 : EventManager : Event: ======'machine_var_audits_switches_s_droptarget_right_5'====== Args={'value': 12, 'prev_value': None, 'change': True}
2022-04-10 11:42:52,593 : EventManager : Event: ======'machine_var_audits_switches_s_flipper_lane_left'====== Args={'value': 0, 'prev_value': None, 'change': True}
2022-04-10 11:42:52,593 : EventManager : Event: ======'machine_var_audits_switches_s_flipper_lane_right'====== Args={'value': 0, 'prev_value': None, 'change': True}
2022-04-10 11:42:52,593 : EventManager : Event: ======'machine_var_audits_switches_s_flipper_left'====== Args={'value': 187, 'prev_value': None, 'change': True}
2022-04-10 11:42:52,593 : EventManager : Event: ======'machine_var_audits_switches_s_flipper_links'====== Args={'value': 23, 'prev_value': None, 'change': True}
2022-04-10 11:42:52,593 : EventManager : Event: ======'machine_var_audits_switches_s_flipper_rechts'====== Args={'value': 20, 'prev_value': None, 'change': True}
2022-04-10 11:42:52,594 : EventManager : Event: ======'machine_var_audits_switches_s_flipper_right'====== Args={'value': 113, 'prev_value': None, 'change': True}
2022-04-10 11:42:52,594 : EventManager : Event: ======'machine_var_audits_switches_s_foley'====== Args={'value': 215, 'prev_value': None, 'change': True}
2022-04-10 11:42:52,594 : EventManager : Event: ======'machine_var_audits_switches_s_inlane_left'====== Args={'value': 14, 'prev_value': None, 'change': True}
2022-04-10 11:42:52,594 : EventManager : Event: ======'machine_var_audits_switches_s_inlane_right'====== Args={'value': 70, 'prev_value': None, 'change': True}
2022-04-10 11:42:52,594 : EventManager : Event: ======'machine_var_audits_switches_s_kickback'====== Args={'value': 119, 'prev_value': None, 'change': True}
2022-04-10 11:42:52,595 : EventManager : Event: ======'machine_var_audits_switches_s_kickout'====== Args={'value': 8, 'prev_value': None, 'change': True}
2022-04-10 11:42:52,595 : EventManager : Event: ======'machine_var_audits_switches_s_launch_button'====== Args={'value': 72, 'prev_value': None, 'change': True}
2022-04-10 11:42:52,595 : EventManager : Event: ======'machine_var_audits_switches_s_outlane_right'====== Args={'value': 47, 'prev_value': None, 'change': True}
2022-04-10 11:42:52,595 : EventManager : Event: ======'machine_var_audits_switches_s_plunger'====== Args={'value': 260, 'prev_value': None, 'change': True}
2022-04-10 11:42:52,605 : EventManager : Event: ======'machine_var_audits_switches_s_ramp_left'====== Args={'value': 32, 'prev_value': None, 'change': True}
2022-04-10 11:42:52,605 : EventManager : Event: ======'machine_var_audits_switches_s_ramp_right'====== Args={'value': 25, 'prev_value': None, 'change': True}
2022-04-10 11:42:52,605 : EventManager : Event: ======'machine_var_audits_switches_s_scoop'====== Args={'value': 63, 'prev_value': None, 'change': True}
2022-04-10 11:42:52,605 : EventManager : Event: ======'machine_var_audits_switches_s_slingshot_left'====== Args={'value': 84, 'prev_value': None, 'change': True}
2022-04-10 11:42:52,605 : EventManager : Event: ======'machine_var_audits_switches_s_slingshot_right'====== Args={'value': 91, 'prev_value': None, 'change': True}
2022-04-10 11:42:52,605 : EventManager : Event: ======'machine_var_audits_switches_s_spinner'====== Args={'value': 30, 'prev_value': None, 'change': True}
2022-04-10 11:42:52,606 : EventManager : Event: ======'machine_var_audits_switches_s_start'====== Args={'value': 48, 'prev_value': None, 'change': True}
2022-04-10 11:42:52,606 : EventManager : Event: ======'machine_var_audits_switches_s_subway'====== Args={'value': 7, 'prev_value': None, 'change': True}
2022-04-10 11:42:52,606 : EventManager : Event: ======'machine_var_audits_switches_s_trough1'====== Args={'value': 102, 'prev_value': None, 'change': True}
2022-04-10 11:42:52,606 : EventManager : Event: ======'machine_var_audits_switches_s_trough2'====== Args={'value': 47, 'prev_value': None, 'change': True}
2022-04-10 11:42:52,607 : EventManager : Event: ======'machine_var_audits_switches_s_trough3'====== Args={'value': 20, 'prev_value': None, 'change': True}
2022-04-10 11:42:52,607 : EventManager : Event: ======'machine_var_audits_switches_s_turbo_left'====== Args={'value': 85, 'prev_value': None, 'change': True}
2022-04-10 11:42:52,607 : EventManager : Event: ======'machine_var_audits_switches_s_turbo_links'====== Args={'value': 1, 'prev_value': None, 'change': True}
2022-04-10 11:42:52,607 : EventManager : Event: ======'machine_var_audits_switches_s_turbo_midden'====== Args={'value': 10, 'prev_value': None, 'change': True}
2022-04-10 11:42:52,617 : EventManager : Event: ======'machine_var_audits_switches_s_turbo_middle'====== Args={'value': 67, 'prev_value': None, 'change': True}
2022-04-10 11:42:52,617 : EventManager : Event: ======'machine_var_audits_switches_s_turbo_rechts'====== Args={'value': 3, 'prev_value': None, 'change': True}
2022-04-10 11:42:52,617 : EventManager : Event: ======'machine_var_audits_switches_s_turbo_right'====== Args={'value': 70, 'prev_value': None, 'change': True}
2022-04-10 11:42:52,617 : EventManager : Event: ======'machine_var_audits_switches_s_vuk_left'====== Args={'value': 208, 'prev_value': None, 'change': True}
2022-04-10 11:42:52,617 : EventManager : Event: ======'machine_var_audits_switches_s_vuk_right'====== Args={'value': 99, 'prev_value': None, 'change': True}
2022-04-10 11:42:52,669 : EventManager : Event: ======'slides_play'====== Args={'settings': {'welcome_slide': {'target': None, 'background_color': [0.0, 0.0, 0.0, 1.0], 'priority': None, 'show': True, 'force': False, 'expire': None, 'slide': None, 'tokens': {}, 'action': 'play'}}, 'context': '_global', 'calling_context': 'init_done', 'priority': 0}
2022-04-10 11:42:52,669 : EventManager : Event: ======'mc_reset_phase_1'====== Args={}
2022-04-10 11:42:52,669 : mpfmc : SlidePlayer: Play called with settings={'welcome_slide': {'target': None, 'background_color': [0.0, 0.0, 0.0, 1.0], 'priority': None, 'show': True, 'force': False, 'expire': None, 'slide': None, 'tokens': {}, 'action': 'play'}}
2022-04-10 11:42:52,670 : EventManager : Event: ======'slide_welcome_slide_removed'====== Args={}
2022-04-10 11:42:52,674 : EventManager : Event: ======'slide_welcome_slide_created'====== Args={}
2022-04-10 11:42:52,675 : EventManager : Event: ======'mc_reset_phase_2'====== Args={}
2022-04-10 11:42:52,676 : EventManager : Event: ======'mc_reset_phase_3'====== Args={}
2022-04-10 11:42:52,676 : EventManager : Event: ======'mc_reset_complete'====== Args={}
2022-04-10 11:42:52,676 : EventManager : Event: ======'slide_welcome_slide_active'====== Args={}
2022-04-10 11:42:52,692 : EventManager : Event: ======'slides_play'====== Args={'settings': {'awesome_slide': {'widgets': [{'type': 'text', 'text': 'PnP Pinball', 'font_size': 50, '_default_settings': ['type', 'text', 'font_size'], 'x': None, 'y': None, 'anchor_x': 'center', 'anchor_y': 'center', 'round_anchor_x': None, 'round_anchor_y': None, 'opacity': 1.0, 'z': 0, 'reset_animations_events': {}, 'color': [1.0, 1.0, 1.0, 1.0], 'style': [], 'adjust_top': 0, 'adjust_bottom': 0, 'adjust_left': 0, 'adjust_right': 0, 'expire': None, 'key': None, 'widget': None, 'events_when_added': [], 'events_when_removed': [], 'bitmap_font': False, 'font_kerning': True, 'bold': False, 'italic': False, 'number_grouping': False, 'min_digits': 0, 'halign': 'center', 'valign': 'middle', 'rotation': 0, 'scale': 1.0, 'casing': None, 'animations': None}], 'transition': {'type': 'push', 'duration': 1.0, 'direction': 'left', 'easing': 'out_quad'}, 'target': None, 'background_color': [0.0, 0.0, 0.0, 1.0], 'priority': None, 'show': True, 'force': False, 'expire': None, 'slide': None, 'tokens': {}, 'action': 'play'}}, 'context': 'show_1', 'calling_context': 0, 'priority': 10, 'show_tokens': {}, 'start_time': 14409.952}
2022-04-10 11:42:52,692 : EventManager : Event: ======'sounds_play'====== Args={'settings': {'attract_music': {'action': 'play', 'loops': -1, 'volume': 0.7, 'priority': None, 'block': False, 'delay': None, 'track': None, 'pan': None, 'start_at': None, 'fade_in': None, 'fade_out': None, 'about_to_finish_time': -1.0, 'max_queue_time': -1.0, 'events_when_played': ['use_sound_setting'], 'events_when_stopped': ['use_sound_setting'], 'events_when_looping': ['use_sound_setting'], 'events_when_about_to_finish': ['use_sound_setting'], 'mode_end_action': 'use_sound_setting', 'key': 'use_sound_setting'}}, 'context': '_global', 'calling_context': 'mode_attract_started', 'priority': 0}
2022-04-10 11:42:52,692 : EventManager : Event: ======'slides_play'====== Args={'settings': {'attract_started': {'target': None, 'background_color': [0.0, 0.0, 0.0, 1.0], 'priority': None, 'show': True, 'force': False, 'expire': None, 'slide': None, 'tokens': {}, 'action': 'play'}}, 'context': '_global', 'calling_context': 'mode_attract_started', 'priority': 0}
2022-04-10 11:42:52,692 : mpfmc : SlidePlayer: Play called with settings={'awesome_slide': {'widgets': [{'type': 'text', 'text': 'PnP Pinball', 'font_size': 50, '_default_settings': ['type', 'text', 'font_size'], 'x': None, 'y': None, 'anchor_x': 'center', 'anchor_y': 'center', 'round_anchor_x': None, 'round_anchor_y': None, 'opacity': 1.0, 'z': 0, 'reset_animations_events': {}, 'color': [1.0, 1.0, 1.0, 1.0], 'style': [], 'adjust_top': 0, 'adjust_bottom': 0, 'adjust_left': 0, 'adjust_right': 0, 'expire': None, 'key': None, 'widget': None, 'events_when_added': [], 'events_when_removed': [], 'bitmap_font': False, 'font_kerning': True, 'bold': False, 'italic': False, 'number_grouping': False, 'min_digits': 0, 'halign': 'center', 'valign': 'middle', 'rotation': 0, 'scale': 1.0, 'casing': None, 'animations': None}], 'transition': {'type': 'push', 'duration': 1.0, 'direction': 'left', 'easing': 'out_quad'}, 'target': None, 'background_color': [0.0, 0.0, 0.0, 1.0], 'priority': None, 'show': True, 'force': False, 'expire': None, 'slide': None, 'tokens': {}, 'action': 'play'}}
2022-04-10 11:42:52,698 : EventManager : Event: ======'slide_awesome_slide_created'====== Args={}
2022-04-10 11:42:52,699 : mpfmc : SlidePlayer: Play called with settings={'attract_started': {'target': None, 'background_color': [0.0, 0.0, 0.0, 1.0], 'priority': None, 'show': True, 'force': False, 'expire': None, 'slide': None, 'tokens': {}, 'action': 'play'}}
2022-04-10 11:42:54,906 : EventManager : Event: ======'slide_attract_started_created'====== Args={}
2022-04-10 11:42:54,907 : EventManager : Event: ======'slide_awesome_slide_active'====== Args={}
2022-04-10 11:42:54,916 : EventManager : Event: ======'loading_assets'====== Args={'total': 1, 'loaded': 1, 'remaining': 0, 'percent': 100}
2022-04-10 11:42:54,916 : AssetManager : Asset loading took: 2.6601521968841553
2022-04-10 11:42:54,916 : EventManager : Event: ======'asset_loading_complete'====== Args={}
2022-04-10 11:42:54,916 : AssetManager : Loading assets: 1/1 (100%)
2022-04-10 11:42:55,293 : EventManager : Event: ======'sounds_play'====== Args={'settings': {'laugh_4_music': {'action': 'play', 'priority': None, 'block': False, 'delay': None, 'track': None, 'volume': None, 'pan': None, 'loops': None, 'start_at': None, 'fade_in': None, 'fade_out': None, 'about_to_finish_time': -1.0, 'max_queue_time': -1.0, 'events_when_played': ['use_sound_setting'], 'events_when_stopped': ['use_sound_setting'], 'events_when_looping': ['use_sound_setting'], 'events_when_about_to_finish': ['use_sound_setting'], 'mode_end_action': 'use_sound_setting', 'key': 'use_sound_setting'}}, 'context': '_global', 'calling_context': 's_start_active', 'priority': 0}
2022-04-10 11:42:55,293 : mpfmc : SoundPlayer: The specified sound does not exist ('laugh_4_music').
2022-04-10 11:42:55,373 : EventManager : Event: ======'game_started'====== Args={}
2022-04-10 11:42:55,374 : EventManager : Event: ======'slides_clear'====== Args={'context': 'show_1'}
2022-04-10 11:42:55,374 : EventManager : Event: ======'sounds_play'====== Args={'settings': {'attract_music': {'action': 'stop', 'priority': None, 'block': False, 'delay': None, 'track': None, 'volume': None, 'pan': None, 'loops': None, 'start_at': None, 'fade_in': None, 'fade_out': None, 'about_to_finish_time': -1.0, 'max_queue_time': -1.0, 'events_when_played': ['use_sound_setting'], 'events_when_stopped': ['use_sound_setting'], 'events_when_looping': ['use_sound_setting'], 'events_when_about_to_finish': ['use_sound_setting'], 'mode_end_action': 'use_sound_setting', 'key': 'use_sound_setting'}}, 'context': '_global', 'calling_context': 'mode_attract_stopped', 'priority': 0}
2022-04-10 11:42:55,374 : EventManager : Event: ======'slide_awesome_slide_removed'====== Args={}
2022-04-10 11:42:55,375 : EventManager : Event: ======'slide_attract_started_active'====== Args={}
2022-04-10 11:42:55,393 : EventManager : Event: ======'player_added'====== Args={'player': <Player 1>, 'num': 1}
2022-04-10 11:42:55,393 : EventManager : Event: ======'player_index'====== Args={'value': 0, 'prev_value': 0, 'change': 0, 'player_num': 1}
2022-04-10 11:42:55,393 : EventManager : Event: ======'player_number'====== Args={'value': 1, 'prev_value': 1, 'change': 0, 'player_num': 1}
2022-04-10 11:42:55,394 : EventManager : Event: ======'player_score'====== Args={'value': 0, 'prev_value': 0, 'change': 0, 'player_num': 1}
2022-04-10 11:42:55,440 : EventManager : Event: ======'player_ball'====== Args={'value': 1, 'prev_value': 0, 'change': 1, 'player_num': 1}
2022-04-10 11:42:55,440 : EventManager : Event: ======'player_turn_start'====== Args={'number': 1, 'player': <Player 1>}
2022-04-10 11:42:55,465 : EventManager : Event: ======'player_shot_shot_vuk_left_enabled'====== Args={'value': True, 'prev_value': 0, 'change': 1, 'player_num': 1}
2022-04-10 11:42:55,465 : EventManager : Event: ======'player_shot_shot_inlane_right_enabled'====== Args={'value': True, 'prev_value': 0, 'change': 1, 'player_num': 1}
2022-04-10 11:42:55,465 : EventManager : Event: ======'player_shot_shot_droptarget_middle_1_enabled'====== Args={'value': True, 'prev_value': 0, 'change': 1, 'player_num': 1}
2022-04-10 11:42:55,465 : EventManager : Event: ======'player_shot_shot_droptarget_middle_2_enabled'====== Args={'value': True, 'prev_value': 0, 'change': 1, 'player_num': 1}
2022-04-10 11:42:55,465 : EventManager : Event: ======'player_shot_shot_droptarget_middle_3_enabled'====== Args={'value': True, 'prev_value': 0, 'change': 1, 'player_num': 1}
2022-04-10 11:42:55,478 : EventManager : Event: ======'slides_play'====== Args={'settings': {'base_slide': {'target': None, 'background_color': [0.0, 0.0, 0.0, 1.0], 'priority': None, 'show': True, 'force': False, 'expire': None, 'slide': None, 'tokens': {}, 'action': 'play'}}, 'context': 'base', 'calling_context': 'mode_base_started', 'priority': 100, 'player': 1, 'ball': 1, 'balls_remaining': 2, 'is_extra_ball': False}
2022-04-10 11:42:55,479 : EventManager : Event: ======'sounds_play'====== Args={'settings': {'base_music': {'action': 'play', 'loops': -1, 'volume': 0.4, 'priority': None, 'block': False, 'delay': None, 'track': None, 'pan': None, 'start_at': None, 'fade_in': None, 'fade_out': None, 'about_to_finish_time': -1.0, 'max_queue_time': -1.0, 'events_when_played': ['use_sound_setting'], 'events_when_stopped': ['use_sound_setting'], 'events_when_looping': ['use_sound_setting'], 'events_when_about_to_finish': ['use_sound_setting'], 'mode_end_action': 'use_sound_setting', 'key': 'use_sound_setting'}}, 'context': '_global', 'calling_context': 'mode_base_started', 'priority': 0, 'player': 1, 'ball': 1, 'balls_remaining': 2, 'is_extra_ball': False}
2022-04-10 11:42:55,479 : mpfmc : SlidePlayer: Play called with settings={'base_slide': {'target': None, 'background_color': [0.0, 0.0, 0.0, 1.0], 'priority': None, 'show': True, 'force': False, 'expire': None, 'slide': None, 'tokens': {}, 'action': 'play'}}
2022-04-10 11:42:55,501 : EventManager : Event: ======'slide_base_slide_created'====== Args={}
2022-04-10 11:42:55,694 : EventManager : Event: ======'slide_base_slide_active'====== Args={}
2022-04-10 11:42:55,702 : EventManager : Event: ======'loading_assets'====== Args={'total': 1, 'loaded': 1, 'remaining': 0, 'percent': 100}
2022-04-10 11:42:55,703 : AssetManager : Asset loading took: 3.447197198867798
2022-04-10 11:42:55,704 : EventManager : Event: ======'asset_loading_complete'====== Args={}
2022-04-10 11:42:55,704 : AssetManager : Loading assets: 1/1 (100%)
2022-04-10 11:42:57,345 : EventManager : Event: ======'machine_var_audits_switches_s_droptarget_middle_1'====== Args={'value': 89, 'prev_value': 88, 'change': 1}
2022-04-10 11:42:57,345 : EventManager : Event: ======'player_shot_shot_droptarget_middle_1'====== Args={'value': 1, 'prev_value': 0, 'change': 1, 'player_num': 1}
2022-04-10 11:42:57,357 : EventManager : Event: ======'machine_var_audits_shots_shot_droptarget_middle_1'====== Args={'value': 4, 'prev_value': 3, 'change': 1}
2022-04-10 11:42:57,357 : EventManager : Event: ======'player_score'====== Args={'value': 150, 'prev_value': 0, 'change': 150, 'player_num': 1}
2022-04-10 11:42:57,357 : EventManager : Event: ======'player_score'====== Args={'value': 250, 'prev_value': 150, 'change': 100, 'player_num': 1}
2022-04-10 11:42:58,343 : EventManager : Event: ======'machine_var_audits_switches_s_droptarget_middle_2'====== Args={'value': 17, 'prev_value': 16, 'change': 1}
2022-04-10 11:42:58,343 : EventManager : Event: ======'player_shot_shot_droptarget_middle_2'====== Args={'value': 1, 'prev_value': 0, 'change': 1, 'player_num': 1}
2022-04-10 11:42:58,343 : EventManager : Event: ======'machine_var_audits_shots_shot_droptarget_middle_2'====== Args={'value': 4, 'prev_value': 3, 'change': 1}
2022-04-10 11:42:58,343 : EventManager : Event: ======'player_score'====== Args={'value': 450, 'prev_value': 250, 'change': 200, 'player_num': 1}
2022-04-10 11:42:58,343 : EventManager : Event: ======'player_score'====== Args={'value': 550, 'prev_value': 450, 'change': 100, 'player_num': 1}
2022-04-10 11:42:59,563 : EventManager : Event: ======'machine_var_audits_switches_s_droptarget_middle_3'====== Args={'value': 14, 'prev_value': 13, 'change': 1}
2022-04-10 11:42:59,575 : EventManager : Event: ======'player_shot_shot_droptarget_middle_3'====== Args={'value': 1, 'prev_value': 0, 'change': 1, 'player_num': 1}
2022-04-10 11:42:59,575 : EventManager : Event: ======'machine_var_audits_shots_shot_droptarget_middle_3'====== Args={'value': 7, 'prev_value': 6, 'change': 1}
2022-04-10 11:42:59,587 : EventManager : Event: ======'player_score'====== Args={'value': 725, 'prev_value': 550, 'change': 175, 'player_num': 1}
2022-04-10 11:42:59,587 : EventManager : Event: ======'player_score'====== Args={'value': 825, 'prev_value': 725, 'change': 100, 'player_num': 1}
2022-04-10 11:43:00,912 : EventManager : Event: ======'machine_var_audits_switches_s_droptarget_middle_1'====== Args={'value': 90, 'prev_value': 89, 'change': 1}
2022-04-10 11:43:00,924 : EventManager : Event: ======'player_shot_shot_droptarget_middle_1'====== Args={'value': 2, 'prev_value': 1, 'change': 1, 'player_num': 1}
2022-04-10 11:43:00,924 : EventManager : Event: ======'machine_var_audits_shots_shot_droptarget_middle_1'====== Args={'value': 5, 'prev_value': 4, 'change': 1}
2022-04-10 11:43:00,924 : EventManager : Event: ======'player_score'====== Args={'value': 975, 'prev_value': 825, 'change': 150, 'player_num': 1}
2022-04-10 11:43:00,924 : EventManager : Event: ======'player_score'====== Args={'value': 1225, 'prev_value': 975, 'change': 250, 'player_num': 1}
2022-04-10 11:43:01,881 : EventManager : Event: ======'machine_var_audits_switches_s_droptarget_middle_2'====== Args={'value': 18, 'prev_value': 17, 'change': 1}
2022-04-10 11:43:01,893 : EventManager : Event: ======'player_shot_shot_droptarget_middle_2'====== Args={'value': 2, 'prev_value': 1, 'change': 1, 'player_num': 1}
2022-04-10 11:43:01,893 : EventManager : Event: ======'machine_var_audits_shots_shot_droptarget_middle_2'====== Args={'value': 5, 'prev_value': 4, 'change': 1}
2022-04-10 11:43:01,893 : EventManager : Event: ======'player_score'====== Args={'value': 1425, 'prev_value': 1225, 'change': 200, 'player_num': 1}
2022-04-10 11:43:01,893 : EventManager : Event: ======'player_score'====== Args={'value': 1675, 'prev_value': 1425, 'change': 250, 'player_num': 1}
2022-04-10 11:43:02,710 : EventManager : Event: ======'machine_var_audits_switches_s_droptarget_middle_3'====== Args={'value': 15, 'prev_value': 14, 'change': 1}
2022-04-10 11:43:02,710 : EventManager : Event: ======'player_shot_shot_droptarget_middle_3'====== Args={'value': 2, 'prev_value': 1, 'change': 1, 'player_num': 1}
2022-04-10 11:43:02,710 : EventManager : Event: ======'machine_var_audits_shots_shot_droptarget_middle_3'====== Args={'value': 8, 'prev_value': 7, 'change': 1}
2022-04-10 11:43:02,722 : EventManager : Event: ======'player_score'====== Args={'value': 1850, 'prev_value': 1675, 'change': 175, 'player_num': 1}
2022-04-10 11:43:02,722 : EventManager : Event: ======'player_score'====== Args={'value': 2100, 'prev_value': 1850, 'change': 250, 'player_num': 1}
2022-04-10 11:43:05,136 : EventManager : Event: ======'machine_var_audits_switches_s_droptarget_middle_1'====== Args={'value': 91, 'prev_value': 90, 'change': 1}
2022-04-10 11:43:05,148 : EventManager : Event: ======'player_shot_shot_droptarget_middle_1'====== Args={'value': 0, 'prev_value': 2, 'change': -2, 'player_num': 1}
2022-04-10 11:43:05,160 : EventManager : Event: ======'machine_var_audits_shots_shot_droptarget_middle_1'====== Args={'value': 6, 'prev_value': 5, 'change': 1}
2022-04-10 11:43:05,160 : EventManager : Event: ======'player_score'====== Args={'value': 2250, 'prev_value': 2100, 'change': 150, 'player_num': 1}
2022-04-10 11:43:05,161 : EventManager : Event: ======'player_score'====== Args={'value': 3350, 'prev_value': 2250, 'change': 1100, 'player_num': 1}
2022-04-10 11:43:05,691 : EventManager : Event: ======'machine_var_audits_switches_s_droptarget_middle_2'====== Args={'value': 19, 'prev_value': 18, 'change': 1}
2022-04-10 11:43:05,691 : EventManager : Event: ======'player_shot_shot_droptarget_middle_2'====== Args={'value': 0, 'prev_value': 2, 'change': -2, 'player_num': 1}
2022-04-10 11:43:05,703 : EventManager : Event: ======'machine_var_audits_shots_shot_droptarget_middle_2'====== Args={'value': 6, 'prev_value': 5, 'change': 1}
2022-04-10 11:43:05,703 : EventManager : Event: ======'player_score'====== Args={'value': 3550, 'prev_value': 3350, 'change': 200, 'player_num': 1}
2022-04-10 11:43:05,703 : EventManager : Event: ======'player_score'====== Args={'value': 4650, 'prev_value': 3550, 'change': 1100, 'player_num': 1}
2022-04-10 11:43:06,141 : EventManager : Event: ======'machine_var_audits_switches_s_droptarget_middle_3'====== Args={'value': 16, 'prev_value': 15, 'change': 1}
2022-04-10 11:43:06,141 : EventManager : Event: ======'player_shot_shot_droptarget_middle_3'====== Args={'value': 0, 'prev_value': 2, 'change': -2, 'player_num': 1}
2022-04-10 11:43:06,141 : EventManager : Event: ======'machine_var_audits_shots_shot_droptarget_middle_3'====== Args={'value': 9, 'prev_value': 8, 'change': 1}
2022-04-10 11:43:06,141 : EventManager : Event: ======'player_score'====== Args={'value': 4825, 'prev_value': 4650, 'change': 175, 'player_num': 1}
2022-04-10 11:43:06,141 : EventManager : Event: ======'player_score'====== Args={'value': 5925, 'prev_value': 4825, 'change': 1100, 'player_num': 1}
2022-04-10 11:43:55,896 : kivy : Base: Leaving application in progress...
