2022-04-18 14:57:07,805 : INFO : root : Loading config.
2022-04-18 14:57:08,665 : INFO : ConfigProcessor : Config spec file cache created: C:\Users\MEESTE~1\AppData\Local\Temp\config_spec.mpf_cache
2022-04-18 14:57:08,665 : INFO : YamlMultifileConfigLoader : Machine config file #1: config.yaml
2022-04-18 14:57:08,667 : INFO : ConfigProcessor : Loading config from cache: C:\Users\MEESTE~1\AppData\Local\Temp\af064a846ce047fe2c07c952e5656c9d.mpf_cache
2022-04-18 14:57:08,896 : INFO : ConfigProcessor : Loading config from cache: C:\Users\MEESTE~1\AppData\Local\Temp\67dd6918687bfedec306007a472007ee.mpf_cache
2022-04-18 14:57:08,899 : INFO : ConfigProcessor : Loading config from cache: C:\Users\MEESTE~1\AppData\Local\Temp\b16855f32fa15912a0c8dc3278537500.mpf_cache
2022-04-18 14:57:08,901 : INFO : ConfigProcessor : Loading config from cache: C:\Users\MEESTE~1\AppData\Local\Temp\92215af4dd7e20683270ecff1545a54c.mpf_cache
2022-04-18 14:57:08,905 : INFO : ConfigProcessor : Loading config from cache: C:\Users\MEESTE~1\AppData\Local\Temp\87e6ec02150cf5c93298edc451612a3e.mpf_cache
2022-04-18 14:57:08,906 : INFO : ConfigProcessor : Loading config from file C:\MissionPinball\pnp\modes\attract\shows\.\attract_light_show - Copy.yaml.
2022-04-18 14:57:08,916 : INFO : ConfigProcessor : Loading config: C:\MissionPinball\pnp\modes\attract\shows\.\attract_light_show - Copy.yaml
2022-04-18 14:57:08,917 : INFO : ConfigProcessor : Config file cache created: C:\Users\MEESTE~1\AppData\Local\Temp\be20b0dc3dcbd39d07cc18c3825ab773.mpf_cache
2022-04-18 14:57:08,918 : WARNING : ConfigProcessor : Config file in cache changed: C:\MissionPinball\pnp\modes\attract\shows\.\attract_light_show.yaml
2022-04-18 14:57:08,918 : INFO : ConfigProcessor : Loading config from file C:\MissionPinball\pnp\modes\attract\shows\.\attract_light_show.yaml.
2022-04-18 14:57:09,513 : INFO : ConfigProcessor : Loading config: C:\MissionPinball\pnp\modes\attract\shows\.\attract_light_show.yaml
2022-04-18 14:57:09,515 : INFO : ConfigProcessor : Config file cache created: C:\Users\MEESTE~1\AppData\Local\Temp\68dc9fd901951d85acd92aa950470e18.mpf_cache
2022-04-18 14:57:09,516 : INFO : Machine : Mission Pinball Framework Core Engine v0.55.0
2022-04-18 14:57:09,516 : INFO : Machine : Command line arguments: {'no_load_cache': False, 'create_config_cache': True, 'bcp': True, 'configfile': ['config.yaml'], 'force_assets_load': False, 'jsonlogging': False, 'logfile': 'logs\\2022-04-18-14-57-07-mpf-MeesterPieter.log', 'pause': False, 'production': False, 'text_ui': True, 'loglevel': 15, 'consoleloglevel': 20, 'force_platform': 'virtual', 'syslog_address': None, 'mc_file_name': None, 'no_sound': False}
2022-04-18 14:57:09,516 : INFO : Machine : MPF path: c:\mpfenv\lib\site-packages\mpf
2022-04-18 14:57:09,516 : INFO : Machine : Machine path: C:\MissionPinball\pnp
2022-04-18 14:57:09,517 : INFO : Machine : Platform: win32
2022-04-18 14:57:09,517 : INFO : Machine : Python executable location: c:\mpfenv\scripts\python.exe
2022-04-18 14:57:09,517 : INFO : Machine : Python version: 3.7.8 (64-bit)
2022-04-18 14:57:09,522 : INFO : Machine : Initialise MPF.
2022-04-18 14:57:09,957 : INFO : EventManager : Event: ======'machine_var_credits_string'====== Args={'value': 'FREE PLAY', 'prev_value': None, 'change': True}
2022-04-18 14:57:10,069 : INFO : EventManager : Event: ======'machine_var_master_volume'====== Args={'value': 0.5, 'prev_value': None, 'change': True}
2022-04-18 14:57:10,069 : INFO : EventManager : Event: ======'machine_var_player1_score'====== Args={'value': 11609, 'prev_value': None, 'change': True}
2022-04-18 14:57:10,069 : INFO : EventManager : Event: ======'machine_var_mpf_version'====== Args={'value': 'MPF v0.55.0', 'prev_value': None, 'change': True}
2022-04-18 14:57:10,069 : INFO : EventManager : Event: ======'machine_var_mpf_extended_version'====== Args={'value': 'MPF v0.55.0, Config version:5, Show version: 5, BCP version:1.1', 'prev_value': None, 'change': True}
2022-04-18 14:57:10,069 : INFO : EventManager : Event: ======'machine_var_python_version'====== Args={'value': '3.7.8', 'prev_value': None, 'change': True}
2022-04-18 14:57:10,071 : INFO : EventManager : Event: ======'machine_var_platform'====== Args={'value': 'Windows-7-6.1.7601-SP1', 'prev_value': None, 'change': True}
2022-04-18 14:57:10,071 : INFO : EventManager : Event: ======'machine_var_platform_system'====== Args={'value': 'Windows', 'prev_value': None, 'change': True}
2022-04-18 14:57:10,071 : INFO : EventManager : Event: ======'machine_var_platform_release'====== Args={'value': '7', 'prev_value': None, 'change': True}
2022-04-18 14:57:10,071 : INFO : EventManager : Event: ======'machine_var_platform_version'====== Args={'value': '6.1.7601', 'prev_value': None, 'change': True}
2022-04-18 14:57:10,071 : INFO : EventManager : Event: ======'machine_var_platform_machine'====== Args={'value': 'AMD64', 'prev_value': None, 'change': True}
2022-04-18 14:57:10,072 : INFO : EventManager : Event: ======'init_phase_1'====== Args={}
2022-04-18 14:57:10,138 : INFO : EventManager : Event: ======'drop_target_bank_drop_left_up'====== Args={}
2022-04-18 14:57:10,139 : INFO : EventManager : Event: ======'drop_target_bank_drop_middle_up'====== Args={}
2022-04-18 14:57:10,139 : INFO : EventManager : Event: ======'drop_target_bank_drop_right_up'====== Args={}
2022-04-18 14:57:10,161 : INFO : EventManager : Event: ======'init_phase_2'====== Args={}
2022-04-18 14:57:10,161 : INFO : SwitchController : Found active switch: ('1-0-21', <Platform.Virtual>) <switch.s_trough1>
2022-04-18 14:57:10,162 : INFO : SwitchController : Found active switch: ('1-0-19', <Platform.Virtual>) <switch.s_trough2>
2022-04-18 14:57:10,162 : INFO : SwitchController : Found active switch: ('1-0-20', <Platform.Virtual>) <switch.s_trough3>
2022-04-18 14:57:10,175 : INFO : EventManager : Event: ======'bcp_connection_attempt'====== Args={'name': 'local_display', 'host': 'localhost', 'port': 5050}
2022-04-18 14:57:10,177 : INFO : BCPClientSocket : Connecting BCP to 'local_display' at localhost:5050...
2022-04-18 14:57:13,303 : INFO : BCPClientSocket : Connected BCP to 'local_display' localhost:5050
2022-04-18 14:57:13,305 : INFO : EventManager : Event: ======'bcp_clients_connected'====== Args={}
2022-04-18 14:57:13,325 : INFO : ball_device.bd_drain : BCH: Initial count: 0
2022-04-18 14:57:13,326 : INFO : EventManager : Event: ======'machine_var_mc_version'====== Args={'value': 'MPF-MC v0.55.0', 'prev_value': None, 'change': True}
2022-04-18 14:57:13,326 : INFO : EventManager : Event: ======'machine_var_mc_extended_version'====== Args={'value': 'MPF-MC v0.55.0 (config_version=5, BCP v1.1, Requires MPF v0.55.0-dev.49)', 'prev_value': None, 'change': True}
2022-04-18 14:57:13,330 : INFO : ball_device.bd_drain : State: idle
2022-04-18 14:57:13,370 : INFO : ball_device.bd_trough : BCH: Initial count: 3
2022-04-18 14:57:13,371 : INFO : ball_device.bd_trough : State: idle
2022-04-18 14:57:13,372 : INFO : ball_device.bd_plunger : BCH: Initial count: 0
2022-04-18 14:57:13,372 : INFO : ball_device.bd_plunger : State: idle
2022-04-18 14:57:13,373 : INFO : ball_device.bd_vuk_left : BCH: Initial count: 0
2022-04-18 14:57:13,373 : INFO : ball_device.bd_vuk_left : State: idle
2022-04-18 14:57:13,374 : INFO : ball_device.bd_vuk_right : BCH: Initial count: 0
2022-04-18 14:57:13,374 : INFO : ball_device.bd_vuk_right : State: idle
2022-04-18 14:57:13,375 : INFO : ball_device.bd_scoop : BCH: Initial count: 0
2022-04-18 14:57:13,375 : INFO : ball_device.bd_scoop : State: idle
2022-04-18 14:57:13,416 : INFO : EventManager : Event: ======'init_phase_3'====== Args={}
2022-04-18 14:57:13,500 : INFO : EventManager : Event: ======'init_phase_4'====== Args={}
2022-04-18 14:57:13,501 : INFO : EventManager : Event: ======'playfield_active'====== Args={}
2022-04-18 14:57:13,501 : INFO : EventManager : Event: ======'unexpected_ball_on_playfield'====== Args={}
2022-04-18 14:57:13,501 : INFO : EventManager : Event: ======'playfield_active'====== Args={}
2022-04-18 14:57:13,502 : INFO : EventManager : Event: ======'unexpected_ball_on_playfield'====== Args={}
2022-04-18 14:57:13,502 : INFO : EventManager : Event: ======'playfield_active'====== Args={}
2022-04-18 14:57:13,502 : INFO : EventManager : Event: ======'unexpected_ball_on_playfield'====== Args={}
2022-04-18 14:57:13,502 : INFO : EventManager : Event: ======'playfield_active'====== Args={}
2022-04-18 14:57:13,502 : INFO : EventManager : Event: ======'unexpected_ball_on_playfield'====== Args={}
2022-04-18 14:57:13,502 : INFO : EventManager : Event: ======'playfield_active'====== Args={}
2022-04-18 14:57:13,502 : INFO : EventManager : Event: ======'unexpected_ball_on_playfield'====== Args={}
2022-04-18 14:57:13,502 : INFO : EventManager : Event: ======'playfield_active'====== Args={}
2022-04-18 14:57:13,503 : INFO : EventManager : Event: ======'unexpected_ball_on_playfield'====== Args={}
2022-04-18 14:57:13,503 : INFO : EventManager : Event: ======'playfield_active'====== Args={}
2022-04-18 14:57:13,503 : INFO : EventManager : Event: ======'unexpected_ball_on_playfield'====== Args={}
2022-04-18 14:57:13,503 : INFO : EventManager : Event: ======'playfield_active'====== Args={}
2022-04-18 14:57:13,503 : INFO : EventManager : Event: ======'unexpected_ball_on_playfield'====== Args={}
2022-04-18 14:57:13,503 : INFO : EventManager : Event: ======'playfield_active'====== Args={}
2022-04-18 14:57:13,503 : INFO : EventManager : Event: ======'unexpected_ball_on_playfield'====== Args={}
2022-04-18 14:57:13,503 : INFO : EventManager : Event: ======'playfield_active'====== Args={}
2022-04-18 14:57:13,504 : INFO : EventManager : Event: ======'unexpected_ball_on_playfield'====== Args={}
2022-04-18 14:57:13,504 : INFO : EventManager : Event: ======'playfield_active'====== Args={}
2022-04-18 14:57:13,504 : INFO : EventManager : Event: ======'unexpected_ball_on_playfield'====== Args={}
2022-04-18 14:57:13,504 : INFO : BallController : Initial balls found: 3
2022-04-18 14:57:13,508 : INFO : EventManager : Event: ======'machine_var_audits_events_game_ended'====== Args={'value': 0, 'prev_value': None, 'change': True}
2022-04-18 14:57:13,509 : INFO : EventManager : Event: ======'machine_var_audits_events_game_started'====== Args={'value': 0, 'prev_value': None, 'change': True}
2022-04-18 14:57:13,510 : INFO : EventManager : Event: ======'machine_var_audits_player_score'====== Args={'value': {'average': 12041.25, 'top': [24015, 12501, 11609, 40], 'total': 4}, 'prev_value': None, 'change': True}
2022-04-18 14:57:13,510 : INFO : EventManager : Event: ======'machine_var_audits_shots_shot_droptarget_middle_1'====== Args={'value': 15, 'prev_value': None, 'change': True}
2022-04-18 14:57:13,511 : INFO : EventManager : Event: ======'machine_var_audits_shots_shot_droptarget_middle_2'====== Args={'value': 15, 'prev_value': None, 'change': True}
2022-04-18 14:57:13,511 : INFO : EventManager : Event: ======'machine_var_audits_shots_shot_droptarget_middle_3'====== Args={'value': 18, 'prev_value': None, 'change': True}
2022-04-18 14:57:13,512 : INFO : EventManager : Event: ======'machine_var_audits_shots_shot_inlane_right'====== Args={'value': 40, 'prev_value': None, 'change': True}
2022-04-18 14:57:13,513 : INFO : EventManager : Event: ======'machine_var_audits_shots_shot_vuk_left'====== Args={'value': 232, 'prev_value': None, 'change': True}
2022-04-18 14:57:13,513 : INFO : EventManager : Event: ======'machine_var_audits_switches_s_captive'====== Args={'value': 1, 'prev_value': None, 'change': True}
2022-04-18 14:57:13,514 : INFO : EventManager : Event: ======'machine_var_audits_switches_s_cop_left'====== Args={'value': 10, 'prev_value': None, 'change': True}
2022-04-18 14:57:13,514 : INFO : EventManager : Event: ======'machine_var_audits_switches_s_cop_middle'====== Args={'value': 10, 'prev_value': None, 'change': True}
2022-04-18 14:57:13,515 : INFO : EventManager : Event: ======'machine_var_audits_switches_s_cop_right'====== Args={'value': 10, 'prev_value': None, 'change': True}
2022-04-18 14:57:13,516 : INFO : EventManager : Event: ======'machine_var_audits_switches_s_drain'====== Args={'value': 103, 'prev_value': None, 'change': True}
2022-04-18 14:57:13,516 : INFO : EventManager : Event: ======'machine_var_audits_switches_s_drop_left_1'====== Args={'value': 0, 'prev_value': None, 'change': True}
2022-04-18 14:57:13,517 : INFO : EventManager : Event: ======'machine_var_audits_switches_s_drop_left_2'====== Args={'value': 2, 'prev_value': None, 'change': True}
2022-04-18 14:57:13,518 : INFO : EventManager : Event: ======'machine_var_audits_switches_s_drop_left_3'====== Args={'value': 0, 'prev_value': None, 'change': True}
2022-04-18 14:57:13,519 : INFO : EventManager : Event: ======'machine_var_audits_switches_s_drop_middle_1'====== Args={'value': 0, 'prev_value': None, 'change': True}
2022-04-18 14:57:13,519 : INFO : EventManager : Event: ======'machine_var_audits_switches_s_drop_middle_2'====== Args={'value': 0, 'prev_value': None, 'change': True}
2022-04-18 14:57:13,520 : INFO : EventManager : Event: ======'machine_var_audits_switches_s_drop_middle_3'====== Args={'value': 0, 'prev_value': None, 'change': True}
2022-04-18 14:57:13,521 : INFO : EventManager : Event: ======'machine_var_audits_switches_s_drop_right_1'====== Args={'value': 0, 'prev_value': None, 'change': True}
2022-04-18 14:57:13,522 : INFO : EventManager : Event: ======'machine_var_audits_switches_s_drop_right_2'====== Args={'value': 0, 'prev_value': None, 'change': True}
2022-04-18 14:57:13,522 : INFO : EventManager : Event: ======'machine_var_audits_switches_s_drop_right_3'====== Args={'value': 0, 'prev_value': None, 'change': True}
2022-04-18 14:57:13,523 : INFO : EventManager : Event: ======'machine_var_audits_switches_s_drop_right_4'====== Args={'value': 0, 'prev_value': None, 'change': True}
2022-04-18 14:57:13,524 : INFO : EventManager : Event: ======'machine_var_audits_switches_s_drop_right_5'====== Args={'value': 0, 'prev_value': None, 'change': True}
2022-04-18 14:57:13,524 : INFO : EventManager : Event: ======'machine_var_audits_switches_s_droptarget_left_1'====== Args={'value': 15, 'prev_value': None, 'change': True}
2022-04-18 14:57:13,525 : INFO : EventManager : Event: ======'machine_var_audits_switches_s_droptarget_left_2'====== Args={'value': 15, 'prev_value': None, 'change': True}
2022-04-18 14:57:13,526 : INFO : EventManager : Event: ======'machine_var_audits_switches_s_droptarget_left_3'====== Args={'value': 170, 'prev_value': None, 'change': True}
2022-04-18 14:57:13,527 : INFO : EventManager : Event: ======'machine_var_audits_switches_s_droptarget_middle_1'====== Args={'value': 100, 'prev_value': None, 'change': True}
2022-04-18 14:57:13,528 : INFO : EventManager : Event: ======'machine_var_audits_switches_s_droptarget_middle_2'====== Args={'value': 28, 'prev_value': None, 'change': True}
2022-04-18 14:57:13,528 : INFO : EventManager : Event: ======'machine_var_audits_switches_s_droptarget_middle_3'====== Args={'value': 25, 'prev_value': None, 'change': True}
2022-04-18 14:57:13,529 : INFO : EventManager : Event: ======'machine_var_audits_switches_s_droptarget_right_1'====== Args={'value': 17, 'prev_value': None, 'change': True}
2022-04-18 14:57:13,530 : INFO : EventManager : Event: ======'machine_var_audits_switches_s_droptarget_right_2'====== Args={'value': 29, 'prev_value': None, 'change': True}
2022-04-18 14:57:13,531 : INFO : EventManager : Event: ======'machine_var_audits_switches_s_droptarget_right_3'====== Args={'value': 78, 'prev_value': None, 'change': True}
2022-04-18 14:57:13,531 : INFO : EventManager : Event: ======'machine_var_audits_switches_s_droptarget_right_4'====== Args={'value': 22, 'prev_value': None, 'change': True}
2022-04-18 14:57:13,532 : INFO : EventManager : Event: ======'machine_var_audits_switches_s_droptarget_right_5'====== Args={'value': 14, 'prev_value': None, 'change': True}
2022-04-18 14:57:13,533 : INFO : EventManager : Event: ======'machine_var_audits_switches_s_flipper_lane_left'====== Args={'value': 0, 'prev_value': None, 'change': True}
2022-04-18 14:57:13,534 : INFO : EventManager : Event: ======'machine_var_audits_switches_s_flipper_lane_right'====== Args={'value': 0, 'prev_value': None, 'change': True}
2022-04-18 14:57:13,535 : INFO : EventManager : Event: ======'machine_var_audits_switches_s_flipper_left'====== Args={'value': 187, 'prev_value': None, 'change': True}
2022-04-18 14:57:13,536 : INFO : EventManager : Event: ======'machine_var_audits_switches_s_flipper_links'====== Args={'value': 23, 'prev_value': None, 'change': True}
2022-04-18 14:57:13,537 : INFO : EventManager : Event: ======'machine_var_audits_switches_s_flipper_rechts'====== Args={'value': 20, 'prev_value': None, 'change': True}
2022-04-18 14:57:13,537 : INFO : EventManager : Event: ======'machine_var_audits_switches_s_flipper_right'====== Args={'value': 113, 'prev_value': None, 'change': True}
2022-04-18 14:57:13,538 : INFO : EventManager : Event: ======'machine_var_audits_switches_s_foley'====== Args={'value': 215, 'prev_value': None, 'change': True}
2022-04-18 14:57:13,539 : INFO : EventManager : Event: ======'machine_var_audits_switches_s_inlane_left'====== Args={'value': 14, 'prev_value': None, 'change': True}
2022-04-18 14:57:13,540 : INFO : EventManager : Event: ======'machine_var_audits_switches_s_inlane_right'====== Args={'value': 70, 'prev_value': None, 'change': True}
2022-04-18 14:57:13,541 : INFO : EventManager : Event: ======'machine_var_audits_switches_s_kickback'====== Args={'value': 119, 'prev_value': None, 'change': True}
2022-04-18 14:57:13,542 : INFO : EventManager : Event: ======'machine_var_audits_switches_s_kickout'====== Args={'value': 8, 'prev_value': None, 'change': True}
2022-04-18 14:57:13,543 : INFO : EventManager : Event: ======'machine_var_audits_switches_s_launch_button'====== Args={'value': 72, 'prev_value': None, 'change': True}
2022-04-18 14:57:13,544 : INFO : EventManager : Event: ======'machine_var_audits_switches_s_outlane_right'====== Args={'value': 47, 'prev_value': None, 'change': True}
2022-04-18 14:57:13,545 : INFO : EventManager : Event: ======'machine_var_audits_switches_s_plunger'====== Args={'value': 264, 'prev_value': None, 'change': True}
2022-04-18 14:57:13,546 : INFO : EventManager : Event: ======'machine_var_audits_switches_s_ramp_left'====== Args={'value': 33, 'prev_value': None, 'change': True}
2022-04-18 14:57:13,546 : INFO : EventManager : Event: ======'machine_var_audits_switches_s_ramp_right'====== Args={'value': 25, 'prev_value': None, 'change': True}
2022-04-18 14:57:13,547 : INFO : EventManager : Event: ======'machine_var_audits_switches_s_scoop'====== Args={'value': 63, 'prev_value': None, 'change': True}
2022-04-18 14:57:13,548 : INFO : EventManager : Event: ======'machine_var_audits_switches_s_slingshot_left'====== Args={'value': 84, 'prev_value': None, 'change': True}
2022-04-18 14:57:13,549 : INFO : EventManager : Event: ======'machine_var_audits_switches_s_slingshot_right'====== Args={'value': 91, 'prev_value': None, 'change': True}
2022-04-18 14:57:13,550 : INFO : EventManager : Event: ======'machine_var_audits_switches_s_spinner'====== Args={'value': 30, 'prev_value': None, 'change': True}
2022-04-18 14:57:13,551 : INFO : EventManager : Event: ======'machine_var_audits_switches_s_start'====== Args={'value': 49, 'prev_value': None, 'change': True}
2022-04-18 14:57:13,552 : INFO : EventManager : Event: ======'machine_var_audits_switches_s_subway'====== Args={'value': 8, 'prev_value': None, 'change': True}
2022-04-18 14:57:13,553 : INFO : EventManager : Event: ======'machine_var_audits_switches_s_trough1'====== Args={'value': 102, 'prev_value': None, 'change': True}
2022-04-18 14:57:13,554 : INFO : EventManager : Event: ======'machine_var_audits_switches_s_trough2'====== Args={'value': 47, 'prev_value': None, 'change': True}
2022-04-18 14:57:13,555 : INFO : EventManager : Event: ======'machine_var_audits_switches_s_trough3'====== Args={'value': 20, 'prev_value': None, 'change': True}
2022-04-18 14:57:13,556 : INFO : EventManager : Event: ======'machine_var_audits_switches_s_turbo_left'====== Args={'value': 86, 'prev_value': None, 'change': True}
2022-04-18 14:57:13,557 : INFO : EventManager : Event: ======'machine_var_audits_switches_s_turbo_links'====== Args={'value': 1, 'prev_value': None, 'change': True}
2022-04-18 14:57:13,558 : INFO : EventManager : Event: ======'machine_var_audits_switches_s_turbo_midden'====== Args={'value': 10, 'prev_value': None, 'change': True}
2022-04-18 14:57:13,559 : INFO : EventManager : Event: ======'machine_var_audits_switches_s_turbo_middle'====== Args={'value': 72, 'prev_value': None, 'change': True}
2022-04-18 14:57:13,560 : INFO : EventManager : Event: ======'machine_var_audits_switches_s_turbo_rechts'====== Args={'value': 3, 'prev_value': None, 'change': True}
2022-04-18 14:57:13,561 : INFO : EventManager : Event: ======'machine_var_audits_switches_s_turbo_right'====== Args={'value': 70, 'prev_value': None, 'change': True}
2022-04-18 14:57:13,562 : INFO : EventManager : Event: ======'machine_var_audits_switches_s_vuk_left'====== Args={'value': 232, 'prev_value': None, 'change': True}
2022-04-18 14:57:13,563 : INFO : EventManager : Event: ======'machine_var_audits_switches_s_vuk_right'====== Args={'value': 99, 'prev_value': None, 'change': True}
2022-04-18 14:57:13,565 : INFO : EventManager : Event: ======'init_phase_5'====== Args={}
2022-04-18 14:57:13,632 : INFO : EventManager : Event: ======'init_done'====== Args={}
2022-04-18 14:57:13,632 : INFO : EventManager : Event: ======'machine_reset_phase_1'====== Args={}
2022-04-18 14:57:13,642 : INFO : EventManager : Event: ======'slide_welcome_slide_removed'====== Args={'_from_bcp': True}
2022-04-18 14:57:13,644 : INFO : EventManager : Event: ======'slide_welcome_slide_created'====== Args={'_from_bcp': True}
2022-04-18 14:57:13,646 : INFO : EventManager : Event: ======'machine_reset_phase_2'====== Args={}
2022-04-18 14:57:13,647 : INFO : EventManager : Event: ======'machine_reset_phase_3'====== Args={}
2022-04-18 14:57:13,647 : INFO : EventManager : Event: ======'reset_complete'====== Args={}
2022-04-18 14:57:13,648 : INFO : EventManager : Event: ======'slide_welcome_slide_active'====== Args={'_from_bcp': True}
2022-04-18 14:57:13,648 : INFO : EventManager : Event: ======'mode_attract_will_start'====== Args={}
2022-04-18 14:57:13,649 : INFO : EventManager : Event: ======'mode_attract_starting'====== Args={}
2022-04-18 14:57:13,649 : INFO : Mode.attract : Started. Priority: 10
2022-04-18 14:57:13,649 : INFO : EventManager : Event: ======'modes_active_modes_changed'====== Args={}
2022-04-18 14:57:13,649 : INFO : EventManager : Event: ======'mode_attract_started'====== Args={}
2022-04-18 14:57:13,653 : INFO : EventManager : Event: ======'collecting_balls_complete'====== Args={}
2022-04-18 14:57:13,711 : INFO : EventManager : Event: ======'slide_awesome_slide_created'====== Args={'_from_bcp': True}
2022-04-18 14:57:13,738 : INFO : Machine : Starting the main run loop.
2022-04-18 14:57:13,833 : INFO : BcpServer : New client connected.
2022-04-18 14:57:16,276 : INFO : EventManager : Event: ======'slide_attract_started_created'====== Args={'_from_bcp': True}
2022-04-18 14:57:16,279 : INFO : EventManager : Event: ======'slide_awesome_slide_active'====== Args={'_from_bcp': True}
2022-04-18 14:57:16,703 : INFO : EventManager : Event: ======'slide_press_start_created'====== Args={'_from_bcp': True}
2022-04-18 14:57:16,704 : INFO : EventManager : Event: ======'slide_press_start_active'====== Args={'_from_bcp': True}
2022-04-18 14:57:19,648 : INFO : EventManager : Event: ======'slide_mission_pinball_created'====== Args={'_from_bcp': True}
2022-04-18 14:57:19,649 : INFO : EventManager : Event: ======'slide_mission_pinball_active'====== Args={'_from_bcp': True}
2022-04-18 14:57:22,659 : INFO : EventManager : Event: ======'slide_last_game_score_slide_created'====== Args={'_from_bcp': True}
2022-04-18 14:57:22,661 : INFO : EventManager : Event: ======'slide_last_game_score_slide_active'====== Args={'_from_bcp': True}
2022-04-18 14:57:25,651 : INFO : EventManager : Event: ======'slide_awesome_slide_removed'====== Args={'_from_bcp': True}
2022-04-18 14:57:25,653 : INFO : EventManager : Event: ======'slide_awesome_slide_created'====== Args={'_from_bcp': True}
2022-04-18 14:57:25,656 : INFO : EventManager : Event: ======'slide_awesome_slide_active'====== Args={'_from_bcp': True}
2022-04-18 14:57:28,650 : INFO : EventManager : Event: ======'slide_press_start_removed'====== Args={'_from_bcp': True}
2022-04-18 14:57:28,654 : INFO : EventManager : Event: ======'slide_press_start_created'====== Args={'_from_bcp': True}
2022-04-18 14:57:28,657 : INFO : EventManager : Event: ======'slide_press_start_active'====== Args={'_from_bcp': True}
2022-04-18 14:57:31,646 : INFO : EventManager : Event: ======'slide_mission_pinball_removed'====== Args={'_from_bcp': True}
2022-04-18 14:57:31,647 : INFO : EventManager : Event: ======'slide_mission_pinball_created'====== Args={'_from_bcp': True}
2022-04-18 14:57:31,649 : INFO : EventManager : Event: ======'slide_mission_pinball_active'====== Args={'_from_bcp': True}
2022-04-18 14:57:34,649 : INFO : EventManager : Event: ======'slide_last_game_score_slide_removed'====== Args={'_from_bcp': True}
2022-04-18 14:57:34,656 : INFO : EventManager : Event: ======'slide_last_game_score_slide_created'====== Args={'_from_bcp': True}
2022-04-18 14:57:34,658 : INFO : EventManager : Event: ======'slide_last_game_score_slide_active'====== Args={'_from_bcp': True}
2022-04-18 14:57:37,662 : INFO : EventManager : Event: ======'slide_awesome_slide_removed'====== Args={'_from_bcp': True}
2022-04-18 14:57:37,663 : INFO : EventManager : Event: ======'slide_awesome_slide_created'====== Args={'_from_bcp': True}
2022-04-18 14:57:37,665 : INFO : EventManager : Event: ======'slide_awesome_slide_active'====== Args={'_from_bcp': True}
2022-04-18 14:57:40,197 : INFO : BcpServer : New client connected.
2022-04-18 14:57:40,638 : INFO : EventManager : Event: ======'slide_press_start_removed'====== Args={'_from_bcp': True}
2022-04-18 14:57:40,645 : INFO : EventManager : Event: ======'slide_press_start_created'====== Args={'_from_bcp': True}
2022-04-18 14:57:40,648 : INFO : EventManager : Event: ======'slide_press_start_active'====== Args={'_from_bcp': True}
2022-04-18 14:57:43,656 : INFO : EventManager : Event: ======'slide_mission_pinball_removed'====== Args={'_from_bcp': True}
2022-04-18 14:57:43,660 : INFO : EventManager : Event: ======'slide_mission_pinball_created'====== Args={'_from_bcp': True}
2022-04-18 14:57:43,662 : INFO : EventManager : Event: ======'slide_mission_pinball_active'====== Args={'_from_bcp': True}
2022-04-18 14:57:46,645 : INFO : EventManager : Event: ======'slide_last_game_score_slide_removed'====== Args={'_from_bcp': True}
2022-04-18 14:57:46,651 : INFO : EventManager : Event: ======'slide_last_game_score_slide_created'====== Args={'_from_bcp': True}
2022-04-18 14:57:46,654 : INFO : EventManager : Event: ======'slide_last_game_score_slide_active'====== Args={'_from_bcp': True}
2022-04-18 14:57:49,656 : INFO : EventManager : Event: ======'slide_awesome_slide_removed'====== Args={'_from_bcp': True}
2022-04-18 14:57:49,661 : INFO : EventManager : Event: ======'slide_awesome_slide_created'====== Args={'_from_bcp': True}
2022-04-18 14:57:49,662 : INFO : EventManager : Event: ======'slide_awesome_slide_active'====== Args={'_from_bcp': True}
2022-04-18 14:57:52,647 : INFO : EventManager : Event: ======'slide_press_start_removed'====== Args={'_from_bcp': True}
2022-04-18 14:57:52,653 : INFO : EventManager : Event: ======'slide_press_start_created'====== Args={'_from_bcp': True}
2022-04-18 14:57:52,656 : INFO : EventManager : Event: ======'slide_press_start_active'====== Args={'_from_bcp': True}
2022-04-18 14:57:55,654 : INFO : EventManager : Event: ======'slide_mission_pinball_removed'====== Args={'_from_bcp': True}
2022-04-18 14:57:55,655 : INFO : EventManager : Event: ======'slide_mission_pinball_created'====== Args={'_from_bcp': True}
2022-04-18 14:57:55,657 : INFO : EventManager : Event: ======'slide_mission_pinball_active'====== Args={'_from_bcp': True}
2022-04-18 14:57:58,647 : INFO : EventManager : Event: ======'slide_last_game_score_slide_removed'====== Args={'_from_bcp': True}
2022-04-18 14:57:58,651 : INFO : EventManager : Event: ======'slide_last_game_score_slide_created'====== Args={'_from_bcp': True}
2022-04-18 14:57:58,653 : INFO : EventManager : Event: ======'slide_last_game_score_slide_active'====== Args={'_from_bcp': True}
2022-04-18 14:58:01,658 : INFO : EventManager : Event: ======'slide_awesome_slide_removed'====== Args={'_from_bcp': True}
2022-04-18 14:58:01,659 : INFO : EventManager : Event: ======'slide_awesome_slide_created'====== Args={'_from_bcp': True}
2022-04-18 14:58:01,660 : INFO : EventManager : Event: ======'slide_awesome_slide_active'====== Args={'_from_bcp': True}
2022-04-18 14:58:04,659 : INFO : EventManager : Event: ======'slide_press_start_removed'====== Args={'_from_bcp': True}
2022-04-18 14:58:04,662 : INFO : EventManager : Event: ======'slide_press_start_created'====== Args={'_from_bcp': True}
2022-04-18 14:58:04,664 : INFO : EventManager : Event: ======'slide_press_start_active'====== Args={'_from_bcp': True}
2022-04-18 14:58:07,654 : INFO : EventManager : Event: ======'slide_mission_pinball_removed'====== Args={'_from_bcp': True}
2022-04-18 14:58:07,658 : INFO : EventManager : Event: ======'slide_mission_pinball_created'====== Args={'_from_bcp': True}
2022-04-18 14:58:07,660 : INFO : EventManager : Event: ======'slide_mission_pinball_active'====== Args={'_from_bcp': True}
2022-04-18 14:58:10,645 : INFO : EventManager : Event: ======'slide_last_game_score_slide_removed'====== Args={'_from_bcp': True}
2022-04-18 14:58:10,649 : INFO : EventManager : Event: ======'slide_last_game_score_slide_created'====== Args={'_from_bcp': True}
2022-04-18 14:58:10,651 : INFO : EventManager : Event: ======'slide_last_game_score_slide_active'====== Args={'_from_bcp': True}
2022-04-18 14:58:13,656 : INFO : EventManager : Event: ======'slide_awesome_slide_removed'====== Args={'_from_bcp': True}
2022-04-18 14:58:13,660 : INFO : EventManager : Event: ======'slide_awesome_slide_created'====== Args={'_from_bcp': True}
2022-04-18 14:58:13,662 : INFO : EventManager : Event: ======'slide_awesome_slide_active'====== Args={'_from_bcp': True}
2022-04-18 14:58:16,644 : INFO : EventManager : Event: ======'slide_press_start_removed'====== Args={'_from_bcp': True}
2022-04-18 14:58:16,651 : INFO : EventManager : Event: ======'slide_press_start_created'====== Args={'_from_bcp': True}
2022-04-18 14:58:16,653 : INFO : EventManager : Event: ======'slide_press_start_active'====== Args={'_from_bcp': True}
2022-04-18 14:58:19,638 : INFO : EventManager : Event: ======'slide_mission_pinball_removed'====== Args={'_from_bcp': True}
2022-04-18 14:58:19,643 : INFO : EventManager : Event: ======'slide_mission_pinball_created'====== Args={'_from_bcp': True}
2022-04-18 14:58:19,644 : INFO : EventManager : Event: ======'slide_mission_pinball_active'====== Args={'_from_bcp': True}
2022-04-18 14:58:22,661 : INFO : EventManager : Event: ======'slide_last_game_score_slide_removed'====== Args={'_from_bcp': True}
2022-04-18 14:58:22,665 : INFO : EventManager : Event: ======'slide_last_game_score_slide_created'====== Args={'_from_bcp': True}
2022-04-18 14:58:22,667 : INFO : EventManager : Event: ======'slide_last_game_score_slide_active'====== Args={'_from_bcp': True}
2022-04-18 14:58:25,667 : INFO : EventManager : Event: ======'slide_awesome_slide_removed'====== Args={'_from_bcp': True}
2022-04-18 14:58:25,668 : INFO : EventManager : Event: ======'slide_awesome_slide_created'====== Args={'_from_bcp': True}
2022-04-18 14:58:25,685 : INFO : EventManager : Event: ======'slide_awesome_slide_active'====== Args={'_from_bcp': True}
2022-04-18 14:58:28,658 : INFO : EventManager : Event: ======'slide_press_start_removed'====== Args={'_from_bcp': True}
2022-04-18 14:58:28,661 : INFO : EventManager : Event: ======'slide_press_start_created'====== Args={'_from_bcp': True}
2022-04-18 14:58:28,664 : INFO : EventManager : Event: ======'slide_press_start_active'====== Args={'_from_bcp': True}
2022-04-18 14:58:31,648 : INFO : EventManager : Event: ======'slide_mission_pinball_removed'====== Args={'_from_bcp': True}
2022-04-18 14:58:31,649 : INFO : EventManager : Event: ======'slide_mission_pinball_created'====== Args={'_from_bcp': True}
2022-04-18 14:58:31,650 : INFO : EventManager : Event: ======'slide_mission_pinball_active'====== Args={'_from_bcp': True}
2022-04-18 14:58:34,667 : INFO : EventManager : Event: ======'slide_last_game_score_slide_removed'====== Args={'_from_bcp': True}
2022-04-18 14:58:34,674 : INFO : EventManager : Event: ======'slide_last_game_score_slide_created'====== Args={'_from_bcp': True}
2022-04-18 14:58:34,691 : INFO : EventManager : Event: ======'slide_last_game_score_slide_active'====== Args={'_from_bcp': True}
2022-04-18 14:58:37,647 : INFO : EventManager : Event: ======'slide_awesome_slide_removed'====== Args={'_from_bcp': True}
2022-04-18 14:58:37,652 : INFO : EventManager : Event: ======'slide_awesome_slide_created'====== Args={'_from_bcp': True}
2022-04-18 14:58:37,653 : INFO : EventManager : Event: ======'slide_awesome_slide_active'====== Args={'_from_bcp': True}
2022-04-18 14:58:40,657 : INFO : EventManager : Event: ======'slide_press_start_removed'====== Args={'_from_bcp': True}
2022-04-18 14:58:40,662 : INFO : EventManager : Event: ======'slide_press_start_created'====== Args={'_from_bcp': True}
2022-04-18 14:58:40,664 : INFO : EventManager : Event: ======'slide_press_start_active'====== Args={'_from_bcp': True}
2022-04-18 14:58:44,111 : INFO : EventManager : Event: ======'slide_mission_pinball_removed'====== Args={'_from_bcp': True}
2022-04-18 14:58:44,112 : INFO : EventManager : Event: ======'slide_mission_pinball_created'====== Args={'_from_bcp': True}
2022-04-18 14:58:44,114 : INFO : EventManager : Event: ======'slide_mission_pinball_active'====== Args={'_from_bcp': True}
2022-04-18 14:58:46,668 : INFO : EventManager : Event: ======'slide_last_game_score_slide_removed'====== Args={'_from_bcp': True}
2022-04-18 14:58:46,688 : INFO : EventManager : Event: ======'slide_last_game_score_slide_created'====== Args={'_from_bcp': True}
2022-04-18 14:58:46,689 : INFO : EventManager : Event: ======'slide_last_game_score_slide_active'====== Args={'_from_bcp': True}
2022-04-18 14:58:49,659 : INFO : EventManager : Event: ======'slide_awesome_slide_removed'====== Args={'_from_bcp': True}
2022-04-18 14:58:49,660 : INFO : EventManager : Event: ======'slide_awesome_slide_created'====== Args={'_from_bcp': True}
2022-04-18 14:58:49,661 : INFO : EventManager : Event: ======'slide_awesome_slide_active'====== Args={'_from_bcp': True}
2022-04-18 14:58:52,666 : INFO : EventManager : Event: ======'slide_press_start_removed'====== Args={'_from_bcp': True}
2022-04-18 14:58:52,668 : INFO : EventManager : Event: ======'slide_press_start_created'====== Args={'_from_bcp': True}
2022-04-18 14:58:52,670 : INFO : EventManager : Event: ======'slide_press_start_active'====== Args={'_from_bcp': True}
2022-04-18 14:58:55,644 : INFO : EventManager : Event: ======'slide_mission_pinball_removed'====== Args={'_from_bcp': True}
2022-04-18 14:58:55,645 : INFO : EventManager : Event: ======'slide_mission_pinball_created'====== Args={'_from_bcp': True}
2022-04-18 14:58:55,646 : INFO : EventManager : Event: ======'slide_mission_pinball_active'====== Args={'_from_bcp': True}
2022-04-18 14:58:58,662 : INFO : EventManager : Event: ======'slide_last_game_score_slide_removed'====== Args={'_from_bcp': True}
2022-04-18 14:58:58,668 : INFO : EventManager : Event: ======'slide_last_game_score_slide_created'====== Args={'_from_bcp': True}
2022-04-18 14:58:58,671 : INFO : EventManager : Event: ======'slide_last_game_score_slide_active'====== Args={'_from_bcp': True}
2022-04-18 14:59:01,661 : INFO : EventManager : Event: ======'slide_awesome_slide_removed'====== Args={'_from_bcp': True}
2022-04-18 14:59:01,665 : INFO : EventManager : Event: ======'slide_awesome_slide_created'====== Args={'_from_bcp': True}
2022-04-18 14:59:01,667 : INFO : EventManager : Event: ======'slide_awesome_slide_active'====== Args={'_from_bcp': True}
2022-04-18 14:59:04,657 : INFO : EventManager : Event: ======'slide_press_start_removed'====== Args={'_from_bcp': True}
2022-04-18 14:59:04,664 : INFO : EventManager : Event: ======'slide_press_start_created'====== Args={'_from_bcp': True}
2022-04-18 14:59:04,667 : INFO : EventManager : Event: ======'slide_press_start_active'====== Args={'_from_bcp': True}
2022-04-18 14:59:07,647 : INFO : EventManager : Event: ======'slide_mission_pinball_removed'====== Args={'_from_bcp': True}
2022-04-18 14:59:07,651 : INFO : EventManager : Event: ======'slide_mission_pinball_created'====== Args={'_from_bcp': True}
2022-04-18 14:59:07,652 : INFO : EventManager : Event: ======'slide_mission_pinball_active'====== Args={'_from_bcp': True}
2022-04-18 14:59:10,637 : INFO : EventManager : Event: ======'slide_last_game_score_slide_removed'====== Args={'_from_bcp': True}
2022-04-18 14:59:10,641 : INFO : EventManager : Event: ======'slide_last_game_score_slide_created'====== Args={'_from_bcp': True}
2022-04-18 14:59:10,643 : INFO : EventManager : Event: ======'slide_last_game_score_slide_active'====== Args={'_from_bcp': True}
2022-04-18 14:59:13,660 : INFO : EventManager : Event: ======'slide_awesome_slide_removed'====== Args={'_from_bcp': True}
2022-04-18 14:59:13,661 : INFO : EventManager : Event: ======'slide_awesome_slide_created'====== Args={'_from_bcp': True}
2022-04-18 14:59:13,662 : INFO : EventManager : Event: ======'slide_awesome_slide_active'====== Args={'_from_bcp': True}
2022-04-18 14:59:16,655 : INFO : EventManager : Event: ======'slide_press_start_removed'====== Args={'_from_bcp': True}
2022-04-18 14:59:16,660 : INFO : EventManager : Event: ======'slide_press_start_created'====== Args={'_from_bcp': True}
2022-04-18 14:59:16,663 : INFO : EventManager : Event: ======'slide_press_start_active'====== Args={'_from_bcp': True}
2022-04-18 14:59:19,648 : INFO : EventManager : Event: ======'slide_mission_pinball_removed'====== Args={'_from_bcp': True}
2022-04-18 14:59:19,649 : INFO : EventManager : Event: ======'slide_mission_pinball_created'====== Args={'_from_bcp': True}
2022-04-18 14:59:19,651 : INFO : EventManager : Event: ======'slide_mission_pinball_active'====== Args={'_from_bcp': True}
2022-04-18 14:59:22,705 : INFO : EventManager : Event: ======'slide_last_game_score_slide_removed'====== Args={'_from_bcp': True}
2022-04-18 14:59:22,708 : INFO : EventManager : Event: ======'slide_last_game_score_slide_created'====== Args={'_from_bcp': True}
2022-04-18 14:59:22,711 : INFO : EventManager : Event: ======'slide_last_game_score_slide_active'====== Args={'_from_bcp': True}
2022-04-18 14:59:25,662 : INFO : EventManager : Event: ======'slide_awesome_slide_removed'====== Args={'_from_bcp': True}
2022-04-18 14:59:25,663 : INFO : EventManager : Event: ======'slide_awesome_slide_created'====== Args={'_from_bcp': True}
2022-04-18 14:59:25,665 : INFO : EventManager : Event: ======'slide_awesome_slide_active'====== Args={'_from_bcp': True}
2022-04-18 14:59:28,636 : INFO : EventManager : Event: ======'slide_press_start_removed'====== Args={'_from_bcp': True}
2022-04-18 14:59:28,642 : INFO : EventManager : Event: ======'slide_press_start_created'====== Args={'_from_bcp': True}
2022-04-18 14:59:28,644 : INFO : EventManager : Event: ======'slide_press_start_active'====== Args={'_from_bcp': True}
2022-04-18 14:59:31,658 : INFO : EventManager : Event: ======'slide_mission_pinball_removed'====== Args={'_from_bcp': True}
2022-04-18 14:59:31,662 : INFO : EventManager : Event: ======'slide_mission_pinball_created'====== Args={'_from_bcp': True}
2022-04-18 14:59:31,664 : INFO : EventManager : Event: ======'slide_mission_pinball_active'====== Args={'_from_bcp': True}
2022-04-18 14:59:34,659 : INFO : EventManager : Event: ======'slide_last_game_score_slide_removed'====== Args={'_from_bcp': True}
2022-04-18 14:59:34,666 : INFO : EventManager : Event: ======'slide_last_game_score_slide_created'====== Args={'_from_bcp': True}
2022-04-18 14:59:34,669 : INFO : EventManager : Event: ======'slide_last_game_score_slide_active'====== Args={'_from_bcp': True}
2022-04-18 14:59:37,655 : INFO : EventManager : Event: ======'slide_awesome_slide_removed'====== Args={'_from_bcp': True}
2022-04-18 14:59:37,655 : INFO : EventManager : Event: ======'slide_awesome_slide_created'====== Args={'_from_bcp': True}
2022-04-18 14:59:37,658 : INFO : EventManager : Event: ======'slide_awesome_slide_active'====== Args={'_from_bcp': True}
2022-04-18 14:59:40,656 : INFO : EventManager : Event: ======'slide_press_start_removed'====== Args={'_from_bcp': True}
2022-04-18 14:59:40,662 : INFO : EventManager : Event: ======'slide_press_start_created'====== Args={'_from_bcp': True}
2022-04-18 14:59:40,664 : INFO : EventManager : Event: ======'slide_press_start_active'====== Args={'_from_bcp': True}
2022-04-18 14:59:43,659 : INFO : EventManager : Event: ======'slide_mission_pinball_removed'====== Args={'_from_bcp': True}
2022-04-18 14:59:43,659 : INFO : EventManager : Event: ======'slide_mission_pinball_created'====== Args={'_from_bcp': True}
2022-04-18 14:59:43,661 : INFO : EventManager : Event: ======'slide_mission_pinball_active'====== Args={'_from_bcp': True}
2022-04-18 14:59:46,649 : INFO : EventManager : Event: ======'slide_last_game_score_slide_removed'====== Args={'_from_bcp': True}
2022-04-18 14:59:46,652 : INFO : EventManager : Event: ======'slide_last_game_score_slide_created'====== Args={'_from_bcp': True}
2022-04-18 14:59:46,654 : INFO : EventManager : Event: ======'slide_last_game_score_slide_active'====== Args={'_from_bcp': True}
2022-04-18 14:59:49,635 : INFO : EventManager : Event: ======'slide_awesome_slide_removed'====== Args={'_from_bcp': True}
2022-04-18 14:59:49,636 : INFO : EventManager : Event: ======'slide_awesome_slide_created'====== Args={'_from_bcp': True}
2022-04-18 14:59:49,638 : INFO : EventManager : Event: ======'slide_awesome_slide_active'====== Args={'_from_bcp': True}
2022-04-18 14:59:52,654 : INFO : EventManager : Event: ======'slide_press_start_removed'====== Args={'_from_bcp': True}
2022-04-18 14:59:52,658 : INFO : EventManager : Event: ======'slide_press_start_created'====== Args={'_from_bcp': True}
2022-04-18 14:59:52,661 : INFO : EventManager : Event: ======'slide_press_start_active'====== Args={'_from_bcp': True}
2022-04-18 14:59:55,649 : INFO : EventManager : Event: ======'slide_mission_pinball_removed'====== Args={'_from_bcp': True}
2022-04-18 14:59:55,708 : INFO : EventManager : Event: ======'slide_mission_pinball_created'====== Args={'_from_bcp': True}
2022-04-18 14:59:55,712 : INFO : EventManager : Event: ======'slide_mission_pinball_active'====== Args={'_from_bcp': True}
2022-04-18 14:59:58,791 : INFO : Machine : Shutting down...
2022-04-18 14:59:58,791 : INFO : EventManager : Event: ======'shutdown'====== Args={}
2022-04-18 14:59:58,801 : INFO : root : MPF run loop ended.
