2022-04-10 10:25:07,165 : INFO : root : Loading config.
2022-04-10 10:25:07,977 : INFO : ConfigProcessor : Config spec file cache created: C:\Users\MEESTE~1\AppData\Local\Temp\config_spec.mpf_cache
2022-04-10 10:25:07,977 : INFO : YamlMultifileConfigLoader : Machine config file #1: config.yaml
2022-04-10 10:25:07,977 : WARNING : ConfigProcessor : Config file in cache changed: C:\MissionPinball\pnp\config\config.yaml
2022-04-10 10:25:07,977 : INFO : ConfigProcessor : Loading config from file c:\mpfenv\lib\site-packages\mpf\mpfconfig.yaml.
2022-04-10 10:25:08,144 : INFO : ConfigProcessor : Loading config: c:\mpfenv\lib\site-packages\mpf\mpfconfig.yaml
2022-04-10 10:25:08,146 : INFO : ConfigProcessor : Loading config from file C:\MissionPinball\pnp\config\config.yaml.
2022-04-10 10:25:08,163 : INFO : ConfigProcessor : Loading config: C:\MissionPinball\pnp\config\config.yaml
2022-04-10 10:25:08,311 : INFO : ConfigProcessor : Loading config: C:\MissionPinball\pnp\config\hardware.yaml
2022-04-10 10:25:08,317 : INFO : ConfigProcessor : Config file cache created: C:\Users\MEESTE~1\AppData\Local\Temp\af064a846ce047fe2c07c952e5656c9d.mpf_cache
2022-04-10 10:25:08,485 : INFO : ConfigProcessor : Loading config from cache: C:\Users\MEESTE~1\AppData\Local\Temp\67dd6918687bfedec306007a472007ee.mpf_cache
2022-04-10 10:25:08,487 : INFO : ConfigProcessor : Loading config from cache: C:\Users\MEESTE~1\AppData\Local\Temp\b16855f32fa15912a0c8dc3278537500.mpf_cache
2022-04-10 10:25:08,489 : WARNING : ConfigProcessor : Config file in cache changed: C:\MissionPinball\pnp\modes\base\config\base.yaml
2022-04-10 10:25:08,489 : INFO : ConfigProcessor : Loading config from file C:\MissionPinball\pnp\modes\base\config\base.yaml.
