2022-04-16 10:05:24,884 : INFO : root : Loading MPF Monitor
2022-04-16 10:05:25,288 : INFO : Core : Looking for MPF at localhost:5051
2022-04-16 10:05:26,515 : INFO : BCP Client : Connected to MPF
2022-04-16 16:55:37,648 : INFO : root : MPF Monitor run loop ended.
2022-04-16 16:55:37,648 : INFO : root : Stopping child threads... (0 remaining)
2022-04-16 16:55:37,648 : INFO : root : All child threads stopped.
