2022-04-18 10:00:20,286 : INFO : root : Loading MPF Monitor
2022-04-18 10:00:20,719 : INFO : Core : Looking for MPF at localhost:5051
2022-04-18 10:00:21,889 : INFO : BCP Client : Connected to MPF
2022-04-18 10:29:46,101 : INFO : BCP Client : Connected to MPF
2022-04-18 10:38:00,938 : INFO : BCP Client : Connected to MPF
2022-04-18 10:38:59,149 : INFO : root : MPF Monitor run loop ended.
2022-04-18 10:38:59,149 : INFO : root : Stopping child threads... (2 remaining)
2022-04-18 10:38:59,951 : INFO : root : All child threads stopped.
