2022-04-13 21:43:58,572 : INFO : root : Loading config.
2022-04-13 21:43:59,385 : INFO : ConfigProcessor : Config spec file cache created: C:\Users\MEESTE~1\AppData\Local\Temp\config_spec.mpf_cache
2022-04-13 21:43:59,386 : INFO : YamlMultifileConfigLoader : Machine config file #1: config.yaml
2022-04-13 21:43:59,386 : INFO : ConfigProcessor : Loading config from cache: C:\Users\MEESTE~1\AppData\Local\Temp\af064a846ce047fe2c07c952e5656c9d.mpf_cache
2022-04-13 21:43:59,484 : INFO : ConfigProcessor : Loading config from cache: C:\Users\MEESTE~1\AppData\Local\Temp\67dd6918687bfedec306007a472007ee.mpf_cache
2022-04-13 21:43:59,485 : INFO : ConfigProcessor : Loading config from cache: C:\Users\MEESTE~1\AppData\Local\Temp\b16855f32fa15912a0c8dc3278537500.mpf_cache
2022-04-13 21:43:59,487 : INFO : ConfigProcessor : Loading config from cache: C:\Users\MEESTE~1\AppData\Local\Temp\92215af4dd7e20683270ecff1545a54c.mpf_cache
2022-04-13 21:43:59,490 : INFO : ConfigProcessor : Loading config from cache: C:\Users\MEESTE~1\AppData\Local\Temp\87e6ec02150cf5c93298edc451612a3e.mpf_cache
2022-04-13 21:43:59,491 : INFO : ConfigProcessor : Loading config from cache: C:\Users\MEESTE~1\AppData\Local\Temp\68dc9fd901951d85acd92aa950470e18.mpf_cache
2022-04-13 21:43:59,492 : INFO : Machine : Mission Pinball Framework Core Engine v0.55.0
2022-04-13 21:43:59,492 : INFO : Machine : Command line arguments: {'no_load_cache': False, 'create_config_cache': True, 'bcp': True, 'configfile': ['config.yaml'], 'force_assets_load': False, 'jsonlogging': False, 'logfile': 'logs\\2022-04-13-21-43-58-mpf-MeesterPieter.log', 'pause': False, 'production': False, 'text_ui': True, 'loglevel': 15, 'consoleloglevel': 20, 'force_platform': None, 'syslog_address': None, 'mc_file_name': None, 'no_sound': False}
2022-04-13 21:43:59,492 : INFO : Machine : MPF path: c:\mpfenv\lib\site-packages\mpf
2022-04-13 21:43:59,492 : INFO : Machine : Machine path: C:\MissionPinball\pnp
2022-04-13 21:43:59,492 : INFO : Machine : Platform: win32
2022-04-13 21:43:59,492 : INFO : Machine : Python executable location: c:\mpfenv\scripts\python.exe
2022-04-13 21:43:59,492 : INFO : Machine : Python version: 3.7.8 (64-bit)
2022-04-13 21:43:59,495 : INFO : Machine : Initialise MPF.
2022-04-13 21:43:59,840 : INFO : OPP : Connecting to COM3 at 115200bps
2022-04-13 21:43:59,845 : INFO : Machine : Shutting down...
2022-04-13 21:43:59,845 : INFO : EventManager : Event: ======'shutdown'====== Args={}
2022-04-13 21:43:59,846 : ERROR : Machine : Failed to initialise MPF
Traceback (most recent call last):
  File "c:\mpfenv\lib\site-packages\mpf\core\machine.py", line 673, in initialise_mpf
    raise init.exception()
  File "c:\mpfenv\lib\site-packages\mpf\core\machine.py", line 244, in initialise
    await self.initialise_core_and_hardware()
  File "c:\mpfenv\lib\site-packages\mpf\core\machine.py", line 240, in initialise_core_and_hardware
    await self._initialize_platforms()
  File "c:\mpfenv\lib\site-packages\mpf\core\machine.py", line 331, in _initialize_platforms
    result.result()
  File "c:\mpfenv\lib\site-packages\mpf\platforms\opp\opp.py", line 105, in initialize
    await self._connect_to_hardware()
  File "c:\mpfenv\lib\site-packages\mpf\platforms\opp\opp.py", line 278, in _connect_to_hardware
    await comm.connect()
  File "c:\mpfenv\lib\site-packages\mpf\platforms\base_serial_communicator.py", line 45, in connect
    await self._connect_to_hardware(self.port, self.baud, self.xonxoff)
  File "c:\mpfenv\lib\site-packages\mpf\platforms\base_serial_communicator.py", line 54, in _connect_to_hardware
    self.reader, self.writer = await connector
  File "c:\mpfenv\lib\site-packages\mpf\core\clock.py", line 155, in open_serial_connection
    **kwargs)
  File "C:\Users\Meester Pieter\AppData\Local\Programs\Python\Python37\lib\asyncio\coroutines.py", line 120, in coro
    res = func(*args, **kw)
  File "c:\mpfenv\lib\site-packages\serial_asyncio\__init__.py", line 410, in create_serial_connection
    ser = serial.serial_for_url(*args, **kwargs)
  File "c:\mpfenv\lib\site-packages\serial\__init__.py", line 90, in serial_for_url
    instance.open()
  File "c:\mpfenv\lib\site-packages\serial\serialwin32.py", line 64, in open
    raise SerialException("could not open port {!r}: {!r}".format(self.portstr, ctypes.WinError()))
serial.serialutil.SerialException: could not open port 'COM3': FileNotFoundError(2, 'The system cannot find the file specified.', None, 2)
2022-04-13 21:44:02,160 : INFO : root : MPF run loop ended.
