2022-04-04 10:55:31,056 : INFO : root : Loading MPF Monitor
2022-04-04 10:55:31,486 : INFO : Core : Looking for MPF at localhost:5051
2022-04-04 10:55:32,748 : INFO : BCP Client : Connected to MPF
2022-04-04 11:20:22,575 : INFO : BCP Client : Connected to MPF
2022-04-04 11:34:05,460 : INFO : BCP Client : Connected to MPF
2022-04-04 11:53:29,532 : INFO : BCP Client : Connected to MPF
2022-04-04 12:08:38,859 : INFO : BCP Client : Connected to MPF
2022-04-04 12:32:06,299 : INFO : BCP Client : Connected to MPF
2022-04-04 12:40:44,955 : INFO : BCP Client : Connected to MPF
2022-04-04 12:55:54,020 : INFO : BCP Client : Connected to MPF
2022-04-04 12:57:21,738 : INFO : BCP Client : Connected to MPF
2022-04-04 12:57:48,602 : INFO : BCP Client : Connected to MPF
2022-04-04 12:58:20,036 : INFO : BCP Client : Connected to MPF
2022-04-04 12:58:53,996 : INFO : BCP Client : Connected to MPF
2022-04-04 12:59:02,120 : INFO : BCP Client : Connected to MPF
2022-04-04 12:59:59,409 : INFO : BCP Client : Connected to MPF
2022-04-04 13:00:53,149 : INFO : BCP Client : Connected to MPF
2022-04-04 13:02:10,718 : INFO : BCP Client : Connected to MPF
2022-04-04 13:02:54,830 : INFO : BCP Client : Connected to MPF
2022-04-04 13:03:58,201 : INFO : BCP Client : Connected to MPF
2022-04-04 13:04:56,511 : INFO : BCP Client : Connected to MPF
2022-04-04 13:46:56,382 : INFO : BCP Client : Connected to MPF
2022-04-04 13:54:03,278 : INFO : BCP Client : Connected to MPF
2022-04-04 14:43:02,385 : INFO : BCP Client : Connected to MPF
2022-04-04 14:55:11,455 : INFO : BCP Client : Connected to MPF
2022-04-04 14:57:31,902 : INFO : BCP Client : Connected to MPF
2022-04-04 14:57:52,178 : INFO : BCP Client : Connected to MPF
2022-04-04 15:04:27,642 : INFO : BCP Client : Connected to MPF
2022-04-04 15:06:10,580 : INFO : BCP Client : Connected to MPF
2022-04-04 15:08:13,262 : INFO : BCP Client : Connected to MPF
2022-04-04 15:09:57,702 : INFO : BCP Client : Connected to MPF
2022-04-04 15:16:57,011 : INFO : BCP Client : Connected to MPF
2022-04-04 15:18:07,994 : INFO : BCP Client : Connected to MPF
2022-04-04 15:28:20,962 : INFO : BCP Client : Connected to MPF
2022-04-04 15:29:05,568 : INFO : BCP Client : Connected to MPF
2022-04-04 15:31:17,390 : INFO : BCP Client : Connected to MPF
2022-04-04 15:35:14,667 : INFO : BCP Client : Connected to MPF
2022-04-04 16:01:15,794 : INFO : BCP Client : Connected to MPF
